Messung_Leistungskennlinie_versch_Harvester/Harvester_alt/20kmh/Harvester_5kOhm.CSV

Model,MSO2024
Firmware Version,1.52

Point Format,Y
Horizontal Units,S
Horizontal Scale,0.04
Sample Interval,3.2e-06
Filter Frequency,2e+08
Record Length,125000
Gating,0.0% to 100.0%
Probe Attenuation,10
Vertical Units,V
Vertical Offset,0
Vertical Scale,0.05
Label,
TIME,CH1
-2.00000e-01,0.0686563
-1.99997e-01,0.0640156
-1.99994e-01,0.0718125
-1.99990e-01,0.0719375
-1.99987e-01,0.0681328
-1.99984e-01,0.0724922
-1.99981e-01,0.0719063
-1.99978e-01,0.0749766
-1.99974e-01,0.0714531
-1.99971e-01,0.0633906
-1.99968e-01,0.0721328
-1.99965e-01,0.0699375
-1.99962e-01,0.0739219
-1.99958e-01,0.0662656
-1.99955e-01,0.0705703
-1.99952e-01,0.0677188
-1.99949e-01,0.0722422
-1.99946e-01,0.0690469
-1.99942e-01,0.0687813
-1.99939e-01,0.0671484
-1.99936e-01,0.0693203
-1.99933e-01,0.0698672
-1.99930e-01,0.0751719
-1.99926e-01,0.0743438
-1.99923e-01,0.0626719
-1.99920e-01,0.0714531
-1.99917e-01,0.0724141
-1.99914e-01,0.0705859
-1.99910e-01,0.073375
-1.99907e-01,0.0727266
-1.99904e-01,0.066625
-1.99901e-01,0.0718359
-1.99898e-01,0.0687813
-1.99894e-01,0.0704922
-1.99891e-01,0.0698203
-1.99888e-01,0.0657656
-1.99885e-01,0.0670313
-1.99882e-01,0.0670859
-1.99878e-01,0.0714531
-1.99875e-01,0.0674219
-1.99872e-01,0.0719297
-1.99869e-01,0.0758516
-1.99866e-01,0.0631172
-1.99862e-01,0.0728516
-1.99859e-01,0.0667031
-1.99856e-01,0.0730547
-1.99853e-01,0.0685703
-1.99850e-01,0.0767344
-1.99846e-01,0.0690391
-1.99843e-01,0.0693125
-1.99840e-01,0.0706406
-1.99837e-01,0.068875
-1.99834e-01,0.0730781
-1.99830e-01,0.0707656
-1.99827e-01,0.0735391
-1.99824e-01,0.0700469
-1.99821e-01,0.0682656
-1.99818e-01,0.0684219
-1.99814e-01,0.0698828
-1.99811e-01,0.0732734
-1.99808e-01,0.06325
-1.99805e-01,0.0708828
-1.99802e-01,0.0722656
-1.99798e-01,0.0711563
-1.99795e-01,0.0692344
-1.99792e-01,0.0728984
-1.99789e-01,0.0694297
-1.99786e-01,0.0750313
-1.99782e-01,0.0699453
-1.99779e-01,0.0726406
-1.99776e-01,0.07
-1.99773e-01,0.0728984
-1.99770e-01,0.0737266
-1.99766e-01,0.0727734
-1.99763e-01,0.0738359
-1.99760e-01,0.0698203
-1.99757e-01,0.0719531
-1.99754e-01,0.0740078
-1.99750e-01,0.0672422
-1.99747e-01,0.0707891
-1.99744e-01,0.0728281
-1.99741e-01,0.0656172
-1.99738e-01,0.0648516
-1.99734e-01,0.0706016
-1.99731e-01,0.0743125
-1.99728e-01,0.0709609
-1.99725e-01,0.0729453
-1.99722e-01,0.0644375
-1.99718e-01,0.0688984
-1.99715e-01,0.0730625
-1.99712e-01,0.0672109
-1.99709e-01,0.068875
-1.99706e-01,0.0754063
-1.99702e-01,0.06525
-1.99699e-01,0.0732422
-1.99696e-01,0.0657969
-1.99693e-01,0.0720938
-1.99690e-01,0.0725859
-1.99686e-01,0.0716328
-1.99683e-01,0.0742109
-1.99680e-01,0.0708672
-1.99677e-01,0.0635859
-1.99674e-01,0.071875
-1.99670e-01,0.0748672
-1.99667e-01,0.0699375
-1.99664e-01,0.0719375
-1.99661e-01,0.0654609
-1.99658e-01,0.07125
-1.99654e-01,0.0736875
-1.99651e-01,0.0694922
-1.99648e-01,0.0678203
-1.99645e-01,0.0732266
-1.99642e-01,0.0704219
-1.99638e-01,0.0690703
-1.99635e-01,0.0741172
-1.99632e-01,0.0721016
-1.99629e-01,0.0694219
-1.99626e-01,0.0743672
-1.99622e-01,0.0767813
-1.99619e-01,0.0670156
-1.99616e-01,0.0717422
-1.99613e-01,0.06525
-1.99610e-01,0.0730391
-1.99606e-01,0.0708359
-1.99603e-01,0.0687422
-1.99600e-01,0.0680469
-1.99597e-01,0.0706953
-1.99594e-01,0.0663906
-1.99590e-01,0.0739688
-1.99587e-01,0.0700234
-1.99584e-01,0.0760703
-1.99581e-01,0.0688438
-1.99578e-01,0.0702891
-1.99574e-01,0.0717109
-1.99571e-01,0.0715234
-1.99568e-01,0.0748047
-1.99565e-01,0.0679375
-1.99562e-01,0.06775
-1.99558e-01,0.0689453
-1.99555e-01,0.07175
-1.99552e-01,0.0753984
-1.99549e-01,0.0659922
-1.99546e-01,0.0711094
-1.99542e-01,0.0684844
-1.99539e-01,0.0736016
-1.99536e-01,0.071
-1.99533e-01,0.0720781
-1.99530e-01,0.07375
-1.99526e-01,0.0675
-1.99523e-01,0.0706563
-1.99520e-01,0.0660234
-1.99517e-01,0.0693828
-1.99514e-01,0.0676875
-1.99510e-01,0.0731719
-1.99507e-01,0.0741094
-1.99504e-01,0.0669531
-1.99501e-01,0.0655781
-1.99498e-01,0.0699609
-1.99494e-01,0.0664063
-1.99491e-01,0.0668203
-1.99488e-01,0.0710547
-1.99485e-01,0.0715391
-1.99482e-01,0.0715938
-1.99478e-01,0.0718516
-1.99475e-01,0.0695625
-1.99472e-01,0.0671094
-1.99469e-01,0.0688203
-1.99466e-01,0.0690703
-1.99462e-01,0.069375
-1.99459e-01,0.0668125
-1.99456e-01,0.0728828
-1.99453e-01,0.0697422
-1.99450e-01,0.0734844
-1.99446e-01,0.0730781
-1.99443e-01,0.0617109
-1.99440e-01,0.070875
-1.99437e-01,0.0683359
-1.99434e-01,0.0680625
-1.99430e-01,0.0700313
-1.99427e-01,0.0685469
-1.99424e-01,0.0755078
-1.99421e-01,0.0665547
-1.99418e-01,0.0732734
-1.99414e-01,0.0701094
-1.99411e-01,0.0701484
-1.99408e-01,0.0680391
-1.99405e-01,0.0683203
-1.99402e-01,0.0714922
-1.99398e-01,0.0685859
-1.99395e-01,0.0757891
-1.99392e-01,0.071875
-1.99389e-01,0.0726328
-1.99386e-01,0.0644219
-1.99382e-01,0.0739453
-1.99379e-01,0.0696484
-1.99376e-01,0.0696563
-1.99373e-01,0.0699922
-1.99370e-01,0.0651172
-1.99366e-01,0.0743516
-1.99363e-01,0.0739453
-1.99360e-01,0.0705
-1.99357e-01,0.0692031
-1.99354e-01,0.0699453
-1.99350e-01,0.0718594
-1.99347e-01,0.0710156
-1.99344e-01,0.0711719
-1.99341e-01,0.0745391
-1.99338e-01,0.0742734
-1.99334e-01,0.0724844
-1.99331e-01,0.06625
-1.99328e-01,0.0702422
-1.99325e-01,0.072625
-1.99322e-01,0.0681563
-1.99318e-01,0.0727656
-1.99315e-01,0.0692656
-1.99312e-01,0.0732578
-1.99309e-01,0.0714766
-1.99306e-01,0.073
-1.99302e-01,0.0637344
-1.99299e-01,0.0724531
-1.99296e-01,0.0716563
-1.99293e-01,0.0718672
-1.99290e-01,0.0671641
-1.99286e-01,0.0702031
-1.99283e-01,0.0695703
-1.99280e-01,0.0661094
-1.99277e-01,0.0727734
-1.99274e-01,0.0683203
-1.99270e-01,0.0740156
-1.99267e-01,0.0692734
-1.99264e-01,0.0693203
-1.99261e-01,0.0683516
-1.99258e-01,0.0710781
-1.99254e-01,0.0652266
-1.99251e-01,0.0717578
-1.99248e-01,0.0718594
-1.99245e-01,0.0750156
-1.99242e-01,0.0708438
-1.99238e-01,0.0646719
-1.99235e-01,0.0722734
-1.99232e-01,0.0647891
-1.99229e-01,0.072
-1.99226e-01,0.0689609
-1.99222e-01,0.0699688
-1.99219e-01,0.0761484
-1.99216e-01,0.0684766
-1.99213e-01,0.0681484
-1.99210e-01,0.0666641
-1.99206e-01,0.0750859
-1.99203e-01,0.0761094
-1.99200e-01,0.0644375
-1.99197e-01,0.0730625
-1.99194e-01,0.0748359
-1.99190e-01,0.0706953
-1.99187e-01,0.0782969
-1.99184e-01,0.0696875
-1.99181e-01,0.0698125
-1.99178e-01,0.0719453
-1.99174e-01,0.0678359
-1.99171e-01,0.0670469
-1.99168e-01,0.0708906
-1.99165e-01,0.0741563
-1.99162e-01,0.0703438
-1.99158e-01,0.0695703
-1.99155e-01,0.0752578
-1.99152e-01,0.0647188
-1.99149e-01,0.0678984
-1.99146e-01,0.0675
-1.99142e-01,0.0658906
-1.99139e-01,0.0758359
-1.99136e-01,0.0677031
-1.99133e-01,0.0697578
-1.99130e-01,0.0684063
-1.99126e-01,0.0790859
-1.99123e-01,0.0710547
-1.99120e-01,0.0746094
-1.99117e-01,0.0694766
-1.99114e-01,0.0683047
-1.99110e-01,0.0781953
-1.99107e-01,0.065375
-1.99104e-01,0.0729297
-1.99101e-01,0.0727422
-1.99098e-01,0.0733438
-1.99094e-01,0.0689531
-1.99091e-01,0.0699766
-1.99088e-01,0.0678672
-1.99085e-01,0.0722266
-1.99082e-01,0.0648047
-1.99078e-01,0.0703906
-1.99075e-01,0.0707031
-1.99072e-01,0.0703047
-1.99069e-01,0.0704688
-1.99066e-01,0.0699766
-1.99062e-01,0.0668125
-1.99059e-01,0.0730391
-1.99056e-01,0.0673047
-1.99053e-01,0.0638516
-1.99050e-01,0.0762266
-1.99046e-01,0.0705313
-1.99043e-01,0.0722578
-1.99040e-01,0.0685
-1.99037e-01,0.0735469
-1.99034e-01,0.069
-1.99030e-01,0.0721797
-1.99027e-01,0.0734063
-1.99024e-01,0.0711484
-1.99021e-01,0.0714063
-1.99018e-01,0.0719688
-1.99014e-01,0.069625
-1.99011e-01,0.0672578
-1.99008e-01,0.0695781
-1.99005e-01,0.0671641
-1.99002e-01,0.067875
-1.98998e-01,0.0732656
-1.98995e-01,0.0715859
-1.98992e-01,0.0678828
-1.98989e-01,0.0696563
-1.98986e-01,0.0669688
-1.98982e-01,0.0740938
-1.98979e-01,0.0703281
-1.98976e-01,0.0728672
-1.98973e-01,0.0692656
-1.98970e-01,0.0651484
-1.98966e-01,0.0683828
-1.98963e-01,0.0674063
-1.98960e-01,0.0701875
-1.98957e-01,0.0658203
-1.98954e-01,0.0689141
-1.98950e-01,0.0727188
-1.98947e-01,0.0705234
-1.98944e-01,0.0708828
-1.98941e-01,0.0739766
-1.98938e-01,0.0632813
-1.98934e-01,0.06375
-1.98931e-01,0.0718672
-1.98928e-01,0.0676094
-1.98925e-01,0.0727266
-1.98922e-01,0.0666563
-1.98918e-01,0.0707734
-1.98915e-01,0.0692813
-1.98912e-01,0.0740391
-1.98909e-01,0.0749219
-1.98906e-01,0.0708047
-1.98902e-01,0.0711953
-1.98899e-01,0.0668125
-1.98896e-01,0.0677188
-1.98893e-01,0.0713516
-1.98890e-01,0.0681641
-1.98886e-01,0.0733906
-1.98883e-01,0.0676094
-1.98880e-01,0.0638203
-1.98877e-01,0.0756719
-1.98874e-01,0.0673984
-1.98870e-01,0.0741406
-1.98867e-01,0.0738359
-1.98864e-01,0.0672109
-1.98861e-01,0.0742188
-1.98858e-01,0.0714453
-1.98854e-01,0.0641641
-1.98851e-01,0.0706016
-1.98848e-01,0.0741016
-1.98845e-01,0.0722656
-1.98842e-01,0.0681641
-1.98838e-01,0.0756641
-1.98835e-01,0.0646875
-1.98832e-01,0.0718438
-1.98829e-01,0.0712266
-1.98826e-01,0.0723828
-1.98822e-01,0.0651563
-1.98819e-01,0.0722109
-1.98816e-01,0.0735391
-1.98813e-01,0.0705391
-1.98810e-01,0.0714922
-1.98806e-01,0.0715625
-1.98803e-01,0.0646875
-1.98800e-01,0.0762344
-1.98797e-01,0.0724063
-1.98794e-01,0.0735469
-1.98790e-01,0.0690703
-1.98787e-01,0.068125
-1.98784e-01,0.0712109
-1.98781e-01,0.0672734
-1.98778e-01,0.0672109
-1.98774e-01,0.0654766
-1.98771e-01,0.0707109
-1.98768e-01,0.0744375
-1.98765e-01,0.0695781
-1.98762e-01,0.0683984
-1.98758e-01,0.0654063
-1.98755e-01,0.0728516
-1.98752e-01,0.0734063
-1.98749e-01,0.0667031
-1.98746e-01,0.0686641
-1.98742e-01,0.0675
-1.98739e-01,0.0656094
-1.98736e-01,0.0664766
-1.98733e-01,0.0719453
-1.98730e-01,0.0695938
-1.98726e-01,0.0660625
-1.98723e-01,0.0700078
-1.98720e-01,0.0673281
-1.98717e-01,0.0697969
-1.98714e-01,0.0698594
-1.98710e-01,0.0719844
-1.98707e-01,0.0685078
-1.98704e-01,0.0705078
-1.98701e-01,0.0679922
-1.98698e-01,0.0737109
-1.98694e-01,0.0704688
-1.98691e-01,0.0738906
-1.98688e-01,0.0689375
-1.98685e-01,0.0692969
-1.98682e-01,0.0673125
-1.98678e-01,0.0724844
-1.98675e-01,0.0696172
-1.98672e-01,0.0680547
-1.98669e-01,0.0687188
-1.98666e-01,0.0717969
-1.98662e-01,0.0688906
-1.98659e-01,0.0671797
-1.98656e-01,0.0717734
-1.98653e-01,0.0657734
-1.98650e-01,0.0677266
-1.98646e-01,0.0736406
-1.98643e-01,0.0689141
-1.98640e-01,0.0694141
-1.98637e-01,0.0658438
-1.98634e-01,0.0699063
-1.98630e-01,0.0691328
-1.98627e-01,0.0682344
-1.98624e-01,0.0672734
-1.98621e-01,0.0668281
-1.98618e-01,0.0679922
-1.98614e-01,0.0658047
-1.98611e-01,0.0703047
-1.98608e-01,0.0702969
-1.98605e-01,0.0719063
-1.98602e-01,0.0693281
-1.98598e-01,0.0704453
-1.98595e-01,0.0658828
-1.98592e-01,0.0701875
-1.98589e-01,0.0699297
-1.98586e-01,0.0723984
-1.98582e-01,0.067125
-1.98579e-01,0.0730469
-1.98576e-01,0.0631016
-1.98573e-01,0.0690313
-1.98570e-01,0.0715078
-1.98566e-01,0.0686406
-1.98563e-01,0.0713672
-1.98560e-01,0.0670234
-1.98557e-01,0.0701641
-1.98554e-01,0.0627891
-1.98550e-01,0.0661797
-1.98547e-01,0.0759453
-1.98544e-01,0.0694688
-1.98541e-01,0.0712188
-1.98538e-01,0.0710859
-1.98534e-01,0.0679141
-1.98531e-01,0.0684922
-1.98528e-01,0.0675313
-1.98525e-01,0.0669297
-1.98522e-01,0.0676328
-1.98518e-01,0.0688359
-1.98515e-01,0.0721719
-1.98512e-01,0.0671875
-1.98509e-01,0.0698906
-1.98506e-01,0.0680469
-1.98502e-01,0.0746172
-1.98499e-01,0.0654141
-1.98496e-01,0.0698359
-1.98493e-01,0.0718516
-1.98490e-01,0.0713984
-1.98486e-01,0.0766719
-1.98483e-01,0.0687656
-1.98480e-01,0.0740781
-1.98477e-01,0.0684219
-1.98474e-01,0.0740938
-1.98470e-01,0.0661563
-1.98467e-01,0.0736328
-1.98464e-01,0.0665156
-1.98461e-01,0.0666641
-1.98458e-01,0.0700469
-1.98454e-01,0.0662188
-1.98451e-01,0.0717578
-1.98448e-01,0.0705547
-1.98445e-01,0.0689844
-1.98442e-01,0.0671719
-1.98438e-01,0.0678438
-1.98435e-01,0.0716641
-1.98432e-01,0.0680547
-1.98429e-01,0.0647109
-1.98426e-01,0.0685859
-1.98422e-01,0.0657813
-1.98419e-01,0.0742266
-1.98416e-01,0.0695469
-1.98413e-01,0.0706875
-1.98410e-01,0.0692344
-1.98406e-01,0.0674531
-1.98403e-01,0.0696875
-1.98400e-01,0.0704922
-1.98397e-01,0.0724531
-1.98394e-01,0.0651953
-1.98390e-01,0.0767891
-1.98387e-01,0.0695625
-1.98384e-01,0.066875
-1.98381e-01,0.0773438
-1.98378e-01,0.0694844
-1.98374e-01,0.06525
-1.98371e-01,0.0717813
-1.98368e-01,0.0714375
-1.98365e-01,0.0702969
-1.98362e-01,0.0734688
-1.98358e-01,0.0727813
-1.98355e-01,0.0649297
-1.98352e-01,0.0727734
-1.98349e-01,0.0726328
-1.98346e-01,0.0674141
-1.98342e-01,0.0708516
-1.98339e-01,0.0658438
-1.98336e-01,0.0687031
-1.98333e-01,0.0691016
-1.98330e-01,0.0716719
-1.98326e-01,0.0699531
-1.98323e-01,0.0691563
-1.98320e-01,0.066125
-1.98317e-01,0.0755156
-1.98314e-01,0.0678672
-1.98310e-01,0.0750234
-1.98307e-01,0.0643984
-1.98304e-01,0.0673594
-1.98301e-01,0.0709922
-1.98298e-01,0.0718438
-1.98294e-01,0.0687422
-1.98291e-01,0.0676094
-1.98288e-01,0.0678438
-1.98285e-01,0.0692578
-1.98282e-01,0.0715
-1.98278e-01,0.0685547
-1.98275e-01,0.0691719
-1.98272e-01,0.0696797
-1.98269e-01,0.0750938
-1.98266e-01,0.0638672
-1.98262e-01,0.0688359
-1.98259e-01,0.0693359
-1.98256e-01,0.0695781
-1.98253e-01,0.0665703
-1.98250e-01,0.0687031
-1.98246e-01,0.0704375
-1.98243e-01,0.0718203
-1.98240e-01,0.0736719
-1.98237e-01,0.0727109
-1.98234e-01,0.0706953
-1.98230e-01,0.0688203
-1.98227e-01,0.0701641
-1.98224e-01,0.0725781
-1.98221e-01,0.0651406
-1.98218e-01,0.0655234
-1.98214e-01,0.0648125
-1.98211e-01,0.0727813
-1.98208e-01,0.0720781
-1.98205e-01,0.0675938
-1.98202e-01,0.0680391
-1.98198e-01,0.0690234
-1.98195e-01,0.0710078
-1.98192e-01,0.0739375
-1.98189e-01,0.0735938
-1.98186e-01,0.0694141
-1.98182e-01,0.0765078
-1.98179e-01,0.0711797
-1.98176e-01,0.0703359
-1.98173e-01,0.0731953
-1.98170e-01,0.0646953
-1.98166e-01,0.0723984
-1.98163e-01,0.0714922
-1.98160e-01,0.0719766
-1.98157e-01,0.0769453
-1.98154e-01,0.0669453
-1.98150e-01,0.0706016
-1.98147e-01,0.0651797
-1.98144e-01,0.0727266
-1.98141e-01,0.0700859
-1.98138e-01,0.0702813
-1.98134e-01,0.0746875
-1.98131e-01,0.0692344
-1.98128e-01,0.0727188
-1.98125e-01,0.0677891
-1.98122e-01,0.0730313
-1.98118e-01,0.0683281
-1.98115e-01,0.0722813
-1.98112e-01,0.0711563
-1.98109e-01,0.0699063
-1.98106e-01,0.0693672
-1.98102e-01,0.0705391
-1.98099e-01,0.0694219
-1.98096e-01,0.0681328
-1.98093e-01,0.0661797
-1.98090e-01,0.0695234
-1.98086e-01,0.0702422
-1.98083e-01,0.0653203
-1.98080e-01,0.0717344
-1.98077e-01,0.0688516
-1.98074e-01,0.0652031
-1.98070e-01,0.0647891
-1.98067e-01,0.0728203
-1.98064e-01,0.0704609
-1.98061e-01,0.0706641
-1.98058e-01,0.0709844
-1.98054e-01,0.0701641
-1.98051e-01,0.0668594
-1.98048e-01,0.0723203
-1.98045e-01,0.0698203
-1.98042e-01,0.0661016
-1.98038e-01,0.0696641
-1.98035e-01,0.0721719
-1.98032e-01,0.0751172
-1.98029e-01,0.0661016
-1.98026e-01,0.0679063
-1.98022e-01,0.0710781
-1.98019e-01,0.0690703
-1.98016e-01,0.0709922
-1.98013e-01,0.0613672
-1.98010e-01,0.0760078
-1.98006e-01,0.0677109
-1.98003e-01,0.0739844
-1.98000e-01,0.0728203
-1.97997e-01,0.0742891
-1.97994e-01,0.0679375
-1.97990e-01,0.0668828
-1.97987e-01,0.0768125
-1.97984e-01,0.069875
-1.97981e-01,0.0732969
-1.97978e-01,0.0724844
-1.97974e-01,0.0682422
-1.97971e-01,0.0673672
-1.97968e-01,0.0713672
-1.97965e-01,0.0715234
-1.97962e-01,0.0719531
-1.97958e-01,0.0668281
-1.97955e-01,0.0737031
-1.97952e-01,0.0678359
-1.97949e-01,0.071
-1.97946e-01,0.0714297
-1.97942e-01,0.0741797
-1.97939e-01,0.069625
-1.97936e-01,0.0748203
-1.97933e-01,0.0623359
-1.97930e-01,0.0748203
-1.97926e-01,0.0736719
-1.97923e-01,0.0718828
-1.97920e-01,0.0669609
-1.97917e-01,0.0761719
-1.97914e-01,0.0681797
-1.97910e-01,0.0697422
-1.97907e-01,0.0664766
-1.97904e-01,0.0697656
-1.97901e-01,0.0703125
-1.97898e-01,0.0728594
-1.97894e-01,0.0655781
-1.97891e-01,0.0680391
-1.97888e-01,0.0685625
-1.97885e-01,0.0692656
-1.97882e-01,0.0647422
-1.97878e-01,0.07175
-1.97875e-01,0.0684375
-1.97872e-01,0.0713359
-1.97869e-01,0.0668906
-1.97866e-01,0.0786406
-1.97862e-01,0.0667578
-1.97859e-01,0.0694063
-1.97856e-01,0.0685781
-1.97853e-01,0.0724609
-1.97850e-01,0.0725391
-1.97846e-01,0.068
-1.97843e-01,0.0695781
-1.97840e-01,0.0741328
-1.97837e-01,0.0724141
-1.97834e-01,0.0707422
-1.97830e-01,0.0692734
-1.97827e-01,0.0726094
-1.97824e-01,0.0690547
-1.97821e-01,0.0696875
-1.97818e-01,0.0647578
-1.97814e-01,0.0659219
-1.97811e-01,0.0701406
-1.97808e-01,0.0737891
-1.97805e-01,0.0685
-1.97802e-01,0.0695703
-1.97798e-01,0.0749844
-1.97795e-01,0.0701797
-1.97792e-01,0.0665781
-1.97789e-01,0.067125
-1.97786e-01,0.0638984
-1.97782e-01,0.0712422
-1.97779e-01,0.0711797
-1.97776e-01,0.0729375
-1.97773e-01,0.0690078
-1.97770e-01,0.0625703
-1.97766e-01,0.0737734
-1.97763e-01,0.0701094
-1.97760e-01,0.0652969
-1.97757e-01,0.0729688
-1.97754e-01,0.0711016
-1.97750e-01,0.0713516
-1.97747e-01,0.0736797
-1.97744e-01,0.0726797
-1.97741e-01,0.0672891
-1.97738e-01,0.0732109
-1.97734e-01,0.0627031
-1.97731e-01,0.0698125
-1.97728e-01,0.0687109
-1.97725e-01,0.0640625
-1.97722e-01,0.0663203
-1.97718e-01,0.070125
-1.97715e-01,0.0711094
-1.97712e-01,0.0705469
-1.97709e-01,0.0699375
-1.97706e-01,0.0698516
-1.97702e-01,0.0682344
-1.97699e-01,0.0688672
-1.97696e-01,0.0693984
-1.97693e-01,0.0652578
-1.97690e-01,0.0709609
-1.97686e-01,0.0689219
-1.97683e-01,0.0720391
-1.97680e-01,0.0752734
-1.97677e-01,0.0667188
-1.97674e-01,0.0708516
-1.97670e-01,0.0659688
-1.97667e-01,0.0681328
-1.97664e-01,0.0739219
-1.97661e-01,0.0697422
-1.97658e-01,0.0677031
-1.97654e-01,0.0684141
-1.97651e-01,0.0748438
-1.97648e-01,0.0649297
-1.97645e-01,0.0686484
-1.97642e-01,0.0690625
-1.97638e-01,0.0735625
-1.97635e-01,0.072125
-1.97632e-01,0.0715469
-1.97629e-01,0.0618828
-1.97626e-01,0.0660234
-1.97622e-01,0.0733906
-1.97619e-01,0.0691641
-1.97616e-01,0.0731328
-1.97613e-01,0.0674844
-1.97610e-01,0.0767813
-1.97606e-01,0.0693281
-1.97603e-01,0.0668359
-1.97600e-01,0.0731484
-1.97597e-01,0.0723203
-1.97594e-01,0.0716406
-1.97590e-01,0.0679688
-1.97587e-01,0.0704922
-1.97584e-01,0.0675
-1.97581e-01,0.0688438
-1.97578e-01,0.0680703
-1.97574e-01,0.0675156
-1.97571e-01,0.0672656
-1.97568e-01,0.0740938
-1.97565e-01,0.0743672
-1.97562e-01,0.0725234
-1.97558e-01,0.0734688
-1.97555e-01,0.0667422
-1.97552e-01,0.0726875
-1.97549e-01,0.0710234
-1.97546e-01,0.0680625
-1.97542e-01,0.0619531
-1.97539e-01,0.0718281
-1.97536e-01,0.0647656
-1.97533e-01,0.0723281
-1.97530e-01,0.0641484
-1.97526e-01,0.0760469
-1.97523e-01,0.0689688
-1.97520e-01,0.0699063
-1.97517e-01,0.0681563
-1.97514e-01,0.0692188
-1.97510e-01,0.0711328
-1.97507e-01,0.0658203
-1.97504e-01,0.0646094
-1.97501e-01,0.0729844
-1.97498e-01,0.0707734
-1.97494e-01,0.0665625
-1.97491e-01,0.0709297
-1.97488e-01,0.0715781
-1.97485e-01,0.0689766
-1.97482e-01,0.0678516
-1.97478e-01,0.0688281
-1.97475e-01,0.0691875
-1.97472e-01,0.0690938
-1.97469e-01,0.0722344
-1.97466e-01,0.0701563
-1.97462e-01,0.0661406
-1.97459e-01,0.0675078
-1.97456e-01,0.0655391
-1.97453e-01,0.0646094
-1.97450e-01,0.0692109
-1.97446e-01,0.0615625
-1.97443e-01,0.0681563
-1.97440e-01,0.0596953
-1.97437e-01,0.0766016
-1.97434e-01,0.0699688
-1.97430e-01,0.0709375
-1.97427e-01,0.0660703
-1.97424e-01,0.0678516
-1.97421e-01,0.0693516
-1.97418e-01,0.0733047
-1.97414e-01,0.0689219
-1.97411e-01,0.0673516
-1.97408e-01,0.0692656
-1.97405e-01,0.0695547
-1.97402e-01,0.0701094
-1.97398e-01,0.0677734
-1.97395e-01,0.0707109
-1.97392e-01,0.0695938
-1.97389e-01,0.0692891
-1.97386e-01,0.0741484
-1.97382e-01,0.0677344
-1.97379e-01,0.0727656
-1.97376e-01,0.0709063
-1.97373e-01,0.0720625
-1.97370e-01,0.07125
-1.97366e-01,0.0686328
-1.97363e-01,0.0687109
-1.97360e-01,0.072125
-1.97357e-01,0.0706875
-1.97354e-01,0.0657344
-1.97350e-01,0.0696328
-1.97347e-01,0.0679688
-1.97344e-01,0.0690156
-1.97341e-01,0.0653906
-1.97338e-01,0.0708828
-1.97334e-01,0.0753438
-1.97331e-01,0.0684063
-1.97328e-01,0.0710156
-1.97325e-01,0.0687109
-1.97322e-01,0.0755078
-1.97318e-01,0.0656484
-1.97315e-01,0.0688047
-1.97312e-01,0.0741016
-1.97309e-01,0.0750547
-1.97306e-01,0.0666094
-1.97302e-01,0.0730156
-1.97299e-01,0.0717656
-1.97296e-01,0.0683125
-1.97293e-01,0.0706016
-1.97290e-01,0.0721797
-1.97286e-01,0.0692266
-1.97283e-01,0.0707891
-1.97280e-01,0.0722969
-1.97277e-01,0.0652422
-1.97274e-01,0.0749141
-1.97270e-01,0.06475
-1.97267e-01,0.0697031
-1.97264e-01,0.069
-1.97261e-01,0.0735469
-1.97258e-01,0.0664453
-1.97254e-01,0.0728594
-1.97251e-01,0.0691953
-1.97248e-01,0.0748984
-1.97245e-01,0.070375
