CD-Dateien/Messprotokolle/Messung_Leistungskennlinie_versch_Harvester/1_Magnet/Harvester2_10kOhm.CSV

Model,MSO2024
Firmware Version,1.52

Point Format,Y
Horizontal Units,S
Horizontal Scale,0.2
Sample Interval,1.6e-05
Filter Frequency,2e+08
Record Length,125000
Gating,0.0% to 100.0%
Probe Attenuation,10
Vertical Units,V
Vertical Offset,0
Vertical Scale,0.02
Label,
TIME,CH1
-1.0000e+00,0.0104
-9.9998e-01,0.008
-9.9997e-01,0.00975938
-9.9995e-01,0.0094375
-9.9994e-01,0.0105594
-9.9992e-01,0.0110375
-9.9990e-01,0.0107188
-9.9989e-01,0.0104
-9.9987e-01,0.0108781
-9.9986e-01,0.00927813
-9.9984e-01,0.0115188
-9.9982e-01,0.0110375
-9.9981e-01,0.0107188
-9.9979e-01,0.0113594
-9.9978e-01,0.0102375
-9.9976e-01,0.0113594
-9.9974e-01,0.008
-9.9973e-01,0.00911875
-9.9971e-01,0.0107188
-9.9970e-01,0.00975938
-9.9968e-01,0.00991875
-9.9966e-01,0.00975938
-9.9965e-01,0.0110375
-9.9963e-01,0.0104
-9.9962e-01,0.0102375
-9.9960e-01,0.0113594
-9.9958e-01,0.0096
-9.9957e-01,0.0112
-9.9955e-01,0.0104
-9.9954e-01,0.0121594
-9.9952e-01,0.0100781
-9.9950e-01,0.0094375
-9.9949e-01,0.0108781
-9.9947e-01,0.0100781
-9.9946e-01,0.0116781
-9.9944e-01,0.0096
-9.9942e-01,0.0108781
-9.9941e-01,0.0102375
-9.9939e-01,0.00991875
-9.9938e-01,0.0105594
-9.9936e-01,0.0104
-9.9934e-01,0.0096
-9.9933e-01,0.0108781
-9.9931e-01,0.00847813
-9.9930e-01,0.00911875
-9.9928e-01,0.0116781
-9.9926e-01,0.0096
-9.9925e-01,0.0108781
-9.9923e-01,0.00991875
-9.9922e-01,0.0102375
-9.9920e-01,0.0086375
-9.9918e-01,0.0104
-9.9917e-01,0.00991875
-9.9915e-01,0.0096
-9.9914e-01,0.00911875
-9.9912e-01,0.00927813
-9.9910e-01,0.012
-9.9909e-01,0.00927813
-9.9907e-01,0.00671875
-9.9906e-01,0.00735938
-9.9904e-01,0.00991875
-9.9902e-01,0.0115188
-9.9901e-01,0.0107188
-9.9899e-01,0.0096
-9.9898e-01,0.008
-9.9896e-01,0.0107188
-9.9894e-01,0.0088
-9.9893e-01,0.0139188
-9.9891e-01,0.00975938
-9.9890e-01,0.00911875
-9.9888e-01,0.00975938
-9.9886e-01,0.0102375
-9.9885e-01,0.00991875
-9.9883e-01,0.00975938
-9.9882e-01,0.0104
-9.9880e-01,0.0100781
-9.9878e-01,0.00831875
-9.9877e-01,0.0100781
-9.9875e-01,0.00831875
-9.9874e-01,0.0115188
-9.9872e-01,0.008
-9.9870e-01,0.0116781
-9.9869e-01,0.0108781
-9.9867e-01,0.00911875
-9.9866e-01,0.0100781
-9.9864e-01,0.00911875
-9.9862e-01,0.0094375
-9.9861e-01,0.008
-9.9859e-01,0.0094375
-9.9858e-01,0.00815938
-9.9856e-01,0.0102375
-9.9854e-01,0.0102375
-9.9853e-01,0.0100781
-9.9851e-01,0.0096
-9.9850e-01,0.0105594
-9.9848e-01,0.0096
-9.9846e-01,0.00975938
-9.9845e-01,0.0126375
-9.9843e-01,0.00991875
-9.9842e-01,0.0123188
-9.9840e-01,0.00975938
-9.9838e-01,0.0113594
-9.9837e-01,0.0113594
-9.9835e-01,0.0102375
-9.9834e-01,0.00847813
-9.9832e-01,0.0104
-9.9830e-01,0.0108781
-9.9829e-01,0.00815938
-9.9827e-01,0.00911875
-9.9826e-01,0.0094375
-9.9824e-01,0.0094375
-9.9822e-01,0.0118375
-9.9821e-01,0.0100781
-9.9819e-01,0.0102375
-9.9818e-01,0.00991875
-9.9816e-01,0.0107188
-9.9814e-01,0.0094375
-9.9813e-01,0.0104
-9.9811e-01,0.0134375
-9.9810e-01,0.00847813
-9.9808e-01,0.00991875
-9.9806e-01,0.00895938
-9.9805e-01,0.00911875
-9.9803e-01,0.00831875
-9.9802e-01,0.008
-9.9800e-01,0.00751875
-9.9798e-01,0.0100781
-9.9797e-01,0.0105594
-9.9795e-01,0.0107188
-9.9794e-01,0.0094375
-9.9792e-01,0.00975938
-9.9790e-01,0.0112
-9.9789e-01,0.012
-9.9787e-01,0.0108781
-9.9786e-01,0.00975938
-9.9784e-01,0.0105594
-9.9782e-01,0.00767813
-9.9781e-01,0.0104
-9.9779e-01,0.0096
-9.9778e-01,0.0128
-9.9776e-01,0.0107188
-9.9774e-01,0.0096
-9.9773e-01,0.0096
-9.9771e-01,0.0088
-9.9770e-01,0.0088
-9.9768e-01,0.00895938
-9.9766e-01,0.00927813
-9.9765e-01,0.00895938
-9.9763e-01,0.00815938
-9.9762e-01,0.00895938
-9.9760e-01,0.0107188
-9.9758e-01,0.0102375
-9.9757e-01,0.00895938
-9.9755e-01,0.0100781
-9.9754e-01,0.0088
-9.9752e-01,0.0100781
-9.9750e-01,0.00927813
-9.9749e-01,0.00975938
-9.9747e-01,0.00911875
-9.9746e-01,0.0105594
-9.9744e-01,0.0100781
-9.9742e-01,0.0102375
-9.9741e-01,0.0102375
-9.9739e-01,0.00911875
-9.9738e-01,0.0107188
-9.9736e-01,0.00911875
-9.9734e-01,0.00751875
-9.9733e-01,0.0105594
-9.9731e-01,0.00911875
-9.9730e-01,0.0100781
-9.9728e-01,0.0100781
-9.9726e-01,0.0116781
-9.9725e-01,0.00975938
-9.9723e-01,0.0104
-9.9722e-01,0.0104
-9.9720e-01,0.0105594
-9.9718e-01,0.0094375
-9.9717e-01,0.00975938
-9.9715e-01,0.0108781
-9.9714e-01,0.012
-9.9712e-01,0.00975938
-9.9710e-01,0.0126375
-9.9709e-01,0.00991875
-9.9707e-01,0.00911875
-9.9706e-01,0.00815938
-9.9704e-01,0.0100781
-9.9702e-01,0.00991875
-9.9701e-01,0.0070375
-9.9699e-01,0.00895938
-9.9698e-01,0.0102375
-9.9696e-01,0.00975938
-9.9694e-01,0.012
-9.9693e-01,0.0107188
-9.9691e-01,0.0104
-9.9690e-01,0.0086375
-9.9688e-01,0.00847813
-9.9686e-01,0.0107188
-9.9685e-01,0.00975938
-9.9683e-01,0.0094375
-9.9682e-01,0.0100781
-9.9680e-01,0.0108781
-9.9678e-01,0.00975938
-9.9677e-01,0.00927813
-9.9675e-01,0.0096
-9.9674e-01,0.0088
-9.9672e-01,0.0088
-9.9670e-01,0.0086375
-9.9669e-01,0.0110375
-9.9667e-01,0.0113594
-9.9666e-01,0.0100781
-9.9664e-01,0.00927813
-9.9662e-01,0.00895938
-9.9661e-01,0.0105594
-9.9659e-01,0.00975938
-9.9658e-01,0.0115188
-9.9656e-01,0.0078375
-9.9654e-01,0.00847813
-9.9653e-01,0.0108781
-9.9651e-01,0.0100781
-9.9650e-01,0.00991875
-9.9648e-01,0.0105594
-9.9646e-01,0.0108781
-9.9645e-01,0.00911875
-9.9643e-01,0.012
-9.9642e-01,0.0104
-9.9640e-01,0.0086375
-9.9638e-01,0.0115188
-9.9637e-01,0.00911875
-9.9635e-01,0.00927813
-9.9634e-01,0.00847813
-9.9632e-01,0.0102375
-9.9630e-01,0.0094375
-9.9629e-01,0.0102375
-9.9627e-01,0.0108781
-9.9626e-01,0.0088
-9.9624e-01,0.0113594
-9.9622e-01,0.0096
-9.9621e-01,0.0128
-9.9619e-01,0.0105594
-9.9618e-01,0.0116781
-9.9616e-01,0.0108781
-9.9614e-01,0.0094375
-9.9613e-01,0.00895938
-9.9611e-01,0.00927813
-9.9610e-01,0.0107188
-9.9608e-01,0.0094375
-9.9606e-01,0.0108781
-9.9605e-01,0.0100781
-9.9603e-01,0.0105594
-9.9602e-01,0.00991875
-9.9600e-01,0.0113594
-9.9598e-01,0.0105594
-9.9597e-01,0.0094375
-9.9595e-01,0.0102375
-9.9594e-01,0.0094375
-9.9592e-01,0.0112
-9.9590e-01,0.00975938
-9.9589e-01,0.00895938
-9.9587e-01,0.00927813
-9.9586e-01,0.00911875
-9.9584e-01,0.00831875
-9.9582e-01,0.00991875
-9.9581e-01,0.0096
-9.9579e-01,0.0107188
-9.9578e-01,0.0102375
-9.9576e-01,0.0123188
-9.9574e-01,0.0116781
-9.9573e-01,0.0124781
-9.9571e-01,0.0104
-9.9570e-01,0.00975938
-9.9568e-01,0.00991875
-9.9566e-01,0.0078375
-9.9565e-01,0.00975938
-9.9563e-01,0.0102375
-9.9562e-01,0.0104
-9.9560e-01,0.00991875
-9.9558e-01,0.0110375
-9.9557e-01,0.0110375
-9.9555e-01,0.00911875
-9.9554e-01,0.0088
-9.9552e-01,0.0105594
-9.9550e-01,0.00975938
-9.9549e-01,0.00815938
-9.9547e-01,0.0110375
-9.9546e-01,0.0094375
-9.9544e-01,0.00927813
-9.9542e-01,0.0107188
-9.9541e-01,0.0118375
-9.9539e-01,0.00975938
-9.9538e-01,0.008
-9.9536e-01,0.0102375
-9.9534e-01,0.0096
-9.9533e-01,0.0094375
-9.9531e-01,0.0107188
-9.9530e-01,0.0108781
-9.9528e-01,0.00927813
-9.9526e-01,0.0113594
-9.9525e-01,0.0088
-9.9523e-01,0.0107188
-9.9522e-01,0.0116781
-9.9520e-01,0.012
-9.9518e-01,0.0102375
-9.9517e-01,0.0115188
-9.9515e-01,0.0100781
-9.9514e-01,0.00911875
-9.9512e-01,0.00927813
-9.9510e-01,0.0115188
-9.9509e-01,0.0100781
-9.9507e-01,0.00991875
-9.9506e-01,0.0105594
-9.9504e-01,0.0088
-9.9502e-01,0.0129594
-9.9501e-01,0.00735938
-9.9499e-01,0.0112
-9.9498e-01,0.00911875
-9.9496e-01,0.0100781
-9.9494e-01,0.0102375
-9.9493e-01,0.00911875
-9.9491e-01,0.012
-9.9490e-01,0.0088
-9.9488e-01,0.0096
-9.9486e-01,0.0100781
-9.9485e-01,0.0094375
-9.9483e-01,0.0096
-9.9482e-01,0.0107188
-9.9480e-01,0.0105594
-9.9478e-01,0.0108781
-9.9477e-01,0.00991875
-9.9475e-01,0.0115188
-9.9474e-01,0.00991875
-9.9472e-01,0.0104
-9.9470e-01,0.0118375
-9.9469e-01,0.0110375
-9.9467e-01,0.00895938
-9.9466e-01,0.00895938
-9.9464e-01,0.0108781
-9.9462e-01,0.0105594
-9.9461e-01,0.00991875
-9.9459e-01,0.0102375
-9.9458e-01,0.0104
-9.9456e-01,0.0113594
-9.9454e-01,0.0108781
-9.9453e-01,0.0108781
-9.9451e-01,0.0096
-9.9450e-01,0.00975938
-9.9448e-01,0.0102375
-9.9446e-01,0.0105594
-9.9445e-01,0.00815938
-9.9443e-01,0.0100781
-9.9442e-01,0.0094375
-9.9440e-01,0.0108781
-9.9438e-01,0.00847813
-9.9437e-01,0.0128
-9.9435e-01,0.00767813
-9.9434e-01,0.0108781
-9.9432e-01,0.0110375
-9.9430e-01,0.00991875
-9.9429e-01,0.00751875
-9.9427e-01,0.0104
-9.9426e-01,0.0088
-9.9424e-01,0.0088
-9.9422e-01,0.0102375
-9.9421e-01,0.00767813
-9.9419e-01,0.0110375
-9.9418e-01,0.00831875
-9.9416e-01,0.0116781
-9.9414e-01,0.0086375
-9.9413e-01,0.00991875
-9.9411e-01,0.00975938
-9.9410e-01,0.0094375
-9.9408e-01,0.0105594
-9.9406e-01,0.0108781
-9.9405e-01,0.0108781
-9.9403e-01,0.00559688
-9.9402e-01,0.012
-9.9400e-01,0.0115188
-9.9398e-01,0.0110375
-9.9397e-01,0.0104
-9.9395e-01,0.00735938
-9.9394e-01,0.00927813
-9.9392e-01,0.0096
-9.9390e-01,0.0102375
-9.9389e-01,0.00735938
-9.9387e-01,0.00975938
-9.9386e-01,0.00991875
-9.9384e-01,0.00847813
-9.9382e-01,0.00927813
-9.9381e-01,0.0118375
-9.9379e-01,0.0116781
-9.9378e-01,0.0112
-9.9376e-01,0.0110375
-9.9374e-01,0.0110375
-9.9373e-01,0.00927813
-9.9371e-01,0.0078375
-9.9370e-01,0.0108781
-9.9368e-01,0.0108781
-9.9366e-01,0.0102375
-9.9365e-01,0.0105594
-9.9363e-01,0.0124781
-9.9362e-01,0.0094375
-9.9360e-01,0.0112
-9.9358e-01,0.00911875
-9.9357e-01,0.0112
-9.9355e-01,0.0100781
-9.9354e-01,0.0088
-9.9352e-01,0.00895938
-9.9350e-01,0.0102375
-9.9349e-01,0.00975938
-9.9347e-01,0.00991875
-9.9346e-01,0.00975938
-9.9344e-01,0.00975938
-9.9342e-01,0.0102375
-9.9341e-01,0.0107188
-9.9339e-01,0.00831875
-9.9338e-01,0.0107188
-9.9336e-01,0.00895938
-9.9334e-01,0.00911875
-9.9333e-01,0.00815938
-9.9331e-01,0.0102375
-9.9330e-01,0.00975938
-9.9328e-01,0.0102375
-9.9326e-01,0.0096
-9.9325e-01,0.0096
-9.9323e-01,0.0110375
-9.9322e-01,0.0107188
-9.9320e-01,0.00911875
-9.9318e-01,0.00927813
-9.9317e-01,0.0110375
-9.9315e-01,0.00975938
-9.9314e-01,0.00815938
-9.9312e-01,0.00975938
-9.9310e-01,0.0104
-9.9309e-01,0.0100781
-9.9307e-01,0.00927813
-9.9306e-01,0.0105594
-9.9304e-01,0.00975938
-9.9302e-01,0.00991875
-9.9301e-01,0.00895938
-9.9299e-01,0.00991875
-9.9298e-01,0.0070375
-9.9296e-01,0.0112
-9.9294e-01,0.00831875
-9.9293e-01,0.0107188
-9.9291e-01,0.0108781
-9.9290e-01,0.0094375
-9.9288e-01,0.0086375
-9.9286e-01,0.0118375
-9.9285e-01,0.00831875
-9.9283e-01,0.012
-9.9282e-01,0.00975938
-9.9280e-01,0.0100781
-9.9278e-01,0.0116781
-9.9277e-01,0.0112
-9.9275e-01,0.0096
-9.9274e-01,0.00895938
-9.9272e-01,0.0108781
-9.9270e-01,0.0102375
-9.9269e-01,0.0105594
-9.9267e-01,0.00895938
-9.9266e-01,0.0104
-9.9264e-01,0.0102375
-9.9262e-01,0.0108781
-9.9261e-01,0.0104
-9.9259e-01,0.0113594
-9.9258e-01,0.0104
-9.9256e-01,0.0104
-9.9254e-01,0.0094375
-9.9253e-01,0.0113594
-9.9251e-01,0.0088
-9.9250e-01,0.0086375
-9.9248e-01,0.0100781
-9.9246e-01,0.00911875
-9.9245e-01,0.00991875
-9.9243e-01,0.00927813
-9.9242e-01,0.0102375
-9.9240e-01,0.00687813
-9.9238e-01,0.00895938
-9.9237e-01,0.0078375
-9.9235e-01,0.0102375
-9.9234e-01,0.0110375
-9.9232e-01,0.0118375
-9.9230e-01,0.00991875
-9.9229e-01,0.00927813
-9.9227e-01,0.0110375
-9.9226e-01,0.00927813
-9.9224e-01,0.00927813
-9.9222e-01,0.00911875
-9.9221e-01,0.0110375
-9.9219e-01,0.0094375
-9.9218e-01,0.0088
-9.9216e-01,0.0100781
-9.9214e-01,0.0088
-9.9213e-01,0.0108781
-9.9211e-01,0.00847813
-9.9210e-01,0.00975938
-9.9208e-01,0.00975938
-9.9206e-01,0.00975938
-9.9205e-01,0.0100781
-9.9203e-01,0.0126375
-9.9202e-01,0.0094375
-9.9200e-01,0.00991875
-9.9198e-01,0.0113594
-9.9197e-01,0.0112
-9.9195e-01,0.0096
-9.9194e-01,0.0088
-9.9192e-01,0.00927813
-9.9190e-01,0.00847813
-9.9189e-01,0.00895938
-9.9187e-01,0.00975938
-9.9186e-01,0.00719688
-9.9184e-01,0.0105594
-9.9182e-01,0.0108781
-9.9181e-01,0.00911875
-9.9179e-01,0.00975938
-9.9178e-01,0.0102375
-9.9176e-01,0.00911875
-9.9174e-01,0.00895938
-9.9173e-01,0.00975938
-9.9171e-01,0.00991875
-9.9170e-01,0.00975938
-9.9168e-01,0.0100781
-9.9166e-01,0.0104
-9.9165e-01,0.0100781
-9.9163e-01,0.00991875
-9.9162e-01,0.00895938
-9.9160e-01,0.0094375
-9.9158e-01,0.00815938
-9.9157e-01,0.0100781
-9.9155e-01,0.0094375
-9.9154e-01,0.0113594
-9.9152e-01,0.00911875
-9.9150e-01,0.00975938
-9.9149e-01,0.0086375
-9.9147e-01,0.0104
-9.9146e-01,0.0100781
-9.9144e-01,0.0088
-9.9142e-01,0.00991875
-9.9141e-01,0.0107188
-9.9139e-01,0.0110375
-9.9138e-01,0.00847813
-9.9136e-01,0.00831875
-9.9134e-01,0.0088
-9.9133e-01,0.0078375
-9.9131e-01,0.00991875
-9.9130e-01,0.00911875
-9.9128e-01,0.0094375
-9.9126e-01,0.0108781
-9.9125e-01,0.0096
-9.9123e-01,0.00895938
-9.9122e-01,0.0088
-9.9120e-01,0.0086375
-9.9118e-01,0.012
-9.9117e-01,0.0110375
-9.9115e-01,0.0104
-9.9114e-01,0.0088
-9.9112e-01,0.00735938
-9.9110e-01,0.0096
-9.9109e-01,0.0102375
-9.9107e-01,0.0102375
-9.9106e-01,0.0107188
-9.9104e-01,0.0062375
-9.9102e-01,0.0096
-9.9101e-01,0.0094375
-9.9099e-01,0.0131188
-9.9098e-01,0.0086375
-9.9096e-01,0.0126375
-9.9094e-01,0.00975938
-9.9093e-01,0.00895938
-9.9091e-01,0.0104
-9.9090e-01,0.0115188
-9.9088e-01,0.0086375
-9.9086e-01,0.0110375
-9.9085e-01,0.0110375
-9.9083e-01,0.00735938
-9.9082e-01,0.0105594
-9.9080e-01,0.00911875
-9.9078e-01,0.0124781
-9.9077e-01,0.0100781
-9.9075e-01,0.00911875
-9.9074e-01,0.00911875
-9.9072e-01,0.00895938
-9.9070e-01,0.0102375
-9.9069e-01,0.00991875
-9.9067e-01,0.0096
-9.9066e-01,0.0124781
-9.9064e-01,0.00911875
-9.9062e-01,0.00991875
-9.9061e-01,0.00767813
-9.9059e-01,0.0123188
-9.9058e-01,0.0102375
-9.9056e-01,0.0104
-9.9054e-01,0.0102375
-9.9053e-01,0.00911875
-9.9051e-01,0.00911875
-9.9050e-01,0.00751875
-9.9048e-01,0.0102375
-9.9046e-01,0.0096
-9.9045e-01,0.00895938
-9.9043e-01,0.0107188
-9.9042e-01,0.0078375
-9.9040e-01,0.0108781
-9.9038e-01,0.0104
-9.9037e-01,0.012
-9.9035e-01,0.0086375
-9.9034e-01,0.0104
-9.9032e-01,0.008
-9.9030e-01,0.0096
-9.9029e-01,0.00911875
-9.9027e-01,0.0108781
-9.9026e-01,0.0094375
-9.9024e-01,0.00911875
-9.9022e-01,0.0096
-9.9021e-01,0.0107188
-9.9019e-01,0.00847813
-9.9018e-01,0.0102375
-9.9016e-01,0.00895938
-9.9014e-01,0.00927813
-9.9013e-01,0.0072
-9.9011e-01,0.0126375
-9.9010e-01,0.0105594
-9.9008e-01,0.00719688
-9.9006e-01,0.00911875
-9.9005e-01,0.0110375
-9.9003e-01,0.0094375
-9.9002e-01,0.00975938
-9.9000e-01,0.0102375
-9.8998e-01,0.0086375
-9.8997e-01,0.0096
-9.8995e-01,0.0107188
-9.8994e-01,0.0105594
-9.8992e-01,0.0102375
-9.8990e-01,0.0124781
-9.8989e-01,0.0112
-9.8987e-01,0.00975938
-9.8986e-01,0.0094375
-9.8984e-01,0.00735938
-9.8982e-01,0.0107188
-9.8981e-01,0.0088
-9.8979e-01,0.0110375
-9.8978e-01,0.00927813
-9.8976e-01,0.00767813
-9.8974e-01,0.0100781
-9.8973e-01,0.0112
-9.8971e-01,0.0108781
-9.8970e-01,0.00975938
-9.8968e-01,0.00895938
-9.8966e-01,0.00751875
-9.8965e-01,0.0124781
-9.8963e-01,0.0113594
-9.8962e-01,0.0115188
-9.8960e-01,0.00927813
-9.8958e-01,0.0088
-9.8957e-01,0.00975938
-9.8955e-01,0.0105594
-9.8954e-01,0.00847813
-9.8952e-01,0.00847813
-9.8950e-01,0.00815938
-9.8949e-01,0.0100781
-9.8947e-01,0.00767813
-9.8946e-01,0.0115188
-9.8944e-01,0.00847813
-9.8942e-01,0.00831875
-9.8941e-01,0.00975938
-9.8939e-01,0.00895938
-9.8938e-01,0.00927813
-9.8936e-01,0.0088
-9.8934e-01,0.00927813
-9.8933e-01,0.00975938
-9.8931e-01,0.00911875
-9.8930e-01,0.0118375
-9.8928e-01,0.00991875
-9.8926e-01,0.0086375
-9.8925e-01,0.0105594
-9.8923e-01,0.00767813
-9.8922e-01,0.00911875
-9.8920e-01,0.00991875
-9.8918e-01,0.00815938
-9.8917e-01,0.0112
-9.8915e-01,0.0088
-9.8914e-01,0.0115188
-9.8912e-01,0.0102375
-9.8910e-01,0.0100781
-9.8909e-01,0.0086375
-9.8907e-01,0.0107188
-9.8906e-01,0.00975938
-9.8904e-01,0.00911875
-9.8902e-01,0.00991875
-9.8901e-01,0.012
-9.8899e-01,0.0123188
-9.8898e-01,0.0088
-9.8896e-01,0.0108781
-9.8894e-01,0.00927813
-9.8893e-01,0.00991875
-9.8891e-01,0.0110375
-9.8890e-01,0.0100781
-9.8888e-01,0.00927813
-9.8886e-01,0.00831875
-9.8885e-01,0.00895938
-9.8883e-01,0.0107188
-9.8882e-01,0.00911875
-9.8880e-01,0.0088
-9.8878e-01,0.00895938
-9.8877e-01,0.0086375
-9.8875e-01,0.00927813
-9.8874e-01,0.0096
-9.8872e-01,0.00847813
-9.8870e-01,0.0113594
-9.8869e-01,0.00767813
-9.8867e-01,0.0094375
-9.8866e-01,0.0104
-9.8864e-01,0.0102375
-9.8862e-01,0.00911875
-9.8861e-01,0.00847813
-9.8859e-01,0.0086375
-9.8858e-01,0.0110375
-9.8856e-01,0.0102375
-9.8854e-01,0.0107188
-9.8853e-01,0.0088
-9.8851e-01,0.0096
-9.8850e-01,0.0104
-9.8848e-01,0.00847813
-9.8846e-01,0.0112
-9.8845e-01,0.0102375
-9.8843e-01,0.0102375
-9.8842e-01,0.00847813
-9.8840e-01,0.0107188
-9.8838e-01,0.0088
-9.8837e-01,0.00895938
-9.8835e-01,0.00975938
-9.8834e-01,0.0107188
-9.8832e-01,0.0105594
-9.8830e-01,0.0086375
-9.8829e-01,0.00895938
-9.8827e-01,0.0112
-9.8826e-01,0.00847813
-9.8824e-01,0.00831875
-9.8822e-01,0.008
-9.8821e-01,0.0096
-9.8819e-01,0.0107188
-9.8818e-01,0.0113594
-9.8816e-01,0.0110375
-9.8814e-01,0.00991875
-9.8813e-01,0.00927813
-9.8811e-01,0.0100781
-9.8810e-01,0.00991875
-9.8808e-01,0.00831875
-9.8806e-01,0.00847813
-9.8805e-01,0.0107188
-9.8803e-01,0.0088
-9.8802e-01,0.0137594
-9.8800e-01,0.0112
-9.8798e-01,0.00975938
-9.8797e-01,0.0104
-9.8795e-01,0.00991875
-9.8794e-01,0.0086375
-9.8792e-01,0.00975938
-9.8790e-01,0.0107188
-9.8789e-01,0.0104
-9.8787e-01,0.0088
-9.8786e-01,0.00975938
-9.8784e-01,0.0110375
-9.8782e-01,0.00895938
-9.8781e-01,0.00799688
-9.8779e-01,0.0105594
-9.8778e-01,0.00895938
-9.8776e-01,0.0105594
-9.8774e-01,0.0108781
-9.8773e-01,0.00815938
-9.8771e-01,0.00975938
-9.8770e-01,0.0096
-9.8768e-01,0.0110375
-9.8766e-01,0.00975938
-9.8765e-01,0.00991875
-9.8763e-01,0.00911875
-9.8762e-01,0.00991875
-9.8760e-01,0.0078375
-9.8758e-01,0.0104
-9.8757e-01,0.0100781
-9.8755e-01,0.00719688
-9.8754e-01,0.0078375
-9.8752e-01,0.0115188
-9.8750e-01,0.0094375
-9.8749e-01,0.0094375
-9.8747e-01,0.0105594
-9.8746e-01,0.0102375
-9.8744e-01,0.0107188
-9.8742e-01,0.0088
-9.8741e-01,0.0096
-9.8739e-01,0.0115188
-9.8738e-01,0.0078375
-9.8736e-01,0.0107188
-9.8734e-01,0.00639688
-9.8733e-01,0.0100781
-9.8731e-01,0.0070375
-9.8730e-01,0.00975938
-9.8728e-01,0.00847813
-9.8726e-01,0.0121594
-9.8725e-01,0.00927813
-9.8723e-01,0.0107188
-9.8722e-01,0.00815938
-9.8720e-01,0.00975938
-9.8718e-01,0.0107188
-9.8717e-01,0.00991875
-9.8715e-01,0.00991875
-9.8714e-01,0.00927813
-9.8712e-01,0.00815938
-9.8710e-01,0.0094375
-9.8709e-01,0.0110375
-9.8707e-01,0.0105594
-9.8706e-01,0.0124781
-9.8704e-01,0.0102375
-9.8702e-01,0.0086375
-9.8701e-01,0.00719688
-9.8699e-01,0.00991875
-9.8698e-01,0.0118375
-9.8696e-01,0.00895938
-9.8694e-01,0.0088
-9.8693e-01,0.00831875
-9.8691e-01,0.0102375
-9.8690e-01,0.0100781
-9.8688e-01,0.00927813
-9.8686e-01,0.00927813
-9.8685e-01,0.00975938
-9.8683e-01,0.0118375
-9.8682e-01,0.00719688
-9.8680e-01,0.00927813
-9.8678e-01,0.0094375
-9.8677e-01,0.0104
-9.8675e-01,0.00927813
-9.8674e-01,0.0100781
-9.8672e-01,0.0112
-9.8670e-01,0.0094375
-9.8669e-01,0.0100781
-9.8667e-01,0.0094375
-9.8666e-01,0.00927813
-9.8664e-01,0.0104
-9.8662e-01,0.00975938
-9.8661e-01,0.0107188
-9.8659e-01,0.00719688
-9.8658e-01,0.00975938
-9.8656e-01,0.0100781
-9.8654e-01,0.0113594
-9.8653e-01,0.00831875
-9.8651e-01,0.0078375
-9.8650e-01,0.0100781
-9.8648e-01,0.0088
-9.8646e-01,0.00927813
-9.8645e-01,0.0108781
-9.8643e-01,0.0100781
-9.8642e-01,0.00991875
-9.8640e-01,0.00975938
-9.8638e-01,0.00687813
-9.8637e-01,0.00991875
-9.8635e-01,0.0096
-9.8634e-01,0.00927813
-9.8632e-01,0.0107188
-9.8630e-01,0.0104
-9.8629e-01,0.00975938
-9.8627e-01,0.00975938
-9.8626e-01,0.0113594
-9.8624e-01,0.0094375
-9.8622e-01,0.0108781
-9.8621e-01,0.0078375
-9.8619e-01,0.0105594
-9.8618e-01,0.0104
-9.8616e-01,0.0086375
-9.8614e-01,0.00927813
-9.8613e-01,0.0078375
-9.8611e-01,0.0096
-9.8610e-01,0.0113594
-9.8608e-01,0.0107188
-9.8606e-01,0.00895938
-9.8605e-01,0.0115188
-9.8603e-01,0.0100781
-9.8602e-01,0.00751875
-9.8600e-01,0.0094375
-9.8598e-01,0.0104
-9.8597e-01,0.00911875
-9.8595e-01,0.0108781
-9.8594e-01,0.00767813
-9.8592e-01,0.0115188
-9.8590e-01,0.0104
-9.8589e-01,0.0112
-9.8587e-01,0.0086375
-9.8586e-01,0.00927813
-9.8584e-01,0.0088
-9.8582e-01,0.00991875
-9.8581e-01,0.0086375
-9.8579e-01,0.0094375
-9.8578e-01,0.00975938
-9.8576e-01,0.0096
-9.8574e-01,0.00815938
-9.8573e-01,0.00895938
-9.8571e-01,0.00975938
-9.8570e-01,0.0088
-9.8568e-01,0.0102375
-9.8566e-01,0.00975938
-9.8565e-01,0.0102375
-9.8563e-01,0.0116781
-9.8562e-01,0.00815938
-9.8560e-01,0.00847813
-9.8558e-01,0.0102375
-9.8557e-01,0.0094375
-9.8555e-01,0.0088
