CD-Dateien/Messprotokolle/Messung_Leistungskennlinie_versch_Harvester/Harvester_alt/10kmh/Harvester_offen.CSV

Model,MSO2024
Firmware Version,1.52

Point Format,Y
Horizontal Units,S
Horizontal Scale,0.1
Sample Interval,8e-06
Filter Frequency,2e+08
Record Length,125000
Gating,0.0% to 100.0%
Probe Attenuation,10
Vertical Units,V
Vertical Offset,0
Vertical Scale,0.02
Label,
TIME,CH1
-5.00000e-01,0.0672031
-4.99992e-01,0.0680937
-4.99984e-01,0.0680281
-4.99976e-01,0.0675125
-4.99968e-01,0.0686875
-4.99960e-01,0.0690062
-4.99952e-01,0.0676437
-4.99944e-01,0.0667656
-4.99936e-01,0.0683062
-4.99928e-01,0.0682812
-4.99920e-01,0.0688469
-4.99912e-01,0.0675625
-4.99904e-01,0.0668906
-4.99896e-01,0.0671687
-4.99888e-01,0.0670906
-4.99880e-01,0.0683625
-4.99872e-01,0.0681156
-4.99864e-01,0.0693719
-4.99856e-01,0.0684
-4.99848e-01,0.0685031
-4.99840e-01,0.067725
-4.99832e-01,0.0690969
-4.99824e-01,0.067425
-4.99816e-01,0.0676687
-4.99808e-01,0.0674219
-4.99800e-01,0.0673687
-4.99792e-01,0.06645
-4.99784e-01,0.0683375
-4.99776e-01,0.0684625
-4.99768e-01,0.0681031
-4.99760e-01,0.0682125
-4.99752e-01,0.0691375
-4.99744e-01,0.0677781
-4.99736e-01,0.0686594
-4.99728e-01,0.0681062
-4.99720e-01,0.0665187
-4.99712e-01,0.0691625
-4.99704e-01,0.06665
-4.99696e-01,0.0688719
-4.99688e-01,0.0685812
-4.99680e-01,0.0678719
-4.99672e-01,0.06785
-4.99664e-01,0.0674875
-4.99656e-01,0.0662562
-4.99648e-01,0.0683187
-4.99640e-01,0.0691625
-4.99632e-01,0.0685375
-4.99624e-01,0.0687812
-4.99616e-01,0.0677094
-4.99608e-01,0.0672812
-4.99600e-01,0.0693062
-4.99592e-01,0.0666062
-4.99584e-01,0.0678594
-4.99576e-01,0.0669187
-4.99568e-01,0.0668781
-4.99560e-01,0.0677469
-4.99552e-01,0.0675531
-4.99544e-01,0.0682469
-4.99536e-01,0.0684062
-4.99528e-01,0.0682125
-4.99520e-01,0.0682969
-4.99512e-01,0.0686656
-4.99504e-01,0.0664
-4.99496e-01,0.0680812
-4.99488e-01,0.068425
-4.99480e-01,0.0687969
-4.99472e-01,0.0686656
-4.99464e-01,0.0683656
-4.99456e-01,0.0685469
-4.99448e-01,0.0684906
-4.99440e-01,0.0676531
-4.99432e-01,0.0687344
-4.99424e-01,0.0670687
-4.99416e-01,0.0680562
-4.99408e-01,0.0684
-4.99400e-01,0.0686312
-4.99392e-01,0.0681125
-4.99384e-01,0.0681219
-4.99376e-01,0.06875
-4.99368e-01,0.0671531
-4.99360e-01,0.065975
-4.99352e-01,0.0681125
-4.99344e-01,0.0681531
-4.99336e-01,0.0677125
-4.99328e-01,0.0679375
-4.99320e-01,0.0690187
-4.99312e-01,0.067575
-4.99304e-01,0.0671281
-4.99296e-01,0.0687906
-4.99288e-01,0.0677094
-4.99280e-01,0.0687969
-4.99272e-01,0.0676625
-4.99264e-01,0.0670625
-4.99256e-01,0.0679656
-4.99248e-01,0.0687937
-4.99240e-01,0.0686312
-4.99232e-01,0.0661094
-4.99224e-01,0.0682031
-4.99216e-01,0.0679
-4.99208e-01,0.0684062
-4.99200e-01,0.0671687
-4.99192e-01,0.0671562
-4.99184e-01,0.0674719
-4.99176e-01,0.0677125
-4.99168e-01,0.0680969
-4.99160e-01,0.067125
-4.99152e-01,0.0681312
-4.99144e-01,0.0680219
-4.99136e-01,0.0671531
-4.99128e-01,0.0678125
-4.99120e-01,0.0694187
-4.99112e-01,0.0670406
-4.99104e-01,0.0675125
-4.99096e-01,0.0683719
-4.99088e-01,0.0676406
-4.99080e-01,0.0678781
-4.99072e-01,0.067375
-4.99064e-01,0.0682187
-4.99056e-01,0.0671031
-4.99048e-01,0.0687
-4.99040e-01,0.06765
-4.99032e-01,0.0678781
-4.99024e-01,0.0684125
-4.99016e-01,0.0676187
-4.99008e-01,0.0681812
-4.99000e-01,0.0676469
-4.98992e-01,0.0674812
-4.98984e-01,0.0675375
-4.98976e-01,0.0684906
-4.98968e-01,0.0675969
-4.98960e-01,0.06825
-4.98952e-01,0.0680625
-4.98944e-01,0.0672844
-4.98936e-01,0.0686656
-4.98928e-01,0.067525
-4.98920e-01,0.067425
-4.98912e-01,0.0678625
-4.98904e-01,0.0670437
-4.98896e-01,0.0685219
-4.98888e-01,0.0681406
-4.98880e-01,0.0674531
-4.98872e-01,0.0672656
-4.98864e-01,0.0684156
-4.98856e-01,0.0684156
-4.98848e-01,0.0692344
-4.98840e-01,0.0673531
-4.98832e-01,0.0670375
-4.98824e-01,0.0667156
-4.98816e-01,0.0681531
-4.98808e-01,0.0674156
-4.98800e-01,0.0676125
-4.98792e-01,0.0680969
-4.98784e-01,0.0670219
-4.98776e-01,0.0669937
-4.98768e-01,0.0684719
-4.98760e-01,0.068325
-4.98752e-01,0.0668156
-4.98744e-01,0.0682062
-4.98736e-01,0.0681687
-4.98728e-01,0.06695
-4.98720e-01,0.0684312
-4.98712e-01,0.0679469
-4.98704e-01,0.0684437
-4.98696e-01,0.0684031
-4.98688e-01,0.0675937
-4.98680e-01,0.0694906
-4.98672e-01,0.0674906
-4.98664e-01,0.0687875
-4.98656e-01,0.0676937
-4.98648e-01,0.0689344
-4.98640e-01,0.0667187
-4.98632e-01,0.0689312
-4.98624e-01,0.0676969
-4.98616e-01,0.0681719
-4.98608e-01,0.0681969
-4.98600e-01,0.0671062
-4.98592e-01,0.0678594
-4.98584e-01,0.0673562
-4.98576e-01,0.0684937
-4.98568e-01,0.0677312
-4.98560e-01,0.0675875
-4.98552e-01,0.0676406
-4.98544e-01,0.0678062
-4.98536e-01,0.0678375
-4.98528e-01,0.0684187
-4.98520e-01,0.0675719
-4.98512e-01,0.0682187
-4.98504e-01,0.0684406
-4.98496e-01,0.0683281
-4.98488e-01,0.06785
-4.98480e-01,0.0687531
-4.98472e-01,0.0685156
-4.98464e-01,0.0696094
-4.98456e-01,0.0670531
-4.98448e-01,0.0680219
-4.98440e-01,0.0671594
-4.98432e-01,0.0686156
-4.98424e-01,0.0674781
-4.98416e-01,0.0678344
-4.98408e-01,0.0673625
-4.98400e-01,0.0678344
-4.98392e-01,0.0686875
-4.98384e-01,0.0685625
-4.98376e-01,0.0685719
-4.98368e-01,0.0678031
-4.98360e-01,0.0675219
-4.98352e-01,0.0671094
-4.98344e-01,0.0682781
-4.98336e-01,0.0665875
-4.98328e-01,0.0684875
-4.98320e-01,0.0686906
-4.98312e-01,0.0678562
-4.98304e-01,0.0680875
-4.98296e-01,0.0683031
-4.98288e-01,0.0685281
-4.98280e-01,0.0684406
-4.98272e-01,0.0680437
-4.98264e-01,0.0679344
-4.98256e-01,0.0675844
-4.98248e-01,0.0685687
-4.98240e-01,0.06845
-4.98232e-01,0.0688
-4.98224e-01,0.0684406
-4.98216e-01,0.0682187
-4.98208e-01,0.0677531
-4.98200e-01,0.0680094
-4.98192e-01,0.0686219
-4.98184e-01,0.0676219
-4.98176e-01,0.0678187
-4.98168e-01,0.0680531
-4.98160e-01,0.0686312
-4.98152e-01,0.0672875
-4.98144e-01,0.0679062
-4.98136e-01,0.0684344
-4.98128e-01,0.0680781
-4.98120e-01,0.0683562
-4.98112e-01,0.068375
-4.98104e-01,0.0683875
-4.98096e-01,0.0680281
-4.98088e-01,0.0669062
-4.98080e-01,0.0670312
-4.98072e-01,0.0677687
-4.98064e-01,0.0692969
-4.98056e-01,0.0688562
-4.98048e-01,0.0685469
-4.98040e-01,0.0681687
-4.98032e-01,0.0672594
-4.98024e-01,0.0678656
-4.98016e-01,0.0687719
-4.98008e-01,0.0685219
-4.98000e-01,0.0687437
-4.97992e-01,0.0668812
-4.97984e-01,0.0682156
-4.97976e-01,0.0692219
-4.97968e-01,0.0676906
-4.97960e-01,0.0681906
-4.97952e-01,0.0687344
-4.97944e-01,0.0691875
-4.97936e-01,0.0672812
-4.97928e-01,0.0668344
-4.97920e-01,0.0691781
-4.97912e-01,0.0682187
-4.97904e-01,0.06795
-4.97896e-01,0.0671312
-4.97888e-01,0.0672219
-4.97880e-01,0.0671937
-4.97872e-01,0.0679156
-4.97864e-01,0.0681219
-4.97856e-01,0.06805
-4.97848e-01,0.0661094
-4.97840e-01,0.0669187
-4.97832e-01,0.068175
-4.97824e-01,0.0688187
-4.97816e-01,0.067825
-4.97808e-01,0.0690781
-4.97800e-01,0.0697875
-4.97792e-01,0.0664812
-4.97784e-01,0.0683031
-4.97776e-01,0.0681531
-4.97768e-01,0.0674656
-4.97760e-01,0.0694125
-4.97752e-01,0.0692906
-4.97744e-01,0.0667156
-4.97736e-01,0.0693344
-4.97728e-01,0.0684375
-4.97720e-01,0.0676562
-4.97712e-01,0.0665187
-4.97704e-01,0.0682562
-4.97696e-01,0.0664437
-4.97688e-01,0.0687062
-4.97680e-01,0.0668281
-4.97672e-01,0.0685625
-4.97664e-01,0.0695219
-4.97656e-01,0.06765
-4.97648e-01,0.0682219
-4.97640e-01,0.067925
-4.97632e-01,0.0668594
-4.97624e-01,0.0691906
-4.97616e-01,0.0671656
-4.97608e-01,0.0673844
-4.97600e-01,0.068725
-4.97592e-01,0.0681156
-4.97584e-01,0.0675125
-4.97576e-01,0.0675719
-4.97568e-01,0.0663656
-4.97560e-01,0.0688812
-4.97552e-01,0.0667437
-4.97544e-01,0.0669531
-4.97536e-01,0.0677219
-4.97528e-01,0.0674281
-4.97520e-01,0.0666687
-4.97512e-01,0.0675906
-4.97504e-01,0.0686125
-4.97496e-01,0.0687531
-4.97488e-01,0.0669219
-4.97480e-01,0.0686375
-4.97472e-01,0.0672187
-4.97464e-01,0.0688156
-4.97456e-01,0.0672625
-4.97448e-01,0.0674719
-4.97440e-01,0.0673437
-4.97432e-01,0.0679031
-4.97424e-01,0.0681
-4.97416e-01,0.0677156
-4.97408e-01,0.066775
-4.97400e-01,0.0691
-4.97392e-01,0.0680875
-4.97384e-01,0.0688594
-4.97376e-01,0.0666969
-4.97368e-01,0.0676531
-4.97360e-01,0.0679531
-4.97352e-01,0.0684062
-4.97344e-01,0.0680531
-4.97336e-01,0.0675094
-4.97328e-01,0.0677
-4.97320e-01,0.0683687
-4.97312e-01,0.0674125
-4.97304e-01,0.0670937
-4.97296e-01,0.0673
-4.97288e-01,0.068225
-4.97280e-01,0.0681937
-4.97272e-01,0.0689781
-4.97264e-01,0.0676719
-4.97256e-01,0.0677062
-4.97248e-01,0.0683406
-4.97240e-01,0.0682875
-4.97232e-01,0.0675781
-4.97224e-01,0.0682812
-4.97216e-01,0.0669437
-4.97208e-01,0.0684062
-4.97200e-01,0.0671156
-4.97192e-01,0.0679437
-4.97184e-01,0.0677
-4.97176e-01,0.0680531
-4.97168e-01,0.06825
-4.97160e-01,0.067775
-4.97152e-01,0.0684625
-4.97144e-01,0.0674156
-4.97136e-01,0.0669906
-4.97128e-01,0.0689719
-4.97120e-01,0.0673031
-4.97112e-01,0.0680312
-4.97104e-01,0.0681656
-4.97096e-01,0.0680469
-4.97088e-01,0.0679687
-4.97080e-01,0.0675312
-4.97072e-01,0.0671469
-4.97064e-01,0.0688187
-4.97056e-01,0.0688781
-4.97048e-01,0.0674562
-4.97040e-01,0.0686344
-4.97032e-01,0.0678594
-4.97024e-01,0.0679844
-4.97016e-01,0.0672781
-4.97008e-01,0.0676219
-4.97000e-01,0.0668375
-4.96992e-01,0.0675
-4.96984e-01,0.0670469
-4.96976e-01,0.0680375
-4.96968e-01,0.0672937
-4.96960e-01,0.0672219
-4.96952e-01,0.0686469
-4.96944e-01,0.0677781
-4.96936e-01,0.0672281
-4.96928e-01,0.0675437
-4.96920e-01,0.0681187
-4.96912e-01,0.0674156
-4.96904e-01,0.067025
-4.96896e-01,0.0668906
-4.96888e-01,0.0677281
-4.96880e-01,0.0676187
-4.96872e-01,0.0686344
-4.96864e-01,0.0673875
-4.96856e-01,0.067675
-4.96848e-01,0.0690562
-4.96840e-01,0.0687812
-4.96832e-01,0.0673844
-4.96824e-01,0.0679062
-4.96816e-01,0.0670937
-4.96808e-01,0.0679906
-4.96800e-01,0.0675156
-4.96792e-01,0.06875
-4.96784e-01,0.0677656
-4.96776e-01,0.0678125
-4.96768e-01,0.068075
-4.96760e-01,0.0680125
-4.96752e-01,0.0679656
-4.96744e-01,0.0682094
-4.96736e-01,0.0674281
-4.96728e-01,0.0659375
-4.96720e-01,0.0675
-4.96712e-01,0.0687687
-4.96704e-01,0.0674344
-4.96696e-01,0.0684844
-4.96688e-01,0.06845
-4.96680e-01,0.0681469
-4.96672e-01,0.0661781
-4.96664e-01,0.0687344
-4.96656e-01,0.0677031
-4.96648e-01,0.0694312
-4.96640e-01,0.0690031
-4.96632e-01,0.0675375
-4.96624e-01,0.0683187
-4.96616e-01,0.0668531
-4.96608e-01,0.0683625
-4.96600e-01,0.0676187
-4.96592e-01,0.0679312
-4.96584e-01,0.0683406
-4.96576e-01,0.067725
-4.96568e-01,0.0682969
-4.96560e-01,0.0672875
-4.96552e-01,0.0672344
-4.96544e-01,0.06795
-4.96536e-01,0.0678812
-4.96528e-01,0.068275
-4.96520e-01,0.0687969
-4.96512e-01,0.0680437
-4.96504e-01,0.0673969
-4.96496e-01,0.0678875
-4.96488e-01,0.0677156
-4.96480e-01,0.0679187
-4.96472e-01,0.0685687
-4.96464e-01,0.0686687
-4.96456e-01,0.0678687
-4.96448e-01,0.068075
-4.96440e-01,0.0684062
-4.96432e-01,0.0668
-4.96424e-01,0.0672844
-4.96416e-01,0.0667469
-4.96408e-01,0.0695937
-4.96400e-01,0.0673187
-4.96392e-01,0.0687781
-4.96384e-01,0.0688906
-4.96376e-01,0.066825
-4.96368e-01,0.0673969
-4.96360e-01,0.0675625
-4.96352e-01,0.0673312
-4.96344e-01,0.0686406
-4.96336e-01,0.0685937
-4.96328e-01,0.0687906
-4.96320e-01,0.0683344
-4.96312e-01,0.0691844
-4.96304e-01,0.0678031
-4.96296e-01,0.0672187
-4.96288e-01,0.0667094
-4.96280e-01,0.0676469
-4.96272e-01,0.0674469
-4.96264e-01,0.0676281
-4.96256e-01,0.0681875
-4.96248e-01,0.0668219
-4.96240e-01,0.0681062
-4.96232e-01,0.0663281
-4.96224e-01,0.0670125
-4.96216e-01,0.0681219
-4.96208e-01,0.0673781
-4.96200e-01,0.0678094
-4.96192e-01,0.0676406
-4.96184e-01,0.0671312
-4.96176e-01,0.0671031
-4.96168e-01,0.0683531
-4.96160e-01,0.0667937
-4.96152e-01,0.0673875
-4.96144e-01,0.0680875
-4.96136e-01,0.0684156
-4.96128e-01,0.0679219
-4.96120e-01,0.0675187
-4.96112e-01,0.0677719
-4.96104e-01,0.0681219
-4.96096e-01,0.0671969
-4.96088e-01,0.0688219
-4.96080e-01,0.0683375
-4.96072e-01,0.0682219
-4.96064e-01,0.0674156
-4.96056e-01,0.0681625
-4.96048e-01,0.0681031
-4.96040e-01,0.0675125
-4.96032e-01,0.0665156
-4.96024e-01,0.0670375
-4.96016e-01,0.066525
-4.96008e-01,0.0682844
-4.96000e-01,0.0683844
-4.95992e-01,0.0686531
-4.95984e-01,0.06815
-4.95976e-01,0.0674281
-4.95968e-01,0.0683219
-4.95960e-01,0.0679219
-4.95952e-01,0.0674469
-4.95944e-01,0.0668062
-4.95936e-01,0.0682437
-4.95928e-01,0.0675437
-4.95920e-01,0.0669719
-4.95912e-01,0.0682125
-4.95904e-01,0.0668687
-4.95896e-01,0.0684125
-4.95888e-01,0.0678375
-4.95880e-01,0.0677344
-4.95872e-01,0.0684187
-4.95864e-01,0.0678531
-4.95856e-01,0.0684437
-4.95848e-01,0.0675094
-4.95840e-01,0.0675031
-4.95832e-01,0.0697312
-4.95824e-01,0.0670375
-4.95816e-01,0.0671219
-4.95808e-01,0.066325
-4.95800e-01,0.068775
-4.95792e-01,0.0670312
-4.95784e-01,0.0671125
-4.95776e-01,0.06835
-4.95768e-01,0.0683
-4.95760e-01,0.06695
-4.95752e-01,0.0672875
-4.95744e-01,0.0667312
-4.95736e-01,0.0678906
-4.95728e-01,0.0678187
-4.95720e-01,0.0678187
-4.95712e-01,0.0688812
-4.95704e-01,0.0674969
-4.95696e-01,0.0678094
-4.95688e-01,0.0673969
-4.95680e-01,0.0667344
-4.95672e-01,0.0677469
-4.95664e-01,0.0678687
-4.95656e-01,0.0676969
-4.95648e-01,0.0677469
-4.95640e-01,0.0681
-4.95632e-01,0.0679781
-4.95624e-01,0.0680187
-4.95616e-01,0.0674594
-4.95608e-01,0.069175
-4.95600e-01,0.0676094
-4.95592e-01,0.0673844
-4.95584e-01,0.0676687
-4.95576e-01,0.06785
-4.95568e-01,0.0678906
-4.95560e-01,0.0683562
-4.95552e-01,0.067275
-4.95544e-01,0.0669406
-4.95536e-01,0.0680594
-4.95528e-01,0.0681812
-4.95520e-01,0.0671219
-4.95512e-01,0.0675281
-4.95504e-01,0.06815
-4.95496e-01,0.0671656
-4.95488e-01,0.0684812
-4.95480e-01,0.0660281
-4.95472e-01,0.067525
-4.95464e-01,0.0661
-4.95456e-01,0.0678156
-4.95448e-01,0.0677562
-4.95440e-01,0.0673781
-4.95432e-01,0.0682656
-4.95424e-01,0.0680187
-4.95416e-01,0.0675
-4.95408e-01,0.0678094
-4.95400e-01,0.0678531
-4.95392e-01,0.0672
-4.95384e-01,0.0685469
-4.95376e-01,0.0671531
-4.95368e-01,0.0676625
-4.95360e-01,0.06775
-4.95352e-01,0.0686594
-4.95344e-01,0.0678062
-4.95336e-01,0.0681375
-4.95328e-01,0.0665844
-4.95320e-01,0.0674406
-4.95312e-01,0.0689656
-4.95304e-01,0.0673937
-4.95296e-01,0.0669125
-4.95288e-01,0.0676469
-4.95280e-01,0.0684844
-4.95272e-01,0.0677969
-4.95264e-01,0.0678
-4.95256e-01,0.0686312
-4.95248e-01,0.0669812
-4.95240e-01,0.0671562
-4.95232e-01,0.06705
-4.95224e-01,0.0684719
-4.95216e-01,0.0671
-4.95208e-01,0.0680187
-4.95200e-01,0.067775
-4.95192e-01,0.0686156
-4.95184e-01,0.0692031
-4.95176e-01,0.0666
-4.95168e-01,0.0673062
-4.95160e-01,0.0679844
-4.95152e-01,0.0680719
-4.95144e-01,0.0678344
-4.95136e-01,0.0678219
-4.95128e-01,0.0665031
-4.95120e-01,0.0678531
-4.95112e-01,0.0691656
-4.95104e-01,0.0683469
-4.95096e-01,0.06685
-4.95088e-01,0.0674156
-4.95080e-01,0.0676656
-4.95072e-01,0.0674375
-4.95064e-01,0.067675
-4.95056e-01,0.06715
-4.95048e-01,0.0666625
-4.95040e-01,0.0675719
-4.95032e-01,0.0673094
-4.95024e-01,0.0667562
-4.95016e-01,0.0667531
-4.95008e-01,0.0679344
-4.95000e-01,0.0685469
-4.94992e-01,0.0668969
-4.94984e-01,0.0677125
-4.94976e-01,0.0672
-4.94968e-01,0.0662531
-4.94960e-01,0.0672219
-4.94952e-01,0.0668031
-4.94944e-01,0.0678406
-4.94936e-01,0.06645
-4.94928e-01,0.0678969
-4.94920e-01,0.0688031
-4.94912e-01,0.0687562
-4.94904e-01,0.0682031
-4.94896e-01,0.0669812
-4.94888e-01,0.0690469
-4.94880e-01,0.0676906
-4.94872e-01,0.0697656
-4.94864e-01,0.0692156
-4.94856e-01,0.0678875
-4.94848e-01,0.0672844
-4.94840e-01,0.0672375
-4.94832e-01,0.0671531
-4.94824e-01,0.066325
-4.94816e-01,0.0674812
-4.94808e-01,0.0686312
-4.94800e-01,0.0675156
-4.94792e-01,0.0672312
-4.94784e-01,0.0686781
-4.94776e-01,0.06865
-4.94768e-01,0.0681375
-4.94760e-01,0.0684781
-4.94752e-01,0.0670875
-4.94744e-01,0.0679156
-4.94736e-01,0.0677156
-4.94728e-01,0.0683937
-4.94720e-01,0.0678969
-4.94712e-01,0.0678875
-4.94704e-01,0.0669781
-4.94696e-01,0.0679844
-4.94688e-01,0.0685625
-4.94680e-01,0.0680125
-4.94672e-01,0.0677937
-4.94664e-01,0.0682656
-4.94656e-01,0.0682187
-4.94648e-01,0.0663219
-4.94640e-01,0.0680656
-4.94632e-01,0.0680094
-4.94624e-01,0.0659156
-4.94616e-01,0.067375
-4.94608e-01,0.0668844
-4.94600e-01,0.0680812
-4.94592e-01,0.0669531
-4.94584e-01,0.0676719
-4.94576e-01,0.0682875
-4.94568e-01,0.0683844
-4.94560e-01,0.0681344
-4.94552e-01,0.0678781
-4.94544e-01,0.0684625
-4.94536e-01,0.0673687
-4.94528e-01,0.0669219
-4.94520e-01,0.0672344
-4.94512e-01,0.0675687
-4.94504e-01,0.0678969
-4.94496e-01,0.0673719
-4.94488e-01,0.0685281
-4.94480e-01,0.067425
-4.94472e-01,0.0680719
-4.94464e-01,0.0674062
-4.94456e-01,0.0683875
-4.94448e-01,0.067325
-4.94440e-01,0.0674844
-4.94432e-01,0.0666719
-4.94424e-01,0.0676469
-4.94416e-01,0.0679937
-4.94408e-01,0.0659375
-4.94400e-01,0.0678875
-4.94392e-01,0.0676125
-4.94384e-01,0.067675
-4.94376e-01,0.0684969
-4.94368e-01,0.0678781
-4.94360e-01,0.0675687
-4.94352e-01,0.0678781
-4.94344e-01,0.0681656
-4.94336e-01,0.0680125
-4.94328e-01,0.0666437
-4.94320e-01,0.0682125
-4.94312e-01,0.0673781
-4.94304e-01,0.0676094
-4.94296e-01,0.0688
-4.94288e-01,0.0670781
-4.94280e-01,0.0666656
-4.94272e-01,0.0681094
-4.94264e-01,0.0683187
-4.94256e-01,0.0668062
-4.94248e-01,0.0686281
-4.94240e-01,0.0677969
-4.94232e-01,0.0677219
-4.94224e-01,0.06755
-4.94216e-01,0.0672437
-4.94208e-01,0.0685125
-4.94200e-01,0.0678656
-4.94192e-01,0.067225
-4.94184e-01,0.0680781
-4.94176e-01,0.0686969
-4.94168e-01,0.0670187
-4.94160e-01,0.0673344
-4.94152e-01,0.0683625
-4.94144e-01,0.0684531
-4.94136e-01,0.0684437
-4.94128e-01,0.0675531
-4.94120e-01,0.0675812
-4.94112e-01,0.0685469
-4.94104e-01,0.0672531
-4.94096e-01,0.0683437
-4.94088e-01,0.0659812
-4.94080e-01,0.0667937
-4.94072e-01,0.0668187
-4.94064e-01,0.0670562
-4.94056e-01,0.0664969
-4.94048e-01,0.0679156
-4.94040e-01,0.0669594
-4.94032e-01,0.0672969
-4.94024e-01,0.0683375
-4.94016e-01,0.0670812
-4.94008e-01,0.0682062
-4.94000e-01,0.0677594
-4.93992e-01,0.0680469
-4.93984e-01,0.0663625
-4.93976e-01,0.0678062
-4.93968e-01,0.0678125
-4.93960e-01,0.0674469
-4.93952e-01,0.0681219
-4.93944e-01,0.068525
-4.93936e-01,0.0660812
-4.93928e-01,0.067375
-4.93920e-01,0.0661031
-4.93912e-01,0.0671906
-4.93904e-01,0.069125
-4.93896e-01,0.0688
-4.93888e-01,0.0690062
-4.93880e-01,0.067225
-4.93872e-01,0.0684469
-4.93864e-01,0.0684687
-4.93856e-01,0.0670344
-4.93848e-01,0.0682094
-4.93840e-01,0.0675062
-4.93832e-01,0.0674625
-4.93824e-01,0.0675031
-4.93816e-01,0.0679719
-4.93808e-01,0.0679
-4.93800e-01,0.0680656
-4.93792e-01,0.0666219
-4.93784e-01,0.0671594
-4.93776e-01,0.0674531
-4.93768e-01,0.067825
-4.93760e-01,0.0685594
-4.93752e-01,0.0684906
-4.93744e-01,0.06615
-4.93736e-01,0.0667906
-4.93728e-01,0.0675625
-4.93720e-01,0.0689562
-4.93712e-01,0.0681062
-4.93704e-01,0.0669312
-4.93696e-01,0.067875
-4.93688e-01,0.0668625
-4.93680e-01,0.0699469
-4.93672e-01,0.0663219
-4.93664e-01,0.0673937
-4.93656e-01,0.0676719
-4.93648e-01,0.0666187
-4.93640e-01,0.0671187
-4.93632e-01,0.0677906
-4.93624e-01,0.0695094
-4.93616e-01,0.0680312
-4.93608e-01,0.0689781
-4.93600e-01,0.0670937
-4.93592e-01,0.0672625
-4.93584e-01,0.0699781
-4.93576e-01,0.0678781
-4.93568e-01,0.0675844
-4.93560e-01,0.0670812
-4.93552e-01,0.0680969
-4.93544e-01,0.0664094
-4.93536e-01,0.0679312
-4.93528e-01,0.0677219
-4.93520e-01,0.0681062
-4.93512e-01,0.0682812
-4.93504e-01,0.0676281
-4.93496e-01,0.0672344
-4.93488e-01,0.0677625
-4.93480e-01,0.0659437
-4.93472e-01,0.0680219
-4.93464e-01,0.0683156
-4.93456e-01,0.0668125
-4.93448e-01,0.0674719
-4.93440e-01,0.0674469
-4.93432e-01,0.0674406
-4.93424e-01,0.0689312
-4.93416e-01,0.0673406
-4.93408e-01,0.0689719
-4.93400e-01,0.06655
-4.93392e-01,0.0685562
-4.93384e-01,0.0688781
-4.93376e-01,0.06775
-4.93368e-01,0.0677625
-4.93360e-01,0.0683187
-4.93352e-01,0.0666312
-4.93344e-01,0.0674437
-4.93336e-01,0.0679031
-4.93328e-01,0.0679094
-4.93320e-01,0.0680312
-4.93312e-01,0.0674062
-4.93304e-01,0.0679406
-4.93296e-01,0.0673312
-4.93288e-01,0.0670125
-4.93280e-01,0.0675719
-4.93272e-01,0.0669062
-4.93264e-01,0.0683406
-4.93256e-01,0.0669625
-4.93248e-01,0.0672719
-4.93240e-01,0.0690062
-4.93232e-01,0.0684562
-4.93224e-01,0.0665375
-4.93216e-01,0.0672375
-4.93208e-01,0.0692187
-4.93200e-01,0.067375
-4.93192e-01,0.0681656
-4.93184e-01,0.0674062
-4.93176e-01,0.06735
-4.93168e-01,0.0673312
-4.93160e-01,0.0667906
-4.93152e-01,0.0688906
-4.93144e-01,0.0680562
-4.93136e-01,0.0674969
-4.93128e-01,0.068525
-4.93120e-01,0.0679187
-4.93112e-01,0.0682187
-4.93104e-01,0.0670906
-4.93096e-01,0.0671187
-4.93088e-01,0.0677594
