CD-Dateien/Messprotokolle/Messung_Leistungskennlinie_versch_Harvester/Harvester_alt/10kmh/Harvester_1MOhm.CSV

Model,MSO2024
Firmware Version,1.52

Point Format,Y
Horizontal Units,S
Horizontal Scale,0.1
Sample Interval,8e-06
Filter Frequency,2e+08
Record Length,125000
Gating,0.0% to 100.0%
Probe Attenuation,10
Vertical Units,V
Vertical Offset,0
Vertical Scale,0.02
Label,
TIME,CH1
-5.00000e-01,0.0442656
-4.99992e-01,0.0431781
-4.99984e-01,0.043175
-4.99976e-01,0.0438969
-4.99968e-01,0.0430562
-4.99960e-01,0.0438969
-4.99952e-01,0.0433656
-4.99944e-01,0.0445656
-4.99936e-01,0.0438062
-4.99928e-01,0.0452719
-4.99920e-01,0.0441594
-4.99912e-01,0.0437344
-4.99904e-01,0.0438156
-4.99896e-01,0.0436031
-4.99888e-01,0.0446437
-4.99880e-01,0.0441562
-4.99872e-01,0.0431281
-4.99864e-01,0.0444219
-4.99856e-01,0.0429844
-4.99848e-01,0.0436531
-4.99840e-01,0.0436687
-4.99832e-01,0.044375
-4.99824e-01,0.0437562
-4.99816e-01,0.0438687
-4.99808e-01,0.0434969
-4.99800e-01,0.0446969
-4.99792e-01,0.0454875
-4.99784e-01,0.0424406
-4.99776e-01,0.0450062
-4.99768e-01,0.043275
-4.99760e-01,0.0441094
-4.99752e-01,0.043625
-4.99744e-01,0.043025
-4.99736e-01,0.0441781
-4.99728e-01,0.0448844
-4.99720e-01,0.0436531
-4.99712e-01,0.0432812
-4.99704e-01,0.0450031
-4.99696e-01,0.0438344
-4.99688e-01,0.0437719
-4.99680e-01,0.0429625
-4.99672e-01,0.043475
-4.99664e-01,0.0451094
-4.99656e-01,0.0456937
-4.99648e-01,0.0440969
-4.99640e-01,0.0431937
-4.99632e-01,0.0439281
-4.99624e-01,0.0434125
-4.99616e-01,0.0434969
-4.99608e-01,0.043175
-4.99600e-01,0.0437594
-4.99592e-01,0.0442031
-4.99584e-01,0.0440219
-4.99576e-01,0.0431719
-4.99568e-01,0.0440969
-4.99560e-01,0.04365
-4.99552e-01,0.0440719
-4.99544e-01,0.0431844
-4.99536e-01,0.0441594
-4.99528e-01,0.0435969
-4.99520e-01,0.0438906
-4.99512e-01,0.0438875
-4.99504e-01,0.0446187
-4.99496e-01,0.0442875
-4.99488e-01,0.0425531
-4.99480e-01,0.0442687
-4.99472e-01,0.0441094
-4.99464e-01,0.0424219
-4.99456e-01,0.0443844
-4.99448e-01,0.0430625
-4.99440e-01,0.0434406
-4.99432e-01,0.0437594
-4.99424e-01,0.0437406
-4.99416e-01,0.0422281
-4.99408e-01,0.0427312
-4.99400e-01,0.0443437
-4.99392e-01,0.0438312
-4.99384e-01,0.0437594
-4.99376e-01,0.0444969
-4.99368e-01,0.043675
-4.99360e-01,0.0439906
-4.99352e-01,0.0435156
-4.99344e-01,0.0440812
-4.99336e-01,0.0427687
-4.99328e-01,0.0431219
-4.99320e-01,0.0436219
-4.99312e-01,0.0443094
-4.99304e-01,0.044
-4.99296e-01,0.043875
-4.99288e-01,0.0425562
-4.99280e-01,0.0434844
-4.99272e-01,0.0432531
-4.99264e-01,0.0438219
-4.99256e-01,0.0432031
-4.99248e-01,0.0438531
-4.99240e-01,0.0444656
-4.99232e-01,0.0438562
-4.99224e-01,0.0440937
-4.99216e-01,0.0444031
-4.99208e-01,0.0450062
-4.99200e-01,0.0444781
-4.99192e-01,0.0442937
-4.99184e-01,0.0425875
-4.99176e-01,0.0439937
-4.99168e-01,0.0432219
-4.99160e-01,0.0416312
-4.99152e-01,0.0429844
-4.99144e-01,0.0447312
-4.99136e-01,0.0430281
-4.99128e-01,0.0431219
-4.99120e-01,0.0437844
-4.99112e-01,0.0434844
-4.99104e-01,0.0433375
-4.99096e-01,0.0441656
-4.99088e-01,0.0432812
-4.99080e-01,0.0444719
-4.99072e-01,0.0443031
-4.99064e-01,0.0439687
-4.99056e-01,0.0431844
-4.99048e-01,0.0435719
-4.99040e-01,0.0440625
-4.99032e-01,0.0446844
-4.99024e-01,0.0434875
-4.99016e-01,0.043825
-4.99008e-01,0.0433344
-4.99000e-01,0.0436969
-4.98992e-01,0.0440156
-4.98984e-01,0.0430906
-4.98976e-01,0.0437844
-4.98968e-01,0.0434281
-4.98960e-01,0.0447062
-4.98952e-01,0.0431937
-4.98944e-01,0.0434156
-4.98936e-01,0.0446
-4.98928e-01,0.0424969
-4.98920e-01,0.0434062
-4.98912e-01,0.0447
-4.98904e-01,0.0433969
-4.98896e-01,0.0445687
-4.98888e-01,0.0436562
-4.98880e-01,0.0437219
-4.98872e-01,0.0441906
-4.98864e-01,0.0434281
-4.98856e-01,0.0434656
-4.98848e-01,0.0436437
-4.98840e-01,0.044675
-4.98832e-01,0.0432937
-4.98824e-01,0.0435906
-4.98816e-01,0.0435187
-4.98808e-01,0.0438125
-4.98800e-01,0.0439125
-4.98792e-01,0.0439969
-4.98784e-01,0.0433687
-4.98776e-01,0.0441187
-4.98768e-01,0.0439937
-4.98760e-01,0.0437719
-4.98752e-01,0.0435906
-4.98744e-01,0.0436156
-4.98736e-01,0.0438406
-4.98728e-01,0.0434844
-4.98720e-01,0.0433219
-4.98712e-01,0.0442844
-4.98704e-01,0.0441375
-4.98696e-01,0.044
-4.98688e-01,0.0441469
-4.98680e-01,0.0434937
-4.98672e-01,0.0425969
-4.98664e-01,0.0422406
-4.98656e-01,0.0426344
-4.98648e-01,0.0431687
-4.98640e-01,0.0432062
-4.98632e-01,0.0441312
-4.98624e-01,0.0433937
-4.98616e-01,0.0430844
-4.98608e-01,0.0432562
-4.98600e-01,0.0434312
-4.98592e-01,0.0451125
-4.98584e-01,0.0449281
-4.98576e-01,0.0447875
-4.98568e-01,0.0435719
-4.98560e-01,0.0435062
-4.98552e-01,0.0430562
-4.98544e-01,0.0439375
-4.98536e-01,0.04375
-4.98528e-01,0.0441312
-4.98520e-01,0.0428406
-4.98512e-01,0.0434
-4.98504e-01,0.0450812
-4.98496e-01,0.0435719
-4.98488e-01,0.0436531
-4.98480e-01,0.0434844
-4.98472e-01,0.044075
-4.98464e-01,0.0433406
-4.98456e-01,0.0453031
-4.98448e-01,0.0434031
-4.98440e-01,0.0429437
-4.98432e-01,0.0436844
-4.98424e-01,0.0429594
-4.98416e-01,0.0433
-4.98408e-01,0.0443969
-4.98400e-01,0.0437844
-4.98392e-01,0.042625
-4.98384e-01,0.0446219
-4.98376e-01,0.0430156
-4.98368e-01,0.0433031
-4.98360e-01,0.0435625
-4.98352e-01,0.043825
-4.98344e-01,0.0440375
-4.98336e-01,0.0435687
-4.98328e-01,0.0432937
-4.98320e-01,0.0436
-4.98312e-01,0.0437875
-4.98304e-01,0.043925
-4.98296e-01,0.0430719
-4.98288e-01,0.0443094
-4.98280e-01,0.0433656
-4.98272e-01,0.0443062
-4.98264e-01,0.0441969
-4.98256e-01,0.0443031
-4.98248e-01,0.0429656
-4.98240e-01,0.0442406
-4.98232e-01,0.0440875
-4.98224e-01,0.0436437
-4.98216e-01,0.0447937
-4.98208e-01,0.0435781
-4.98200e-01,0.0445281
-4.98192e-01,0.0442344
-4.98184e-01,0.0433062
-4.98176e-01,0.0447594
-4.98168e-01,0.0440219
-4.98160e-01,0.0434937
-4.98152e-01,0.0415312
-4.98144e-01,0.0437875
-4.98136e-01,0.0421687
-4.98128e-01,0.0430719
-4.98120e-01,0.04345
-4.98112e-01,0.04365
-4.98104e-01,0.0441125
-4.98096e-01,0.0446344
-4.98088e-01,0.0421469
-4.98080e-01,0.0440531
-4.98072e-01,0.0440187
-4.98064e-01,0.0435656
-4.98056e-01,0.0440594
-4.98048e-01,0.0448656
-4.98040e-01,0.0441125
-4.98032e-01,0.0453531
-4.98024e-01,0.043075
-4.98016e-01,0.0436281
-4.98008e-01,0.0434094
-4.98000e-01,0.044025
-4.97992e-01,0.0446125
-4.97984e-01,0.0436875
-4.97976e-01,0.0430437
-4.97968e-01,0.0429781
-4.97960e-01,0.0441656
-4.97952e-01,0.0436469
-4.97944e-01,0.0445875
-4.97936e-01,0.0428937
-4.97928e-01,0.0432
-4.97920e-01,0.0430437
-4.97912e-01,0.0433906
-4.97904e-01,0.0436687
-4.97896e-01,0.0434094
-4.97888e-01,0.0437469
-4.97880e-01,0.0424625
-4.97872e-01,0.0437156
-4.97864e-01,0.0436844
-4.97856e-01,0.043425
-4.97848e-01,0.043425
-4.97840e-01,0.04475
-4.97832e-01,0.0439031
-4.97824e-01,0.0422281
-4.97816e-01,0.0448781
-4.97808e-01,0.0417969
-4.97800e-01,0.0432156
-4.97792e-01,0.0427781
-4.97784e-01,0.0442
-4.97776e-01,0.043675
-4.97768e-01,0.0426094
-4.97760e-01,0.0442
-4.97752e-01,0.0441062
-4.97744e-01,0.0445937
-4.97736e-01,0.0435687
-4.97728e-01,0.044525
-4.97720e-01,0.0443406
-4.97712e-01,0.0422594
-4.97704e-01,0.0434062
-4.97696e-01,0.0434844
-4.97688e-01,0.0440625
-4.97680e-01,0.0447937
-4.97672e-01,0.0425625
-4.97664e-01,0.0422781
-4.97656e-01,0.0440187
-4.97648e-01,0.0441969
-4.97640e-01,0.0440125
-4.97632e-01,0.0440344
-4.97624e-01,0.0435562
-4.97616e-01,0.0434469
-4.97608e-01,0.044925
-4.97600e-01,0.0427219
-4.97592e-01,0.0433906
-4.97584e-01,0.044175
-4.97576e-01,0.044725
-4.97568e-01,0.0441437
-4.97560e-01,0.0424031
-4.97552e-01,0.0432812
-4.97544e-01,0.0435781
-4.97536e-01,0.0426812
-4.97528e-01,0.044
-4.97520e-01,0.0441906
-4.97512e-01,0.04355
-4.97504e-01,0.0442219
-4.97496e-01,0.0438
-4.97488e-01,0.0440156
-4.97480e-01,0.0435125
-4.97472e-01,0.0452187
-4.97464e-01,0.0422344
-4.97456e-01,0.044275
-4.97448e-01,0.0424312
-4.97440e-01,0.0439062
-4.97432e-01,0.0430031
-4.97424e-01,0.0450375
-4.97416e-01,0.043275
-4.97408e-01,0.0431531
-4.97400e-01,0.0443219
-4.97392e-01,0.0432094
-4.97384e-01,0.0420875
-4.97376e-01,0.0448687
-4.97368e-01,0.0429375
-4.97360e-01,0.0438437
-4.97352e-01,0.0431562
-4.97344e-01,0.0429875
-4.97336e-01,0.0438406
-4.97328e-01,0.0437312
-4.97320e-01,0.0439156
-4.97312e-01,0.0424687
-4.97304e-01,0.0450812
-4.97296e-01,0.0431969
-4.97288e-01,0.0438125
-4.97280e-01,0.0435531
-4.97272e-01,0.0445906
-4.97264e-01,0.0428969
-4.97256e-01,0.0438781
-4.97248e-01,0.0439937
-4.97240e-01,0.0429687
-4.97232e-01,0.043375
-4.97224e-01,0.0438125
-4.97216e-01,0.0428
-4.97208e-01,0.0435719
-4.97200e-01,0.0439594
-4.97192e-01,0.0435281
-4.97184e-01,0.0430437
-4.97176e-01,0.0429844
-4.97168e-01,0.0451812
-4.97160e-01,0.0436062
-4.97152e-01,0.0441844
-4.97144e-01,0.0429687
-4.97136e-01,0.04345
-4.97128e-01,0.0442594
-4.97120e-01,0.0445906
-4.97112e-01,0.0443031
-4.97104e-01,0.0433219
-4.97096e-01,0.043325
-4.97088e-01,0.0438344
-4.97080e-01,0.0422531
-4.97072e-01,0.0431656
-4.97064e-01,0.0438312
-4.97056e-01,0.0433031
-4.97048e-01,0.0433969
-4.97040e-01,0.0429562
-4.97032e-01,0.0448875
-4.97024e-01,0.0437187
-4.97016e-01,0.0421719
-4.97008e-01,0.0436125
-4.97000e-01,0.0436875
-4.96992e-01,0.0444906
-4.96984e-01,0.0437281
-4.96976e-01,0.0417469
-4.96968e-01,0.0434844
-4.96960e-01,0.0447687
-4.96952e-01,0.0418469
-4.96944e-01,0.0437281
-4.96936e-01,0.0440125
-4.96928e-01,0.0441812
-4.96920e-01,0.0435844
-4.96912e-01,0.0439531
-4.96904e-01,0.0441437
-4.96896e-01,0.0434125
-4.96888e-01,0.0448187
-4.96880e-01,0.044025
-4.96872e-01,0.043
-4.96864e-01,0.0443437
-4.96856e-01,0.044725
-4.96848e-01,0.0439625
-4.96840e-01,0.0434031
-4.96832e-01,0.042275
-4.96824e-01,0.0438906
-4.96816e-01,0.0455437
-4.96808e-01,0.0443812
-4.96800e-01,0.0455031
-4.96792e-01,0.04315
-4.96784e-01,0.0444437
-4.96776e-01,0.0442406
-4.96768e-01,0.0445375
-4.96760e-01,0.0429969
-4.96752e-01,0.04395
-4.96744e-01,0.0422375
-4.96736e-01,0.0438844
-4.96728e-01,0.0428281
-4.96720e-01,0.0429312
-4.96712e-01,0.0451312
-4.96704e-01,0.0436187
-4.96696e-01,0.0441094
-4.96688e-01,0.0435844
-4.96680e-01,0.0435406
-4.96672e-01,0.0429969
-4.96664e-01,0.0439844
-4.96656e-01,0.0441187
-4.96648e-01,0.0447937
-4.96640e-01,0.0443781
-4.96632e-01,0.0435531
-4.96624e-01,0.0444844
-4.96616e-01,0.0433375
-4.96608e-01,0.0446312
-4.96600e-01,0.0439656
-4.96592e-01,0.0437937
-4.96584e-01,0.0433344
-4.96576e-01,0.0442719
-4.96568e-01,0.0425437
-4.96560e-01,0.0432187
-4.96552e-01,0.0440375
-4.96544e-01,0.0429281
-4.96536e-01,0.044
-4.96528e-01,0.0429094
-4.96520e-01,0.0426844
-4.96512e-01,0.0441125
-4.96504e-01,0.0428094
-4.96496e-01,0.0435844
-4.96488e-01,0.0436344
-4.96480e-01,0.0433875
-4.96472e-01,0.0434687
-4.96464e-01,0.0445906
-4.96456e-01,0.0440875
-4.96448e-01,0.0438469
-4.96440e-01,0.0433844
-4.96432e-01,0.0441344
-4.96424e-01,0.0446156
-4.96416e-01,0.0438156
-4.96408e-01,0.043575
-4.96400e-01,0.0436437
-4.96392e-01,0.043725
-4.96384e-01,0.0430781
-4.96376e-01,0.0421062
-4.96368e-01,0.0433469
-4.96360e-01,0.0432156
-4.96352e-01,0.0436719
-4.96344e-01,0.0447031
-4.96336e-01,0.0435875
-4.96328e-01,0.0441156
-4.96320e-01,0.0430187
-4.96312e-01,0.0447187
-4.96304e-01,0.0424219
-4.96296e-01,0.0427219
-4.96288e-01,0.0442344
-4.96280e-01,0.04175
-4.96272e-01,0.0428906
-4.96264e-01,0.043575
-4.96256e-01,0.0454844
-4.96248e-01,0.0439625
-4.96240e-01,0.0429969
-4.96232e-01,0.0442844
-4.96224e-01,0.0440031
-4.96216e-01,0.0443187
-4.96208e-01,0.0433219
-4.96200e-01,0.0433562
-4.96192e-01,0.0437687
-4.96184e-01,0.0436906
-4.96176e-01,0.0443219
-4.96168e-01,0.0435125
-4.96160e-01,0.0445375
-4.96152e-01,0.0440906
-4.96144e-01,0.0439844
-4.96136e-01,0.0434875
-4.96128e-01,0.0448687
-4.96120e-01,0.0440031
-4.96112e-01,0.0419625
-4.96104e-01,0.0439187
-4.96096e-01,0.0447094
-4.96088e-01,0.0423656
-4.96080e-01,0.0435781
-4.96072e-01,0.0434344
-4.96064e-01,0.044175
-4.96056e-01,0.0430812
-4.96048e-01,0.0425344
-4.96040e-01,0.0432
-4.96032e-01,0.0435125
-4.96024e-01,0.0426156
-4.96016e-01,0.0437062
-4.96008e-01,0.0437719
-4.96000e-01,0.0445312
-4.95992e-01,0.0431406
-4.95984e-01,0.0430719
-4.95976e-01,0.0434125
-4.95968e-01,0.0438437
-4.95960e-01,0.0438156
-4.95952e-01,0.0429469
-4.95944e-01,0.0440281
-4.95936e-01,0.043
-4.95928e-01,0.04475
-4.95920e-01,0.0438531
-4.95912e-01,0.0435062
-4.95904e-01,0.0436937
-4.95896e-01,0.0425219
-4.95888e-01,0.0434187
-4.95880e-01,0.0435844
-4.95872e-01,0.0449937
-4.95864e-01,0.042775
-4.95856e-01,0.043825
-4.95848e-01,0.044425
-4.95840e-01,0.0429
-4.95832e-01,0.0439344
-4.95824e-01,0.0431937
-4.95816e-01,0.044425
-4.95808e-01,0.0420969
-4.95800e-01,0.0426062
-4.95792e-01,0.0433844
-4.95784e-01,0.0429656
-4.95776e-01,0.04295
-4.95768e-01,0.0439094
-4.95760e-01,0.042825
-4.95752e-01,0.0436844
-4.95744e-01,0.0438281
-4.95736e-01,0.0444969
-4.95728e-01,0.0428312
-4.95720e-01,0.0441719
-4.95712e-01,0.042575
-4.95704e-01,0.0432187
-4.95696e-01,0.0440281
-4.95688e-01,0.0438094
-4.95680e-01,0.0429031
-4.95672e-01,0.0438875
-4.95664e-01,0.0423875
-4.95656e-01,0.0431687
-4.95648e-01,0.0441125
-4.95640e-01,0.0437219
-4.95632e-01,0.0445719
-4.95624e-01,0.0427594
-4.95616e-01,0.0439406
-4.95608e-01,0.0444906
-4.95600e-01,0.0433906
-4.95592e-01,0.0425844
-4.95584e-01,0.0424406
-4.95576e-01,0.0437219
-4.95568e-01,0.0445156
-4.95560e-01,0.0435937
-4.95552e-01,0.0424719
-4.95544e-01,0.0433625
-4.95536e-01,0.0425719
-4.95528e-01,0.0432531
-4.95520e-01,0.0439719
-4.95512e-01,0.0430812
-4.95504e-01,0.0438312
-4.95496e-01,0.0444812
-4.95488e-01,0.0434125
-4.95480e-01,0.043575
-4.95472e-01,0.0426969
-4.95464e-01,0.0441937
-4.95456e-01,0.0438844
-4.95448e-01,0.0443969
-4.95440e-01,0.0436594
-4.95432e-01,0.0437844
-4.95424e-01,0.0423031
-4.95416e-01,0.0437531
-4.95408e-01,0.0437281
-4.95400e-01,0.0440125
-4.95392e-01,0.0445562
-4.95384e-01,0.0436156
-4.95376e-01,0.0438469
-4.95368e-01,0.0446844
-4.95360e-01,0.0444906
-4.95352e-01,0.042925
-4.95344e-01,0.0445344
-4.95336e-01,0.0429531
-4.95328e-01,0.0443375
-4.95320e-01,0.0428875
-4.95312e-01,0.0438781
-4.95304e-01,0.0434625
-4.95296e-01,0.043
-4.95288e-01,0.0431094
-4.95280e-01,0.0443562
-4.95272e-01,0.04355
-4.95264e-01,0.043725
-4.95256e-01,0.0425719
-4.95248e-01,0.0435469
-4.95240e-01,0.042875
-4.95232e-01,0.0439344
-4.95224e-01,0.0433
-4.95216e-01,0.0428562
-4.95208e-01,0.0423187
-4.95200e-01,0.0440437
-4.95192e-01,0.0440125
-4.95184e-01,0.044275
-4.95176e-01,0.0447062
-4.95168e-01,0.0431469
-4.95160e-01,0.04385
-4.95152e-01,0.0423875
-4.95144e-01,0.0439625
-4.95136e-01,0.0436187
-4.95128e-01,0.0423187
-4.95120e-01,0.0425406
-4.95112e-01,0.0429125
-4.95104e-01,0.0423719
-4.95096e-01,0.0452562
-4.95088e-01,0.0442375
-4.95080e-01,0.0434219
-4.95072e-01,0.0423719
-4.95064e-01,0.0440062
-4.95056e-01,0.0440094
-4.95048e-01,0.0435531
-4.95040e-01,0.0434906
-4.95032e-01,0.0434906
-4.95024e-01,0.0436312
-4.95016e-01,0.0437781
-4.95008e-01,0.0448312
-4.95000e-01,0.0424594
-4.94992e-01,0.0431156
-4.94984e-01,0.043675
-4.94976e-01,0.0428187
-4.94968e-01,0.0444406
-4.94960e-01,0.0427781
-4.94952e-01,0.0441437
-4.94944e-01,0.044175
-4.94936e-01,0.0433844
-4.94928e-01,0.0436281
-4.94920e-01,0.0440875
-4.94912e-01,0.043425
-4.94904e-01,0.0442812
-4.94896e-01,0.0434656
-4.94888e-01,0.0437344
-4.94880e-01,0.0436656
-4.94872e-01,0.0430719
-4.94864e-01,0.0447062
-4.94856e-01,0.0437781
-4.94848e-01,0.0434219
-4.94840e-01,0.043875
-4.94832e-01,0.0437219
-4.94824e-01,0.0425594
-4.94816e-01,0.0431937
-4.94808e-01,0.0431687
-4.94800e-01,0.04175
-4.94792e-01,0.0431375
-4.94784e-01,0.0446281
-4.94776e-01,0.044325
-4.94768e-01,0.0451812
-4.94760e-01,0.0440219
-4.94752e-01,0.04425
-4.94744e-01,0.0450812
-4.94736e-01,0.0435719
-4.94728e-01,0.0438562
-4.94720e-01,0.0436656
-4.94712e-01,0.0429281
-4.94704e-01,0.0432562
-4.94696e-01,0.043725
-4.94688e-01,0.0441875
-4.94680e-01,0.0431562
-4.94672e-01,0.0430812
-4.94664e-01,0.0427844
-4.94656e-01,0.044325
-4.94648e-01,0.043675
-4.94640e-01,0.0433094
-4.94632e-01,0.0436687
-4.94624e-01,0.0437344
-4.94616e-01,0.0431844
-4.94608e-01,0.0439781
-4.94600e-01,0.043225
-4.94592e-01,0.0424219
-4.94584e-01,0.0424906
-4.94576e-01,0.0444
-4.94568e-01,0.0427844
-4.94560e-01,0.0453531
-4.94552e-01,0.0429
-4.94544e-01,0.0433469
-4.94536e-01,0.0439969
-4.94528e-01,0.0441062
-4.94520e-01,0.0431656
-4.94512e-01,0.0451187
-4.94504e-01,0.043925
-4.94496e-01,0.0433437
-4.94488e-01,0.0437094
-4.94480e-01,0.0436062
-4.94472e-01,0.0433812
-4.94464e-01,0.0447656
-4.94456e-01,0.0433281
-4.94448e-01,0.0439906
-4.94440e-01,0.0445375
-4.94432e-01,0.0434312
-4.94424e-01,0.044375
-4.94416e-01,0.04285
-4.94408e-01,0.0421437
-4.94400e-01,0.0431062
-4.94392e-01,0.0432094
-4.94384e-01,0.0425125
-4.94376e-01,0.0435344
-4.94368e-01,0.043425
-4.94360e-01,0.0427531
-4.94352e-01,0.0446344
-4.94344e-01,0.0436844
-4.94336e-01,0.0438156
-4.94328e-01,0.0437687
-4.94320e-01,0.0435875
-4.94312e-01,0.0446187
-4.94304e-01,0.0437125
-4.94296e-01,0.0445812
-4.94288e-01,0.0448656
-4.94280e-01,0.0417437
-4.94272e-01,0.0434406
-4.94264e-01,0.0420187
-4.94256e-01,0.0419406
-4.94248e-01,0.0433875
-4.94240e-01,0.0443719
-4.94232e-01,0.0427562
-4.94224e-01,0.0436406
-4.94216e-01,0.0444906
-4.94208e-01,0.0419125
-4.94200e-01,0.0447
-4.94192e-01,0.0424219
-4.94184e-01,0.0444719
-4.94176e-01,0.0438812
-4.94168e-01,0.0435594
-4.94160e-01,0.0426406
-4.94152e-01,0.0432125
-4.94144e-01,0.0428125
-4.94136e-01,0.043075
-4.94128e-01,0.0434375
-4.94120e-01,0.0434594
-4.94112e-01,0.0441719
-4.94104e-01,0.0436531
-4.94096e-01,0.0442656
-4.94088e-01,0.0431125
-4.94080e-01,0.0438812
-4.94072e-01,0.0426469
-4.94064e-01,0.0428937
-4.94056e-01,0.0426344
-4.94048e-01,0.0437656
-4.94040e-01,0.0440094
-4.94032e-01,0.0432625
-4.94024e-01,0.0431125
-4.94016e-01,0.043475
-4.94008e-01,0.0440219
-4.94000e-01,0.0435344
-4.93992e-01,0.042025
-4.93984e-01,0.0431969
-4.93976e-01,0.0426375
-4.93968e-01,0.0433594
-4.93960e-01,0.0433
-4.93952e-01,0.0438219
-4.93944e-01,0.0436437
-4.93936e-01,0.0439437
-4.93928e-01,0.0433531
-4.93920e-01,0.0421531
-4.93912e-01,0.0425594
-4.93904e-01,0.0440656
-4.93896e-01,0.0435906
-4.93888e-01,0.0440781
-4.93880e-01,0.0430687
-4.93872e-01,0.0431625
-4.93864e-01,0.0414344
-4.93856e-01,0.0428469
-4.93848e-01,0.0441656
-4.93840e-01,0.0423125
-4.93832e-01,0.0434187
-4.93824e-01,0.0437125
-4.93816e-01,0.0428156
-4.93808e-01,0.0434156
-4.93800e-01,0.0426156
-4.93792e-01,0.0437125
-4.93784e-01,0.0425625
-4.93776e-01,0.0437
-4.93768e-01,0.0450094
-4.93760e-01,0.0433812
-4.93752e-01,0.043875
-4.93744e-01,0.0440875
-4.93736e-01,0.0434625
-4.93728e-01,0.042325
-4.93720e-01,0.0430156
-4.93712e-01,0.0440594
-4.93704e-01,0.0438375
-4.93696e-01,0.0433406
-4.93688e-01,0.04265
-4.93680e-01,0.0434
-4.93672e-01,0.04205
-4.93664e-01,0.0439562
-4.93656e-01,0.0437937
-4.93648e-01,0.0432531
-4.93640e-01,0.0436
-4.93632e-01,0.0433062
-4.93624e-01,0.0437719
-4.93616e-01,0.0437406
-4.93608e-01,0.0442562
-4.93600e-01,0.0436031
-4.93592e-01,0.0430781
-4.93584e-01,0.0438344
-4.93576e-01,0.0425906
-4.93568e-01,0.0428969
-4.93560e-01,0.0442531
-4.93552e-01,0.0430344
-4.93544e-01,0.0432719
-4.93536e-01,0.0431156
-4.93528e-01,0.0422219
-4.93520e-01,0.0433437
-4.93512e-01,0.0422187
-4.93504e-01,0.04485
-4.93496e-01,0.042725
-4.93488e-01,0.0445656
-4.93480e-01,0.0435094
-4.93472e-01,0.0435406
-4.93464e-01,0.0442219
-4.93456e-01,0.0431281
-4.93448e-01,0.0433094
-4.93440e-01,0.0435094
-4.93432e-01,0.0431625
-4.93424e-01,0.04305
-4.93416e-01,0.0437125
-4.93408e-01,0.0439969
-4.93400e-01,0.0430187
-4.93392e-01,0.0434406
-4.93384e-01,0.0448625
-4.93376e-01,0.0425844
-4.93368e-01,0.04325
-4.93360e-01,0.043325
-4.93352e-01,0.0434719
-4.93344e-01,0.04455
-4.93336e-01,0.0427125
-4.93328e-01,0.0439375
-4.93320e-01,0.0431656
-4.93312e-01,0.0433125
-4.93304e-01,0.0430156
-4.93296e-01,0.0435906
-4.93288e-01,0.0437656
-4.93280e-01,0.0432781
-4.93272e-01,0.0436062
-4.93264e-01,0.0443875
-4.93256e-01,0.04385
-4.93248e-01,0.0435906
-4.93240e-01,0.0435062
-4.93232e-01,0.0415781
-4.93224e-01,0.0444437
-4.93216e-01,0.0439344
-4.93208e-01,0.0435219
-4.93200e-01,0.0448594
-4.93192e-01,0.0425344
-4.93184e-01,0.0444094
-4.93176e-01,0.0424875
-4.93168e-01,0.0425719
-4.93160e-01,0.0441312
-4.93152e-01,0.04285
-4.93144e-01,0.0439
-4.93136e-01,0.043875
-4.93128e-01,0.0443406
-4.93120e-01,0.0428031
-4.93112e-01,0.042
-4.93104e-01,0.0435937
-4.93096e-01,0.0440469
-4.93088e-01,0.043625
-4.93080e-01,0.045125
-4.93072e-01,0.0442219
