Messung_Energiemessung_Harvester4/Harvester_20kmh_7kOhm.CSV

Model,MSO2024
Firmware Version,1.52

Point Format,Y
Horizontal Units,S
Horizontal Scale,0.04
Sample Interval,3.2e-06
Filter Frequency,2e+08
Record Length,125000
Gating,0.0% to 100.0%
Probe Attenuation,10
Vertical Units,V
Vertical Offset,0
Vertical Scale,0.2
Label,
TIME,CH3
-1.20000e-01,0.596531
-1.19997e-01,0.59825
-1.19994e-01,0.594656
-1.19990e-01,0.595625
-1.19987e-01,0.597406
-1.19984e-01,0.597406
-1.19981e-01,0.598281
-1.19978e-01,0.597406
-1.19974e-01,0.595625
-1.19971e-01,0.598281
-1.19968e-01,0.5975
-1.19965e-01,0.595656
-1.19962e-01,0.594781
-1.19958e-01,0.597406
-1.19955e-01,0.593781
-1.19952e-01,0.595656
-1.19949e-01,0.595656
-1.19946e-01,0.597406
-1.19942e-01,0.597406
-1.19939e-01,0.593781
-1.19936e-01,0.596406
-1.19933e-01,0.596531
-1.19930e-01,0.597281
-1.19926e-01,0.595531
-1.19923e-01,0.596531
-1.19920e-01,0.594781
-1.19917e-01,0.597406
-1.19914e-01,0.595656
-1.19910e-01,0.596531
-1.19907e-01,0.596531
-1.19904e-01,0.598281
-1.19901e-01,0.596531
-1.19898e-01,0.596406
-1.19894e-01,0.596531
-1.19891e-01,0.596531
-1.19888e-01,0.597406
-1.19885e-01,0.596531
-1.19882e-01,0.595531
-1.19878e-01,0.599156
-1.19875e-01,0.596531
-1.19872e-01,0.596375
-1.19869e-01,0.598281
-1.19866e-01,0.594781
-1.19862e-01,0.596531
-1.19859e-01,0.597406
-1.19856e-01,0.596531
-1.19853e-01,0.597406
-1.19850e-01,0.595656
-1.19846e-01,0.594656
-1.19843e-01,0.595625
-1.19840e-01,0.596531
-1.19837e-01,0.595625
-1.19834e-01,0.593875
-1.19830e-01,0.592875
-1.19827e-01,0.596531
-1.19824e-01,0.596406
-1.19821e-01,0.597406
-1.19818e-01,0.597406
-1.19814e-01,0.597406
-1.19811e-01,0.596531
-1.19808e-01,0.594781
-1.19805e-01,0.595656
-1.19802e-01,0.595656
-1.19798e-01,0.597281
-1.19795e-01,0.592875
-1.19792e-01,0.595625
-1.19789e-01,0.598281
-1.19786e-01,0.597375
-1.19782e-01,0.595531
-1.19779e-01,0.596531
-1.19776e-01,0.598281
-1.19773e-01,0.59825
-1.19770e-01,0.597406
-1.19766e-01,0.595656
-1.19763e-01,0.593875
-1.19760e-01,0.595531
-1.19757e-01,0.597406
-1.19754e-01,0.597406
-1.19750e-01,0.597406
-1.19747e-01,0.593781
-1.19744e-01,0.594656
-1.19741e-01,0.597406
-1.19738e-01,0.594656
-1.19734e-01,0.594625
-1.19731e-01,0.596531
-1.19728e-01,0.595531
-1.19725e-01,0.594656
-1.19722e-01,0.593
-1.19718e-01,0.593781
-1.19715e-01,0.594656
-1.19712e-01,0.594781
-1.19709e-01,0.595531
-1.19706e-01,0.596531
-1.19702e-01,0.59475
-1.19699e-01,0.596531
-1.19696e-01,0.596531
-1.19693e-01,0.594656
-1.19690e-01,0.595531
-1.19686e-01,0.595656
-1.19683e-01,0.595625
-1.19680e-01,0.59375
-1.19677e-01,0.596531
-1.19674e-01,0.596531
-1.19670e-01,0.594656
-1.19667e-01,0.594781
-1.19664e-01,0.596531
-1.19661e-01,0.597406
-1.19658e-01,0.595656
-1.19654e-01,0.593781
-1.19651e-01,0.596531
-1.19648e-01,0.596406
-1.19645e-01,0.595531
-1.19642e-01,0.597406
-1.19638e-01,0.595531
-1.19635e-01,0.593906
-1.19632e-01,0.597406
-1.19629e-01,0.596531
-1.19626e-01,0.598281
-1.19622e-01,0.595656
-1.19619e-01,0.596531
-1.19616e-01,0.595656
-1.19613e-01,0.594781
-1.19610e-01,0.59375
-1.19606e-01,0.594781
-1.19603e-01,0.596531
-1.19600e-01,0.598406
-1.19597e-01,0.595656
-1.19594e-01,0.593781
-1.19590e-01,0.594781
-1.19587e-01,0.594781
-1.19584e-01,0.594781
-1.19581e-01,0.594781
-1.19578e-01,0.595656
-1.19574e-01,0.594781
-1.19571e-01,0.593875
-1.19568e-01,0.595656
-1.19565e-01,0.598406
-1.19562e-01,0.593781
-1.19558e-01,0.595531
-1.19555e-01,0.593875
-1.19552e-01,0.593875
-1.19549e-01,0.595656
-1.19546e-01,0.595656
-1.19542e-01,0.596531
-1.19539e-01,0.594656
-1.19536e-01,0.594781
-1.19533e-01,0.5965
-1.19530e-01,0.593875
-1.19526e-01,0.595531
-1.19523e-01,0.598156
-1.19520e-01,0.595656
-1.19517e-01,0.594781
-1.19514e-01,0.596531
-1.19510e-01,0.594656
-1.19507e-01,0.595531
-1.19504e-01,0.597406
-1.19501e-01,0.595625
-1.19498e-01,0.593781
-1.19494e-01,0.595531
-1.19491e-01,0.594781
-1.19488e-01,0.594781
-1.19485e-01,0.595656
-1.19482e-01,0.597375
-1.19478e-01,0.595656
-1.19475e-01,0.594781
-1.19472e-01,0.592875
-1.19469e-01,0.597406
-1.19466e-01,0.59725
-1.19462e-01,0.594781
-1.19459e-01,0.594656
-1.19456e-01,0.594781
-1.19453e-01,0.597406
-1.19450e-01,0.594781
-1.19446e-01,0.595625
-1.19443e-01,0.595656
-1.19440e-01,0.595531
-1.19437e-01,0.595531
-1.19434e-01,0.594781
-1.19430e-01,0.595656
-1.19427e-01,0.594656
-1.19424e-01,0.594781
-1.19421e-01,0.597375
-1.19418e-01,0.594781
-1.19414e-01,0.596531
-1.19411e-01,0.594781
-1.19408e-01,0.594781
-1.19405e-01,0.595531
-1.19402e-01,0.597406
-1.19398e-01,0.596531
-1.19395e-01,0.596531
-1.19392e-01,0.596531
-1.19389e-01,0.593781
-1.19386e-01,0.594781
-1.19382e-01,0.593875
-1.19379e-01,0.595656
-1.19376e-01,0.592906
-1.19373e-01,0.594781
-1.19370e-01,0.596406
-1.19366e-01,0.595531
-1.19363e-01,0.595656
-1.19360e-01,0.594656
-1.19357e-01,0.594781
-1.19354e-01,0.595656
-1.19350e-01,0.596531
-1.19347e-01,0.592875
-1.19344e-01,0.599156
-1.19341e-01,0.595625
-1.19338e-01,0.594781
-1.19334e-01,0.597281
-1.19331e-01,0.597375
-1.19328e-01,0.597406
-1.19325e-01,0.595656
-1.19322e-01,0.595656
-1.19318e-01,0.595656
-1.19315e-01,0.595656
-1.19312e-01,0.594781
-1.19309e-01,0.593906
-1.19306e-01,0.594656
-1.19302e-01,0.596375
-1.19299e-01,0.596375
-1.19296e-01,0.597375
-1.19293e-01,0.596531
-1.19290e-01,0.593875
-1.19286e-01,0.594656
-1.19283e-01,0.597375
-1.19280e-01,0.595625
-1.19277e-01,0.595656
-1.19274e-01,0.596531
-1.19270e-01,0.594656
-1.19267e-01,0.595531
-1.19264e-01,0.593781
-1.19261e-01,0.594781
-1.19258e-01,0.594656
-1.19254e-01,0.596531
-1.19251e-01,0.594781
-1.19248e-01,0.595656
-1.19245e-01,0.596531
-1.19242e-01,0.595531
-1.19238e-01,0.597406
-1.19235e-01,0.594656
-1.19232e-01,0.593781
-1.19229e-01,0.592
-1.19226e-01,0.595656
-1.19222e-01,0.595656
-1.19219e-01,0.596531
-1.19216e-01,0.594656
-1.19213e-01,0.597406
-1.19210e-01,0.596625
-1.19206e-01,0.594656
-1.19203e-01,0.595531
-1.19200e-01,0.594625
-1.19197e-01,0.594656
-1.19194e-01,0.596531
-1.19190e-01,0.595531
-1.19187e-01,0.593875
-1.19184e-01,0.593875
-1.19181e-01,0.596531
-1.19178e-01,0.595656
-1.19174e-01,0.594781
-1.19171e-01,0.596531
-1.19168e-01,0.595656
-1.19165e-01,0.595656
-1.19162e-01,0.594656
-1.19158e-01,0.59475
-1.19155e-01,0.594625
-1.19152e-01,0.5965
-1.19149e-01,0.593875
-1.19146e-01,0.593
-1.19142e-01,0.596531
-1.19139e-01,0.594781
-1.19136e-01,0.594656
-1.19133e-01,0.593781
-1.19130e-01,0.595656
-1.19126e-01,0.594625
-1.19123e-01,0.594781
-1.19120e-01,0.593875
-1.19117e-01,0.596406
-1.19114e-01,0.594781
-1.19110e-01,0.596531
-1.19107e-01,0.595656
-1.19104e-01,0.59475
-1.19101e-01,0.595656
-1.19098e-01,0.596531
-1.19094e-01,0.596531
-1.19091e-01,0.595531
-1.19088e-01,0.593781
-1.19085e-01,0.594781
-1.19082e-01,0.592875
-1.19078e-01,0.593781
-1.19075e-01,0.595656
-1.19072e-01,0.594781
-1.19069e-01,0.592
-1.19066e-01,0.594781
-1.19062e-01,0.595656
-1.19059e-01,0.594781
-1.19056e-01,0.592875
-1.19053e-01,0.594625
-1.19050e-01,0.594656
-1.19046e-01,0.594781
-1.19043e-01,0.595656
-1.19040e-01,0.592875
-1.19037e-01,0.592875
-1.19034e-01,0.592875
-1.19030e-01,0.593781
-1.19027e-01,0.593781
-1.19024e-01,0.595656
-1.19021e-01,0.594781
-1.19018e-01,0.593875
-1.19014e-01,0.593781
-1.19011e-01,0.59475
-1.19008e-01,0.594781
-1.19005e-01,0.593781
-1.19002e-01,0.593781
-1.18998e-01,0.597406
-1.18995e-01,0.595531
-1.18992e-01,0.592875
-1.18989e-01,0.595656
-1.18986e-01,0.592156
-1.18982e-01,0.595656
-1.18979e-01,0.594781
-1.18976e-01,0.592
-1.18973e-01,0.593
-1.18970e-01,0.596531
-1.18966e-01,0.593875
-1.18963e-01,0.592875
-1.18960e-01,0.593781
-1.18957e-01,0.596531
-1.18954e-01,0.595656
-1.18950e-01,0.595656
-1.18947e-01,0.594781
-1.18944e-01,0.592906
-1.18941e-01,0.593781
-1.18938e-01,0.593875
-1.18934e-01,0.593781
-1.18931e-01,0.593875
-1.18928e-01,0.595656
-1.18925e-01,0.594781
-1.18922e-01,0.595531
-1.18918e-01,0.592
-1.18915e-01,0.593875
-1.18912e-01,0.594656
-1.18909e-01,0.593781
-1.18906e-01,0.592875
-1.18902e-01,0.594656
-1.18899e-01,0.594656
-1.18896e-01,0.592875
-1.18893e-01,0.593781
-1.18890e-01,0.595531
-1.18886e-01,0.59475
-1.18883e-01,0.59475
-1.18880e-01,0.594781
-1.18877e-01,0.593781
-1.18874e-01,0.593781
-1.18870e-01,0.593875
-1.18867e-01,0.594781
-1.18864e-01,0.592875
-1.18861e-01,0.595531
-1.18858e-01,0.591281
-1.18854e-01,0.595656
-1.18851e-01,0.593781
-1.18848e-01,0.595531
-1.18845e-01,0.594781
-1.18842e-01,0.593781
-1.18838e-01,0.595656
-1.18835e-01,0.596406
-1.18832e-01,0.593781
-1.18829e-01,0.592
-1.18826e-01,0.593
-1.18822e-01,0.59475
-1.18819e-01,0.593
-1.18816e-01,0.593781
-1.18813e-01,0.591125
-1.18810e-01,0.593875
-1.18806e-01,0.592
-1.18803e-01,0.594656
-1.18800e-01,0.593781
-1.18797e-01,0.593875
-1.18794e-01,0.595656
-1.18790e-01,0.594781
-1.18787e-01,0.592
-1.18784e-01,0.592
-1.18781e-01,0.593781
-1.18778e-01,0.593031
-1.18774e-01,0.592875
-1.18771e-01,0.594656
-1.18768e-01,0.594781
-1.18765e-01,0.595656
-1.18762e-01,0.594656
-1.18758e-01,0.591156
-1.18755e-01,0.592
-1.18752e-01,0.593875
-1.18749e-01,0.592875
-1.18746e-01,0.592
-1.18742e-01,0.594656
-1.18739e-01,0.595656
-1.18736e-01,0.593781
-1.18733e-01,0.595656
-1.18730e-01,0.593875
-1.18726e-01,0.594656
-1.18723e-01,0.590281
-1.18720e-01,0.594656
-1.18717e-01,0.593781
-1.18714e-01,0.591156
-1.18710e-01,0.594625
-1.18707e-01,0.594781
-1.18704e-01,0.593781
-1.18701e-01,0.592
-1.18698e-01,0.596531
-1.18694e-01,0.593781
-1.18691e-01,0.593906
-1.18688e-01,0.594656
-1.18685e-01,0.593781
-1.18682e-01,0.595531
-1.18678e-01,0.595531
-1.18675e-01,0.596531
-1.18672e-01,0.593781
-1.18669e-01,0.594656
-1.18666e-01,0.592
-1.18662e-01,0.593875
-1.18659e-01,0.593781
-1.18656e-01,0.593781
-1.18653e-01,0.594656
-1.18650e-01,0.594781
-1.18646e-01,0.593781
-1.18643e-01,0.592875
-1.18640e-01,0.592875
-1.18637e-01,0.594781
-1.18634e-01,0.593781
-1.18630e-01,0.59375
-1.18627e-01,0.593781
-1.18624e-01,0.596406
-1.18621e-01,0.592875
-1.18618e-01,0.592
-1.18614e-01,0.592156
-1.18611e-01,0.592
-1.18608e-01,0.595531
-1.18605e-01,0.593781
-1.18602e-01,0.593781
-1.18598e-01,0.593875
-1.18595e-01,0.592
-1.18592e-01,0.592
-1.18589e-01,0.593875
-1.18586e-01,0.594656
-1.18582e-01,0.594781
-1.18579e-01,0.592
-1.18576e-01,0.59375
-1.18573e-01,0.593781
-1.18570e-01,0.593781
-1.18566e-01,0.593781
-1.18563e-01,0.594656
-1.18560e-01,0.592875
-1.18557e-01,0.593875
-1.18554e-01,0.592906
-1.18550e-01,0.593031
-1.18547e-01,0.592
-1.18544e-01,0.593875
-1.18541e-01,0.593875
-1.18538e-01,0.59275
-1.18534e-01,0.592
-1.18531e-01,0.594656
-1.18528e-01,0.594781
-1.18525e-01,0.592156
-1.18522e-01,0.596531
-1.18518e-01,0.594781
-1.18515e-01,0.594656
-1.18512e-01,0.592
-1.18509e-01,0.591281
-1.18506e-01,0.595656
-1.18502e-01,0.595656
-1.18499e-01,0.592
-1.18496e-01,0.592
-1.18493e-01,0.593875
-1.18490e-01,0.594781
-1.18486e-01,0.592875
-1.18483e-01,0.592875
-1.18480e-01,0.594781
-1.18477e-01,0.592875
-1.18474e-01,0.593781
-1.18470e-01,0.593781
-1.18467e-01,0.592875
-1.18464e-01,0.592875
-1.18461e-01,0.591156
-1.18458e-01,0.593
-1.18454e-01,0.593781
-1.18451e-01,0.593781
-1.18448e-01,0.593875
-1.18445e-01,0.592875
-1.18442e-01,0.59475
-1.18438e-01,0.594781
-1.18435e-01,0.594656
-1.18432e-01,0.593875
-1.18429e-01,0.592875
-1.18426e-01,0.592156
-1.18422e-01,0.592
-1.18419e-01,0.593875
-1.18416e-01,0.594656
-1.18413e-01,0.596531
-1.18410e-01,0.593875
-1.18406e-01,0.591156
-1.18403e-01,0.592875
-1.18400e-01,0.593781
-1.18397e-01,0.594781
-1.18394e-01,0.594625
-1.18390e-01,0.594656
-1.18387e-01,0.593875
-1.18384e-01,0.595531
-1.18381e-01,0.592875
-1.18378e-01,0.592875
-1.18374e-01,0.592
-1.18371e-01,0.590281
-1.18368e-01,0.591
-1.18365e-01,0.594656
-1.18362e-01,0.592
-1.18358e-01,0.594656
-1.18355e-01,0.592
-1.18352e-01,0.592875
-1.18349e-01,0.592875
-1.18346e-01,0.592
-1.18342e-01,0.594781
-1.18339e-01,0.592875
-1.18336e-01,0.592875
-1.18333e-01,0.592156
-1.18330e-01,0.592
-1.18326e-01,0.590281
-1.18323e-01,0.592875
-1.18320e-01,0.593781
-1.18317e-01,0.593875
-1.18314e-01,0.594781
-1.18310e-01,0.594656
-1.18307e-01,0.592
-1.18304e-01,0.59375
-1.18301e-01,0.593875
-1.18298e-01,0.593875
-1.18294e-01,0.592
-1.18291e-01,0.592906
-1.18288e-01,0.593
-1.18285e-01,0.592156
-1.18282e-01,0.592
-1.18278e-01,0.592875
-1.18275e-01,0.593875
-1.18272e-01,0.595656
-1.18269e-01,0.592
-1.18266e-01,0.594625
-1.18262e-01,0.592875
-1.18259e-01,0.592156
-1.18256e-01,0.593781
-1.18253e-01,0.594656
-1.18250e-01,0.591156
-1.18246e-01,0.59475
-1.18243e-01,0.592
-1.18240e-01,0.594656
-1.18237e-01,0.593781
-1.18234e-01,0.593875
-1.18230e-01,0.592875
-1.18227e-01,0.591156
-1.18224e-01,0.593875
-1.18221e-01,0.591156
-1.18218e-01,0.592
-1.18214e-01,0.593
-1.18211e-01,0.593781
-1.18208e-01,0.592125
-1.18205e-01,0.592
-1.18202e-01,0.591156
-1.18198e-01,0.593781
-1.18195e-01,0.592
-1.18192e-01,0.594781
-1.18189e-01,0.593875
-1.18186e-01,0.592875
-1.18182e-01,0.592
-1.18179e-01,0.591125
-1.18176e-01,0.593
-1.18173e-01,0.591156
-1.18170e-01,0.594625
-1.18166e-01,0.592875
-1.18163e-01,0.592
-1.18160e-01,0.591125
-1.18157e-01,0.593875
-1.18154e-01,0.593
-1.18150e-01,0.592875
-1.18147e-01,0.595625
-1.18144e-01,0.594656
-1.18141e-01,0.591156
-1.18138e-01,0.591156
-1.18134e-01,0.592
-1.18131e-01,0.592
-1.18128e-01,0.591156
-1.18125e-01,0.592875
-1.18122e-01,0.592906
-1.18118e-01,0.591
-1.18115e-01,0.592875
-1.18112e-01,0.594656
-1.18109e-01,0.592875
-1.18106e-01,0.593
-1.18102e-01,0.595656
-1.18099e-01,0.593781
-1.18096e-01,0.592
-1.18093e-01,0.592
-1.18090e-01,0.593
-1.18086e-01,0.593
-1.18083e-01,0.592875
-1.18080e-01,0.593875
-1.18077e-01,0.593
-1.18074e-01,0.595656
-1.18070e-01,0.592
-1.18067e-01,0.592
-1.18064e-01,0.592
-1.18061e-01,0.594781
-1.18058e-01,0.595531
-1.18054e-01,0.592125
-1.18051e-01,0.592875
-1.18048e-01,0.592906
-1.18045e-01,0.592
-1.18042e-01,0.591156
-1.18038e-01,0.592875
-1.18035e-01,0.593781
-1.18032e-01,0.593781
-1.18029e-01,0.591156
-1.18026e-01,0.592
-1.18022e-01,0.592
-1.18019e-01,0.592875
-1.18016e-01,0.592
-1.18013e-01,0.590281
-1.18010e-01,0.592
-1.18006e-01,0.593875
-1.18003e-01,0.592
-1.18000e-01,0.591156
-1.17997e-01,0.590281
-1.17994e-01,0.593781
-1.17990e-01,0.592906
-1.17987e-01,0.592875
-1.17984e-01,0.592875
-1.17981e-01,0.592875
-1.17978e-01,0.592
-1.17974e-01,0.593
-1.17971e-01,0.591281
-1.17968e-01,0.59375
-1.17965e-01,0.592875
-1.17962e-01,0.592156
-1.17958e-01,0.592875
-1.17955e-01,0.591281
-1.17952e-01,0.592
-1.17949e-01,0.592875
-1.17946e-01,0.592
-1.17942e-01,0.590281
-1.17939e-01,0.592
-1.17936e-01,0.592
-1.17933e-01,0.594656
-1.17930e-01,0.592
-1.17926e-01,0.592156
-1.17923e-01,0.592156
-1.17920e-01,0.591156
-1.17917e-01,0.593781
-1.17914e-01,0.592875
-1.17910e-01,0.592875
-1.17907e-01,0.592875
-1.17904e-01,0.590281
-1.17901e-01,0.592
-1.17898e-01,0.589375
-1.17894e-01,0.593875
-1.17891e-01,0.589406
-1.17888e-01,0.592125
-1.17885e-01,0.591281
-1.17882e-01,0.592875
-1.17878e-01,0.592875
-1.17875e-01,0.593
-1.17872e-01,0.591125
-1.17869e-01,0.592
-1.17866e-01,0.593875
-1.17862e-01,0.592875
-1.17859e-01,0.59025
-1.17856e-01,0.592125
-1.17853e-01,0.591125
-1.17850e-01,0.591156
-1.17846e-01,0.593875
-1.17843e-01,0.592
-1.17840e-01,0.591125
-1.17837e-01,0.592875
-1.17834e-01,0.592156
-1.17830e-01,0.592156
-1.17827e-01,0.589406
-1.17824e-01,0.592875
-1.17821e-01,0.59125
-1.17818e-01,0.596531
-1.17814e-01,0.591125
-1.17811e-01,0.591031
-1.17808e-01,0.592875
-1.17805e-01,0.592
-1.17802e-01,0.591125
-1.17798e-01,0.595531
-1.17795e-01,0.593
-1.17792e-01,0.592
-1.17789e-01,0.592156
-1.17786e-01,0.590281
-1.17782e-01,0.592
-1.17779e-01,0.592
-1.17776e-01,0.590281
-1.17773e-01,0.592
-1.17770e-01,0.591156
-1.17766e-01,0.591156
-1.17763e-01,0.592125
-1.17760e-01,0.592875
-1.17757e-01,0.592
-1.17754e-01,0.591156
-1.17750e-01,0.591156
-1.17747e-01,0.593781
-1.17744e-01,0.593781
-1.17741e-01,0.592875
-1.17738e-01,0.591156
-1.17734e-01,0.590281
-1.17731e-01,0.591156
-1.17728e-01,0.591156
-1.17725e-01,0.593
-1.17722e-01,0.591125
-1.17718e-01,0.593
-1.17715e-01,0.592
-1.17712e-01,0.592
-1.17709e-01,0.592125
-1.17706e-01,0.592875
-1.17702e-01,0.591156
-1.17699e-01,0.592
-1.17696e-01,0.592125
-1.17693e-01,0.591125
-1.17690e-01,0.592
-1.17686e-01,0.594781
-1.17683e-01,0.593781
-1.17680e-01,0.589406
-1.17677e-01,0.591125
-1.17674e-01,0.591156
-1.17670e-01,0.592125
-1.17667e-01,0.589531
-1.17664e-01,0.592875
-1.17661e-01,0.592875
-1.17658e-01,0.59025
-1.17654e-01,0.591156
-1.17651e-01,0.593
-1.17648e-01,0.590281
-1.17645e-01,0.591156
-1.17642e-01,0.592875
-1.17638e-01,0.590281
-1.17635e-01,0.592906
-1.17632e-01,0.589406
-1.17629e-01,0.590281
-1.17626e-01,0.591156
-1.17622e-01,0.590281
-1.17619e-01,0.593
-1.17616e-01,0.592
-1.17613e-01,0.592156
-1.17610e-01,0.592156
-1.17606e-01,0.592
-1.17603e-01,0.589375
-1.17600e-01,0.592
-1.17597e-01,0.590281
-1.17594e-01,0.590281
-1.17590e-01,0.588531
-1.17587e-01,0.591125
-1.17584e-01,0.592125
-1.17581e-01,0.591125
-1.17578e-01,0.594781
-1.17574e-01,0.590281
-1.17571e-01,0.591156
-1.17568e-01,0.590281
-1.17565e-01,0.591156
-1.17562e-01,0.591125
-1.17558e-01,0.589375
-1.17555e-01,0.592
-1.17552e-01,0.592031
-1.17549e-01,0.592875
-1.17546e-01,0.591125
-1.17542e-01,0.589406
-1.17539e-01,0.592
-1.17536e-01,0.589406
-1.17533e-01,0.591156
-1.17530e-01,0.590156
-1.17526e-01,0.590281
-1.17523e-01,0.589406
-1.17520e-01,0.590281
-1.17517e-01,0.590281
-1.17514e-01,0.592
-1.17510e-01,0.591156
-1.17507e-01,0.592
-1.17504e-01,0.592
-1.17501e-01,0.593
-1.17498e-01,0.589406
-1.17494e-01,0.592
-1.17491e-01,0.592
-1.17488e-01,0.589406
-1.17485e-01,0.59025
-1.17482e-01,0.590281
-1.17478e-01,0.590281
-1.17475e-01,0.588531
-1.17472e-01,0.592
-1.17469e-01,0.589375
-1.17466e-01,0.589406
-1.17462e-01,0.590281
-1.17459e-01,0.592875
-1.17456e-01,0.592
-1.17453e-01,0.593781
-1.17450e-01,0.591125
-1.17446e-01,0.592156
-1.17443e-01,0.591156
-1.17440e-01,0.590281
-1.17437e-01,0.587656
-1.17434e-01,0.593
-1.17430e-01,0.592
-1.17427e-01,0.59025
-1.17424e-01,0.591156
-1.17421e-01,0.590281
-1.17418e-01,0.589406
-1.17414e-01,0.591156
-1.17411e-01,0.591125
-1.17408e-01,0.592
-1.17405e-01,0.591281
-1.17402e-01,0.589406
-1.17398e-01,0.590281
-1.17395e-01,0.591156
-1.17392e-01,0.591281
-1.17389e-01,0.593
-1.17386e-01,0.592156
-1.17382e-01,0.59125
-1.17379e-01,0.589406
-1.17376e-01,0.590281
-1.17373e-01,0.59025
-1.17370e-01,0.591156
-1.17366e-01,0.591156
-1.17363e-01,0.589375
-1.17360e-01,0.588406
-1.17357e-01,0.590281
-1.17354e-01,0.58925
-1.17350e-01,0.590281
-1.17347e-01,0.592
-1.17344e-01,0.591156
-1.17341e-01,0.59025
-1.17338e-01,0.591156
-1.17334e-01,0.589406
-1.17331e-01,0.592
-1.17328e-01,0.591156
-1.17325e-01,0.590281
-1.17322e-01,0.590281
-1.17318e-01,0.592
-1.17315e-01,0.591281
-1.17312e-01,0.591125
-1.17309e-01,0.592
-1.17306e-01,0.591156
-1.17302e-01,0.592
-1.17299e-01,0.589406
-1.17296e-01,0.592
-1.17293e-01,0.593
-1.17290e-01,0.591125
-1.17286e-01,0.589281
-1.17283e-01,0.590156
-1.17280e-01,0.592875
-1.17277e-01,0.589406
-1.17274e-01,0.591125
-1.17270e-01,0.592875
-1.17267e-01,0.591125
-1.17264e-01,0.589406
-1.17261e-01,0.592
-1.17258e-01,0.591125
-1.17254e-01,0.591125
-1.17251e-01,0.591156
-1.17248e-01,0.588406
-1.17245e-01,0.591125
-1.17242e-01,0.592
-1.17238e-01,0.590281
-1.17235e-01,0.592875
-1.17232e-01,0.589406
-1.17229e-01,0.591156
-1.17226e-01,0.591156
-1.17222e-01,0.591156
-1.17219e-01,0.591156
-1.17216e-01,0.592
-1.17213e-01,0.59025
-1.17210e-01,0.591156
-1.17206e-01,0.591156
-1.17203e-01,0.591281
-1.17200e-01,0.589281
-1.17197e-01,0.589406
-1.17194e-01,0.592875
-1.17190e-01,0.592
-1.17187e-01,0.591125
-1.17184e-01,0.589406
-1.17181e-01,0.59025
-1.17178e-01,0.590281
-1.17174e-01,0.590125
-1.17171e-01,0.591125
-1.17168e-01,0.588531
-1.17165e-01,0.591156
-1.17162e-01,0.589281
-1.17158e-01,0.590281
-1.17155e-01,0.589406
-1.17152e-01,0.590281
-1.17149e-01,0.590281
-1.17146e-01,0.59025
-1.17142e-01,0.590281
-1.17139e-01,0.591156
-1.17136e-01,0.587656
-1.17133e-01,0.591281
-1.17130e-01,0.589406
-1.17126e-01,0.592875
-1.17123e-01,0.590281
-1.17120e-01,0.589406
-1.17117e-01,0.589406
-1.17114e-01,0.590281
-1.17110e-01,0.588656
-1.17107e-01,0.591156
-1.17104e-01,0.592906
-1.17101e-01,0.590281
-1.17098e-01,0.590281
-1.17094e-01,0.590281
-1.17091e-01,0.590281
-1.17088e-01,0.590281
-1.17085e-01,0.589406
-1.17082e-01,0.593875
-1.17078e-01,0.588531
