CD-Dateien/Messprotokolle/Messung_Leistungskennlinie_versch_Harvester/Harvester_neu/10kmh/Harvester2_100Ohm.CSV

Model,MSO2024
Firmware Version,1.52

Point Format,Y
Horizontal Units,S
Horizontal Scale,0.1
Sample Interval,8e-06
Filter Frequency,2e+08
Record Length,125000
Gating,0.0% to 100.0%
Probe Attenuation,10
Vertical Units,V
Vertical Offset,0
Vertical Scale,0.02
Label,
TIME,CH1
-5.00000e-01,0.00228438
-4.99992e-01,0.0023125
-4.99984e-01,0.00270313
-4.99976e-01,0.0021375
-4.99968e-01,0.00205625
-4.99960e-01,0.00231563
-4.99952e-01,0.00244375
-4.99944e-01,0.0020375
-4.99936e-01,0.00135938
-4.99928e-01,0.001525
-4.99920e-01,0.00202188
-4.99912e-01,0.00241875
-4.99904e-01,0.00132188
-4.99896e-01,0.00226875
-4.99888e-01,0.002
-4.99880e-01,0.00146563
-4.99872e-01,0.00110313
-4.99864e-01,0.0010625
-4.99856e-01,0.000871876
-4.99848e-01,0.002675
-4.99840e-01,0.0027
-4.99832e-01,0.00126875
-4.99824e-01,0.0016125
-4.99816e-01,0.0018875
-4.99808e-01,0.00194375
-4.99800e-01,0.00251875
-4.99792e-01,0.00109063
-4.99784e-01,0.00111563
-4.99776e-01,0.000878126
-4.99768e-01,0.00195938
-4.99760e-01,0.00193125
-4.99752e-01,0.0022875
-4.99744e-01,0.001725
-4.99736e-01,0.00304063
-4.99728e-01,0.00128125
-4.99720e-01,0.00189375
-4.99712e-01,0.000778126
-4.99704e-01,0.0010375
-4.99696e-01,0.00174688
-4.99688e-01,0.00155313
-4.99680e-01,0.00109688
-4.99672e-01,0.00129375
-4.99664e-01,0.00235938
-4.99656e-01,0.00267188
-4.99648e-01,0.00206875
-4.99640e-01,0.0020375
-4.99632e-01,0.00177813
-4.99624e-01,0.00165625
-4.99616e-01,0.00249688
-4.99608e-01,0.00172188
-4.99600e-01,0.00210313
-4.99592e-01,0.0020875
-4.99584e-01,0.0011875
-4.99576e-01,0.0019625
-4.99568e-01,0.00142188
-4.99560e-01,0.00179375
-4.99552e-01,0.00145
-4.99544e-01,0.00155625
-4.99536e-01,0.00122188
-4.99528e-01,0.00186563
-4.99520e-01,0.0021375
-4.99512e-01,0.00281875
-4.99504e-01,0.00171875
-4.99496e-01,0.00191563
-4.99488e-01,0.00287813
-4.99480e-01,0.00271563
-4.99472e-01,0.0021375
-4.99464e-01,0.00163125
-4.99456e-01,0.00220938
-4.99448e-01,0.00257188
-4.99440e-01,0.0026625
-4.99432e-01,0.00200625
-4.99424e-01,0.001875
-4.99416e-01,0.00160938
-4.99408e-01,0.00177813
-4.99400e-01,0.0027375
-4.99392e-01,0.00157813
-4.99384e-01,0.00196563
-4.99376e-01,0.00169375
-4.99368e-01,0.00245313
-4.99360e-01,0.00235625
-4.99352e-01,0.00111875
-4.99344e-01,0.00144375
-4.99336e-01,0.001125
-4.99328e-01,0.002775
-4.99320e-01,0.00167188
-4.99312e-01,0.0015125
-4.99304e-01,0.00218125
-4.99296e-01,0.00181563
-4.99288e-01,0.0018375
-4.99280e-01,0.0020375
-4.99272e-01,0.00184688
-4.99264e-01,0.0019625
-4.99256e-01,0.00167188
-4.99248e-01,0.00205938
-4.99240e-01,0.00163438
-4.99232e-01,0.00203438
-4.99224e-01,0.00147188
-4.99216e-01,0.000956251
-4.99208e-01,0.00143438
-4.99200e-01,0.00294063
-4.99192e-01,0.00110625
-4.99184e-01,-9.37492e-05
-4.99176e-01,0.00211875
-4.99168e-01,0.00244375
-4.99160e-01,0.001125
-4.99152e-01,0.00195938
-4.99144e-01,0.00188438
-4.99136e-01,0.00206563
-4.99128e-01,0.00205313
-4.99120e-01,0.00200625
-4.99112e-01,0.00149375
-4.99104e-01,0.00129688
-4.99096e-01,0.00135
-4.99088e-01,0.0013
-4.99080e-01,0.00119063
-4.99072e-01,0.00235
-4.99064e-01,0.00212188
-4.99056e-01,0.00129688
-4.99048e-01,0.0021625
-4.99040e-01,0.001475
-4.99032e-01,0.00275625
-4.99024e-01,0.000825001
-4.99016e-01,0.00179375
-4.99008e-01,0.000987501
-4.99000e-01,0.00188438
-4.98992e-01,0.00161875
-4.98984e-01,0.00135
-4.98976e-01,0.00134063
-4.98968e-01,0.00178438
-4.98960e-01,0.00192188
-4.98952e-01,0.000771876
-4.98944e-01,0.00130625
-4.98936e-01,0.00181875
-4.98928e-01,0.001675
-4.98920e-01,0.00198438
-4.98912e-01,0.00126563
-4.98904e-01,0.00222813
-4.98896e-01,0.00280938
-4.98888e-01,0.001225
-4.98880e-01,0.00244063
-4.98872e-01,0.001925
-4.98864e-01,0.00140625
-4.98856e-01,0.001525
-4.98848e-01,0.00197188
-4.98840e-01,0.00176563
-4.98832e-01,0.00262813
-4.98824e-01,0.00251563
-4.98816e-01,0.00175938
-4.98808e-01,0.00188438
-4.98800e-01,0.00248438
-4.98792e-01,0.00264375
-4.98784e-01,0.0019625
-4.98776e-01,0.00197813
-4.98768e-01,0.0013375
-4.98760e-01,0.00275
-4.98752e-01,0.00249063
-4.98744e-01,0.0021
-4.98736e-01,0.00207813
-4.98728e-01,0.00270938
-4.98720e-01,0.00110938
-4.98712e-01,0.00191563
-4.98704e-01,0.00155
-4.98696e-01,0.00145938
-4.98688e-01,0.00200938
-4.98680e-01,0.0010625
-4.98672e-01,0.00165
-4.98664e-01,0.00171563
-4.98656e-01,0.00140938
-4.98648e-01,0.0031125
-4.98640e-01,0.00305938
-4.98632e-01,0.00221563
-4.98624e-01,0.00240938
-4.98616e-01,0.00215938
-4.98608e-01,0.00139063
-4.98600e-01,0.00253125
-4.98592e-01,0.00167813
-4.98584e-01,0.00164063
-4.98576e-01,0.00264375
-4.98568e-01,0.00206563
-4.98560e-01,0.00149688
-4.98552e-01,0.00254688
-4.98544e-01,0.00259688
-4.98536e-01,0.00185
-4.98528e-01,0.000593751
-4.98520e-01,0.001975
-4.98512e-01,0.00240938
-4.98504e-01,0.00227813
-4.98496e-01,0.00171875
-4.98488e-01,0.00105313
-4.98480e-01,0.00194688
-4.98472e-01,0.000556251
-4.98464e-01,0.00173125
-4.98456e-01,0.00163438
-4.98448e-01,0.00179688
-4.98440e-01,0.002
-4.98432e-01,0.00252188
-4.98424e-01,0.0013875
-4.98416e-01,0.00213125
-4.98408e-01,0.00159063
-4.98400e-01,0.001125
-4.98392e-01,0.00137188
-4.98384e-01,0.00179063
-4.98376e-01,0.00124688
-4.98368e-01,0.0013
-4.98360e-01,0.00237813
-4.98352e-01,0.00215
-4.98344e-01,0.0010125
-4.98336e-01,0.00257813
-4.98328e-01,0.00215625
-4.98320e-01,0.000834376
-4.98312e-01,0.000787501
-4.98304e-01,0.00215938
-4.98296e-01,0.000703126
-4.98288e-01,0.00225
-4.98280e-01,0.00171563
-4.98272e-01,0.00222813
-4.98264e-01,0.00125
-4.98256e-01,0.00182188
-4.98248e-01,0.00170313
-4.98240e-01,0.00147813
-4.98232e-01,0.00189063
-4.98224e-01,0.0029375
-4.98216e-01,0.00221875
-4.98208e-01,0.00175625
-4.98200e-01,0.00242813
-4.98192e-01,0.00174063
-4.98184e-01,0.00169688
-4.98176e-01,0.0021
-4.98168e-01,0.0019
-4.98160e-01,0.00270938
-4.98152e-01,0.00266563
-4.98144e-01,0.00149688
-4.98136e-01,0.00170625
-4.98128e-01,0.00187813
-4.98120e-01,0.00146563
-4.98112e-01,0.000650001
-4.98104e-01,0.00147188
-4.98096e-01,0.0028125
-4.98088e-01,0.00249063
-4.98080e-01,0.00189375
-4.98072e-01,0.00342188
-4.98064e-01,0.002025
-4.98056e-01,0.00164688
-4.98048e-01,0.00195625
-4.98040e-01,0.00192813
-4.98032e-01,0.00179375
-4.98024e-01,0.00169375
-4.98016e-01,0.00119063
-4.98008e-01,0.00110625
-4.98000e-01,0.00145313
-4.97992e-01,0.00155313
-4.97984e-01,0.0014375
-4.97976e-01,0.00308125
-4.97968e-01,0.00235625
-4.97960e-01,0.00140625
-4.97952e-01,0.00268438
-4.97944e-01,0.00212188
-4.97936e-01,0.00165313
-4.97928e-01,0.001125
-4.97920e-01,0.00195
-4.97912e-01,0.00145625
-4.97904e-01,0.00134063
-4.97896e-01,0.00260625
-4.97888e-01,0.00216875
-4.97880e-01,0.00211875
-4.97872e-01,0.00189063
-4.97864e-01,0.00255938
-4.97856e-01,0.00150938
-4.97848e-01,0.00269063
-4.97840e-01,0.00216875
-4.97832e-01,0.00123438
-4.97824e-01,0.00131563
-4.97816e-01,0.00225625
-4.97808e-01,0.00255938
-4.97800e-01,0.0027375
-4.97792e-01,0.001825
-4.97784e-01,0.00188438
-4.97776e-01,0.00214063
-4.97768e-01,0.00188125
-4.97760e-01,0.000603126
-4.97752e-01,0.001125
-4.97744e-01,0.00145
-4.97736e-01,0.00218438
-4.97728e-01,0.00231875
-4.97720e-01,0.00187188
-4.97712e-01,0.00115625
-4.97704e-01,0.00165938
-4.97696e-01,0.00248438
-4.97688e-01,0.00188438
-4.97680e-01,0.000612501
-4.97672e-01,0.00165625
-4.97664e-01,0.002375
-4.97656e-01,0.00194063
-4.97648e-01,0.00179063
-4.97640e-01,0.00215938
-4.97632e-01,0.00286875
-4.97624e-01,0.0015375
-4.97616e-01,0.00119063
-4.97608e-01,0.00265
-4.97600e-01,0.00233125
-4.97592e-01,0.00249375
-4.97584e-01,0.0016
-4.97576e-01,0.00230938
-4.97568e-01,0.00159688
-4.97560e-01,0.00164688
-4.97552e-01,0.0020125
-4.97544e-01,0.00139688
-4.97536e-01,0.00145
-4.97528e-01,0.00126875
-4.97520e-01,0.000731251
-4.97512e-01,0.00152813
-4.97504e-01,0.00182188
-4.97496e-01,0.000725001
-4.97488e-01,0.00226875
-4.97480e-01,0.00141875
-4.97472e-01,0.00198438
-4.97464e-01,0.00250313
-4.97456e-01,0.0012875
-4.97448e-01,0.00237188
-4.97440e-01,0.0022625
-4.97432e-01,0.001825
-4.97424e-01,0.00207188
-4.97416e-01,0.00148438
-4.97408e-01,0.00183438
-4.97400e-01,0.00172188
-4.97392e-01,0.00212188
-4.97384e-01,0.0015
-4.97376e-01,0.00154375
-4.97368e-01,0.00190938
-4.97360e-01,0.0011875
-4.97352e-01,0.0014875
-4.97344e-01,0.00130625
-4.97336e-01,0.00221875
-4.97328e-01,0.00131563
-4.97320e-01,0.00275313
-4.97312e-01,0.00176875
-4.97304e-01,0.000262501
-4.97296e-01,0.000337501
-4.97288e-01,0.00205938
-4.97280e-01,0.00213125
-4.97272e-01,0.00204375
-4.97264e-01,0.0014875
-4.97256e-01,0.00209375
-4.97248e-01,0.00140313
-4.97240e-01,0.002575
-4.97232e-01,0.00224688
-4.97224e-01,0.00134063
-4.97216e-01,0.00118125
-4.97208e-01,0.00305
-4.97200e-01,0.00194375
-4.97192e-01,0.00197188
-4.97184e-01,0.00190625
-4.97176e-01,0.0018875
-4.97168e-01,0.0014
-4.97160e-01,0.00175313
-4.97152e-01,0.00148125
-4.97144e-01,0.00188125
-4.97136e-01,0.00201563
-4.97128e-01,0.002175
-4.97120e-01,0.00117188
-4.97112e-01,0.00154688
-4.97104e-01,0.00125938
-4.97096e-01,0.000746876
-4.97088e-01,0.000937501
-4.97080e-01,0.00225625
-4.97072e-01,0.0019375
-4.97064e-01,0.00202188
-4.97056e-01,0.00264375
-4.97048e-01,0.00188125
-4.97040e-01,0.00225313
-4.97032e-01,0.00238438
-4.97024e-01,0.00243125
-4.97016e-01,0.00281875
-4.97008e-01,0.0018375
-4.97000e-01,0.00255938
-4.96992e-01,0.00268438
-4.96984e-01,0.00120625
-4.96976e-01,0.00144375
-4.96968e-01,0.00151563
-4.96960e-01,0.00310938
-4.96952e-01,0.0023875
-4.96944e-01,0.00175313
-4.96936e-01,0.00334688
-4.96928e-01,0.00254063
-4.96920e-01,0.00125313
-4.96912e-01,0.00179063
-4.96904e-01,0.00264688
-4.96896e-01,0.00225938
-4.96888e-01,0.00193125
-4.96880e-01,0.00122188
-4.96872e-01,0.0018125
-4.96864e-01,0.00136875
-4.96856e-01,0.001925
-4.96848e-01,0.0016875
-4.96840e-01,0.00161563
-4.96832e-01,0.00198125
-4.96824e-01,0.00164375
-4.96816e-01,0.00209688
-4.96808e-01,0.00170938
-4.96800e-01,0.00292813
-4.96792e-01,0.00225938
-4.96784e-01,0.00220313
-4.96776e-01,0.0019875
-4.96768e-01,0.00198438
-4.96760e-01,0.00168438
-4.96752e-01,0.0025125
-4.96744e-01,0.00199063
-4.96736e-01,0.002525
-4.96728e-01,0.00146875
-4.96720e-01,0.00162813
-4.96712e-01,0.00153438
-4.96704e-01,0.00118438
-4.96696e-01,0.00105625
-4.96688e-01,0.00120625
-4.96680e-01,0.0018125
-4.96672e-01,0.00229375
-4.96664e-01,0.00174688
-4.96656e-01,0.00216875
-4.96648e-01,0.00187188
-4.96640e-01,0.00173125
-4.96632e-01,0.00140313
-4.96624e-01,0.00270313
-4.96616e-01,0.002
-4.96608e-01,0.00127813
-4.96600e-01,0.00202813
-4.96592e-01,0.0020625
-4.96584e-01,0.00129688
-4.96576e-01,0.00130313
-4.96568e-01,0.00172813
-4.96560e-01,0.00166563
-4.96552e-01,0.0018875
-4.96544e-01,0.00174063
-4.96536e-01,0.00168125
-4.96528e-01,0.00132813
-4.96520e-01,0.00183438
-4.96512e-01,0.00210313
-4.96504e-01,0.00127813
-4.96496e-01,0.00253125
-4.96488e-01,0.00268125
-4.96480e-01,0.0014875
-4.96472e-01,0.000643751
-4.96464e-01,0.00170938
-4.96456e-01,0.00130625
-4.96448e-01,0.00139375
-4.96440e-01,0.000987501
-4.96432e-01,0.0016625
-4.96424e-01,0.00171563
-4.96416e-01,0.00246563
-4.96408e-01,0.00173438
-4.96400e-01,0.00189688
-4.96392e-01,0.0028
-4.96384e-01,0.00242188
-4.96376e-01,0.00255625
-4.96368e-01,0.00155
-4.96360e-01,0.001075
-4.96352e-01,0.00185313
-4.96344e-01,0.00164688
-4.96336e-01,0.00181563
-4.96328e-01,0.00214375
-4.96320e-01,0.00180938
-4.96312e-01,0.00183125
-4.96304e-01,0.00135313
-4.96296e-01,0.00122188
-4.96288e-01,0.00270625
-4.96280e-01,0.000581251
-4.96272e-01,0.002525
-4.96264e-01,0.00270313
-4.96256e-01,0.00204688
-4.96248e-01,0.000821876
-4.96240e-01,0.00275625
-4.96232e-01,0.00134375
-4.96224e-01,0.00170625
-4.96216e-01,0.00169063
-4.96208e-01,0.00173438
-4.96200e-01,0.00217188
-4.96192e-01,0.00140313
-4.96184e-01,0.00189688
-4.96176e-01,0.00192813
-4.96168e-01,0.00210938
-4.96160e-01,0.00117813
-4.96152e-01,0.00172813
-4.96144e-01,0.0028125
-4.96136e-01,0.00185625
-4.96128e-01,0.00241875
-4.96120e-01,0.0027875
-4.96112e-01,0.00187188
-4.96104e-01,0.0023875
-4.96096e-01,0.00166875
-4.96088e-01,0.0018875
-4.96080e-01,0.000743751
-4.96072e-01,0.00276875
-4.96064e-01,0.0019625
-4.96056e-01,0.00227188
-4.96048e-01,0.0012375
-4.96040e-01,0.00177188
-4.96032e-01,0.0029
-4.96024e-01,0.00192813
-4.96016e-01,0.00141875
-4.96008e-01,0.0023875
-4.96000e-01,0.00245313
-4.95992e-01,0.000440626
-4.95984e-01,0.00244688
-4.95976e-01,0.000821876
-4.95968e-01,0.000909376
-4.95960e-01,0.00221563
-4.95952e-01,0.00203438
-4.95944e-01,0.000962501
-4.95936e-01,0.0025
-4.95928e-01,0.00153125
-4.95920e-01,0.00300625
-4.95912e-01,0.003425
-4.95904e-01,0.00212813
-4.95896e-01,0.00109688
-4.95888e-01,0.00234688
-4.95880e-01,0.00160625
-4.95872e-01,0.00121875
-4.95864e-01,0.00150313
-4.95856e-01,0.000543751
-4.95848e-01,0.0015625
-4.95840e-01,0.00167188
-4.95832e-01,0.000890626
-4.95824e-01,0.00224688
-4.95816e-01,0.00246875
-4.95808e-01,0.00197813
-4.95800e-01,0.00296563
-4.95792e-01,0.00151875
-4.95784e-01,0.00164063
-4.95776e-01,0.00230313
-4.95768e-01,0.00169688
-4.95760e-01,0.001625
-4.95752e-01,0.00185
-4.95744e-01,0.0016375
-4.95736e-01,0.00134063
-4.95728e-01,0.00204063
-4.95720e-01,0.00126563
-4.95712e-01,0.00280625
-4.95704e-01,0.00176563
-4.95696e-01,0.00154063
-4.95688e-01,0.00148125
-4.95680e-01,0.00145
-4.95672e-01,0.00153125
-4.95664e-01,0.00280313
-4.95656e-01,0.000990626
-4.95648e-01,0.000818751
-4.95640e-01,0.00222813
-4.95632e-01,0.00203125
-4.95624e-01,0.001675
-4.95616e-01,0.00203438
-4.95608e-01,0.00124063
-4.95600e-01,0.00184063
-4.95592e-01,0.00178438
-4.95584e-01,0.00194688
-4.95576e-01,0.00243125
-4.95568e-01,0.002875
-4.95560e-01,0.00251875
-4.95552e-01,0.00195313
-4.95544e-01,0.00150625
-4.95536e-01,0.0013
-4.95528e-01,0.00131563
-4.95520e-01,0.00225
-4.95512e-01,0.0029125
-4.95504e-01,0.0023625
-4.95496e-01,0.00186875
-4.95488e-01,0.00265938
-4.95480e-01,0.00129375
-4.95472e-01,0.00114063
-4.95464e-01,0.00111875
-4.95456e-01,0.00134688
-4.95448e-01,0.00121875
-4.95440e-01,0.00170938
-4.95432e-01,0.00207188
-4.95424e-01,0.00150938
-4.95416e-01,0.00266875
-4.95408e-01,0.0015375
-4.95400e-01,0.00253125
-4.95392e-01,0.000990626
-4.95384e-01,0.0023
-4.95376e-01,0.0013625
-4.95368e-01,0.000806251
-4.95360e-01,0.00284063
-4.95352e-01,0.00220938
-4.95344e-01,0.00199688
-4.95336e-01,0.000856251
-4.95328e-01,0.00259688
-4.95320e-01,0.00299688
-4.95312e-01,0.000693751
-4.95304e-01,0.00265313
-4.95296e-01,0.00205938
-4.95288e-01,0.00182813
-4.95280e-01,0.00185313
-4.95272e-01,0.00172813
-4.95264e-01,0.00209063
-4.95256e-01,0.00129375
-4.95248e-01,0.000921876
-4.95240e-01,0.0018
-4.95232e-01,0.00184375
-4.95224e-01,0.00191563
-4.95216e-01,0.00286563
-4.95208e-01,0.00106563
-4.95200e-01,0.00209375
-4.95192e-01,0.00183125
-4.95184e-01,0.00185313
-4.95176e-01,0.00173125
-4.95168e-01,0.0014375
-4.95160e-01,0.00169375
-4.95152e-01,0.00265938
-4.95144e-01,0.00115
-4.95136e-01,0.00181563
-4.95128e-01,0.00140625
-4.95120e-01,0.00224688
-4.95112e-01,0.0023625
-4.95104e-01,0.00184688
-4.95096e-01,0.00207188
-4.95088e-01,0.00334375
-4.95080e-01,0.00257188
-4.95072e-01,0.00233438
-4.95064e-01,0.00279688
-4.95056e-01,0.001125
-4.95048e-01,0.00119688
-4.95040e-01,0.00243438
-4.95032e-01,0.00174375
-4.95024e-01,0.00198125
-4.95016e-01,0.00163438
-4.95008e-01,0.0015625
-4.95000e-01,0.0019625
-4.94992e-01,0.00265938
-4.94984e-01,0.00209688
-4.94976e-01,0.00250313
-4.94968e-01,0.000912501
-4.94960e-01,0.00193438
-4.94952e-01,0.00162188
-4.94944e-01,0.00119688
-4.94936e-01,0.0016625
-4.94928e-01,0.00300313
-4.94920e-01,0.000937501
-4.94912e-01,0.00151875
-4.94904e-01,0.00205313
-4.94896e-01,0.00109375
-4.94888e-01,0.0018
-4.94880e-01,0.00224688
-4.94872e-01,0.003
-4.94864e-01,0.00184375
-4.94856e-01,0.00158125
-4.94848e-01,0.00137188
-4.94840e-01,0.00151563
-4.94832e-01,0.00215625
-4.94824e-01,0.001825
-4.94816e-01,0.002275
-4.94808e-01,0.00202813
-4.94800e-01,0.0021625
-4.94792e-01,0.0019625
-4.94784e-01,0.0025625
-4.94776e-01,0.00118438
-4.94768e-01,0.00283125
-4.94760e-01,0.0028875
-4.94752e-01,0.00166563
-4.94744e-01,0.00162813
-4.94736e-01,0.0024
-4.94728e-01,0.00198438
-4.94720e-01,0.00117813
-4.94712e-01,0.00239688
-4.94704e-01,0.0013375
-4.94696e-01,0.00224375
-4.94688e-01,0.0014875
-4.94680e-01,0.00208438
-4.94672e-01,0.000868751
-4.94664e-01,0.002525
-4.94656e-01,0.00175938
-4.94648e-01,0.00105313
-4.94640e-01,0.00155938
-4.94632e-01,0.001525
-4.94624e-01,0.001925
-4.94616e-01,0.00223438
-4.94608e-01,0.00190625
-4.94600e-01,0.0015625
-4.94592e-01,0.00100625
-4.94584e-01,0.000762501
-4.94576e-01,0.00165938
-4.94568e-01,0.00163125
-4.94560e-01,0.00239063
-4.94552e-01,0.00157188
-4.94544e-01,0.00210313
-4.94536e-01,0.00142813
-4.94528e-01,0.00173125
-4.94520e-01,0.0027
-4.94512e-01,0.001025
-4.94504e-01,0.000815626
-4.94496e-01,0.002275
-4.94488e-01,0.00163438
-4.94480e-01,0.00247813
-4.94472e-01,0.00186563
-4.94464e-01,0.000881251
-4.94456e-01,0.000609376
-4.94448e-01,0.00192813
-4.94440e-01,0.00216563
-4.94432e-01,0.00205938
-4.94424e-01,0.0014
-4.94416e-01,0.0025
-4.94408e-01,0.000756251
-4.94400e-01,0.00125313
-4.94392e-01,0.0016625
-4.94384e-01,0.00161875
-4.94376e-01,0.000781251
-4.94368e-01,0.000931251
-4.94360e-01,0.00204688
-4.94352e-01,0.0015125
-4.94344e-01,0.000990626
-4.94336e-01,0.00163125
-4.94328e-01,0.00164688
-4.94320e-01,0.00130938
-4.94312e-01,0.000434376
-4.94304e-01,0.00206563
-4.94296e-01,0.00108438
-4.94288e-01,0.00155313
-4.94280e-01,0.00183125
-4.94272e-01,0.00188125
-4.94264e-01,0.00136875
-4.94256e-01,0.00218438
-4.94248e-01,0.00211563
-4.94240e-01,0.000981251
-4.94232e-01,0.0018625
-4.94224e-01,0.000959376
-4.94216e-01,0.00223438
-4.94208e-01,0.00156563
-4.94200e-01,0.00288125
-4.94192e-01,0.00284688
-4.94184e-01,0.00168438
-4.94176e-01,0.00198125
-4.94168e-01,0.00195
-4.94160e-01,0.00177813
-4.94152e-01,0.00228438
-4.94144e-01,0.002075
-4.94136e-01,0.00180313
-4.94128e-01,0.001325
-4.94120e-01,0.00166875
-4.94112e-01,0.00237188
-4.94104e-01,0.003125
-4.94096e-01,0.00150938
-4.94088e-01,0.00148438
-4.94080e-01,0.0016625
-4.94072e-01,0.00227188
-4.94064e-01,0.00215313
-4.94056e-01,0.001025
-4.94048e-01,0.00294688
-4.94040e-01,0.00181563
-4.94032e-01,0.00179375
-4.94024e-01,0.00250625
-4.94016e-01,0.00127188
-4.94008e-01,0.003125
-4.94000e-01,0.00170938
-4.93992e-01,0.00166875
-4.93984e-01,0.00155625
-4.93976e-01,0.001425
-4.93968e-01,0.0017625
-4.93960e-01,0.00225938
-4.93952e-01,0.00212188
-4.93944e-01,0.00303438
-4.93936e-01,0.002225
-4.93928e-01,0.00170938
-4.93920e-01,0.00196563
-4.93912e-01,0.00146563
-4.93904e-01,0.00178438
-4.93896e-01,0.00118438
-4.93888e-01,0.00177813
-4.93880e-01,0.00214063
-4.93872e-01,0.00116875
-4.93864e-01,0.00123125
-4.93856e-01,0.0024875
-4.93848e-01,0.00169063
-4.93840e-01,0.0014125
-4.93832e-01,0.0023875
-4.93824e-01,0.00175313
-4.93816e-01,0.00220313
-4.93808e-01,0.001725
-4.93800e-01,0.00158438
-4.93792e-01,0.00195938
-4.93784e-01,0.002
-4.93776e-01,0.00212188
-4.93768e-01,0.00176563
-4.93760e-01,0.0029375
-4.93752e-01,0.000700001
-4.93744e-01,0.00275938
-4.93736e-01,0.00204688
-4.93728e-01,0.00125938
-4.93720e-01,0.00235313
-4.93712e-01,0.00146563
-4.93704e-01,0.00179688
-4.93696e-01,0.00295313
-4.93688e-01,0.0021375
-4.93680e-01,0.00159063
-4.93672e-01,0.00154375
-4.93664e-01,0.00227188
-4.93656e-01,0.00301563
-4.93648e-01,0.00189375
-4.93640e-01,0.000937501
-4.93632e-01,0.00249063
-4.93624e-01,0.00132188
-4.93616e-01,0.00174063
-4.93608e-01,0.00167813
-4.93600e-01,0.000975001
-4.93592e-01,0.00303438
-4.93584e-01,0.00134688
-4.93576e-01,0.00145625
-4.93568e-01,0.00210313
-4.93560e-01,0.00186563
-4.93552e-01,0.00146563
-4.93544e-01,0.001975
-4.93536e-01,0.0012625
-4.93528e-01,0.00172813
-4.93520e-01,0.00268438
-4.93512e-01,0.00102188
-4.93504e-01,0.00205313
-4.93496e-01,0.0029625
-4.93488e-01,0.00125625
-4.93480e-01,0.0012
-4.93472e-01,0.00139063
-4.93464e-01,0.00153438
-4.93456e-01,0.00273125
-4.93448e-01,0.00180938
-4.93440e-01,0.00192188
-4.93432e-01,0.00231875
-4.93424e-01,0.00204688
-4.93416e-01,0.00185
-4.93408e-01,0.00189688
-4.93400e-01,0.001725
-4.93392e-01,0.00229063
-4.93384e-01,0.00119375
-4.93376e-01,0.00234688
-4.93368e-01,0.00108438
-4.93360e-01,0.000903126
-4.93352e-01,0.00199063
-4.93344e-01,0.00104063
-4.93336e-01,0.0022125
