CD-Dateien/Messprotokolle/Messung_Leistungskennlinie_versch_Harvester/Harvester_neu/10kmh/Harvester2_100kOhm.CSV

Model,MSO2024
Firmware Version,1.52

Point Format,Y
Horizontal Units,S
Horizontal Scale,0.1
Sample Interval,8e-06
Filter Frequency,2e+08
Record Length,125000
Gating,0.0% to 100.0%
Probe Attenuation,10
Vertical Units,V
Vertical Offset,0
Vertical Scale,0.02
Label,
TIME,CH1
-5.00000e-01,0.0520625
-4.99992e-01,0.05055
-4.99984e-01,0.0479406
-4.99976e-01,0.0524
-4.99968e-01,0.050825
-4.99960e-01,0.0513781
-4.99952e-01,0.050025
-4.99944e-01,0.0511969
-4.99936e-01,0.0499937
-4.99928e-01,0.0504281
-4.99920e-01,0.0505687
-4.99912e-01,0.0507281
-4.99904e-01,0.0516969
-4.99896e-01,0.0502906
-4.99888e-01,0.0525031
-4.99880e-01,0.0510406
-4.99872e-01,0.0525406
-4.99864e-01,0.0508219
-4.99856e-01,0.048325
-4.99848e-01,0.0510969
-4.99840e-01,0.0504
-4.99832e-01,0.0508
-4.99824e-01,0.0514062
-4.99816e-01,0.0506
-4.99808e-01,0.0514875
-4.99800e-01,0.0516656
-4.99792e-01,0.0509906
-4.99784e-01,0.0511937
-4.99776e-01,0.0508062
-4.99768e-01,0.0499187
-4.99760e-01,0.0522562
-4.99752e-01,0.0501187
-4.99744e-01,0.0505625
-4.99736e-01,0.0517812
-4.99728e-01,0.0480344
-4.99720e-01,0.0531531
-4.99712e-01,0.0498875
-4.99704e-01,0.0538156
-4.99696e-01,0.0511531
-4.99688e-01,0.0500406
-4.99680e-01,0.0520187
-4.99672e-01,0.0524844
-4.99664e-01,0.0515375
-4.99656e-01,0.0523187
-4.99648e-01,0.0539844
-4.99640e-01,0.050875
-4.99632e-01,0.0520031
-4.99624e-01,0.0505125
-4.99616e-01,0.0510656
-4.99608e-01,0.0514937
-4.99600e-01,0.0518094
-4.99592e-01,0.0511531
-4.99584e-01,0.051975
-4.99576e-01,0.0520906
-4.99568e-01,0.0515937
-4.99560e-01,0.0495781
-4.99552e-01,0.0503656
-4.99544e-01,0.0489344
-4.99536e-01,0.0491094
-4.99528e-01,0.0508
-4.99520e-01,0.0504031
-4.99512e-01,0.051075
-4.99504e-01,0.0516781
-4.99496e-01,0.0508281
-4.99488e-01,0.0508625
-4.99480e-01,0.0504281
-4.99472e-01,0.0500625
-4.99464e-01,0.0517312
-4.99456e-01,0.0522656
-4.99448e-01,0.0517937
-4.99440e-01,0.050425
-4.99432e-01,0.0519406
-4.99424e-01,0.0496375
-4.99416e-01,0.0506656
-4.99408e-01,0.0514437
-4.99400e-01,0.0504
-4.99392e-01,0.0519125
-4.99384e-01,0.0504031
-4.99376e-01,0.0518906
-4.99368e-01,0.0476031
-4.99360e-01,0.0515031
-4.99352e-01,0.0507531
-4.99344e-01,0.0513219
-4.99336e-01,0.0513187
-4.99328e-01,0.0522875
-4.99320e-01,0.0503312
-4.99312e-01,0.0490656
-4.99304e-01,0.0511344
-4.99296e-01,0.051125
-4.99288e-01,0.051775
-4.99280e-01,0.0519469
-4.99272e-01,0.050275
-4.99264e-01,0.0502875
-4.99256e-01,0.0501812
-4.99248e-01,0.0528562
-4.99240e-01,0.0515312
-4.99232e-01,0.0518812
-4.99224e-01,0.0548937
-4.99216e-01,0.0532656
-4.99208e-01,0.0517187
-4.99200e-01,0.0510969
-4.99192e-01,0.051925
-4.99184e-01,0.0537031
-4.99176e-01,0.0502437
-4.99168e-01,0.0492344
-4.99160e-01,0.0518656
-4.99152e-01,0.0516375
-4.99144e-01,0.050675
-4.99136e-01,0.0520531
-4.99128e-01,0.0521281
-4.99120e-01,0.0506687
-4.99112e-01,0.0505812
-4.99104e-01,0.0497
-4.99096e-01,0.0513594
-4.99088e-01,0.0528562
-4.99080e-01,0.0503687
-4.99072e-01,0.050725
-4.99064e-01,0.0507125
-4.99056e-01,0.0542375
-4.99048e-01,0.0494969
-4.99040e-01,0.0514781
-4.99032e-01,0.0489406
-4.99024e-01,0.0509219
-4.99016e-01,0.0527344
-4.99008e-01,0.0516937
-4.99000e-01,0.0519531
-4.98992e-01,0.0515875
-4.98984e-01,0.0522062
-4.98976e-01,0.0496406
-4.98968e-01,0.0519906
-4.98960e-01,0.0501437
-4.98952e-01,0.051675
-4.98944e-01,0.0507531
-4.98936e-01,0.0516437
-4.98928e-01,0.0523594
-4.98920e-01,0.0510781
-4.98912e-01,0.05225
-4.98904e-01,0.049975
-4.98896e-01,0.0515187
-4.98888e-01,0.049475
-4.98880e-01,0.051475
-4.98872e-01,0.0506031
-4.98864e-01,0.0509812
-4.98856e-01,0.0499469
-4.98848e-01,0.0488562
-4.98840e-01,0.0498812
-4.98832e-01,0.0493062
-4.98824e-01,0.0532531
-4.98816e-01,0.0512156
-4.98808e-01,0.0486562
-4.98800e-01,0.0499406
-4.98792e-01,0.0527375
-4.98784e-01,0.0507875
-4.98776e-01,0.0494781
-4.98768e-01,0.0530344
-4.98760e-01,0.0504062
-4.98752e-01,0.049725
-4.98744e-01,0.0508656
-4.98736e-01,0.0511969
-4.98728e-01,0.0504875
-4.98720e-01,0.0523625
-4.98712e-01,0.0510531
-4.98704e-01,0.0510656
-4.98696e-01,0.0514094
-4.98688e-01,0.0501281
-4.98680e-01,0.0519875
-4.98672e-01,0.0502
-4.98664e-01,0.0522656
-4.98656e-01,0.0495594
-4.98648e-01,0.0499687
-4.98640e-01,0.0511594
-4.98632e-01,0.0503656
-4.98624e-01,0.0502031
-4.98616e-01,0.0509281
-4.98608e-01,0.0515656
-4.98600e-01,0.0515594
-4.98592e-01,0.0494906
-4.98584e-01,0.0498187
-4.98576e-01,0.05095
-4.98568e-01,0.0516969
-4.98560e-01,0.0512687
-4.98552e-01,0.0528062
-4.98544e-01,0.0503687
-4.98536e-01,0.0515062
-4.98528e-01,0.0533312
-4.98520e-01,0.0521625
-4.98512e-01,0.0502031
-4.98504e-01,0.0507
-4.98496e-01,0.0517125
-4.98488e-01,0.0527937
-4.98480e-01,0.0511781
-4.98472e-01,0.052775
-4.98464e-01,0.0510906
-4.98456e-01,0.0509719
-4.98448e-01,0.0510531
-4.98440e-01,0.0501625
-4.98432e-01,0.0499687
-4.98424e-01,0.0518125
-4.98416e-01,0.0519281
-4.98408e-01,0.0512875
-4.98400e-01,0.0507031
-4.98392e-01,0.0501594
-4.98384e-01,0.0509406
-4.98376e-01,0.0512875
-4.98368e-01,0.0507531
-4.98360e-01,0.050925
-4.98352e-01,0.0500594
-4.98344e-01,0.0502781
-4.98336e-01,0.0509
-4.98328e-01,0.0511562
-4.98320e-01,0.0508875
-4.98312e-01,0.0499656
-4.98304e-01,0.0508219
-4.98296e-01,0.0505812
-4.98288e-01,0.0510656
-4.98280e-01,0.0508187
-4.98272e-01,0.0498312
-4.98264e-01,0.0499125
-4.98256e-01,0.0541656
-4.98248e-01,0.0512812
-4.98240e-01,0.0520437
-4.98232e-01,0.0515719
-4.98224e-01,0.0505531
-4.98216e-01,0.0495156
-4.98208e-01,0.0505625
-4.98200e-01,0.0506
-4.98192e-01,0.0510219
-4.98184e-01,0.0510719
-4.98176e-01,0.0499531
-4.98168e-01,0.0502656
-4.98160e-01,0.0521312
-4.98152e-01,0.0501781
-4.98144e-01,0.0509344
-4.98136e-01,0.0475375
-4.98128e-01,0.0507406
-4.98120e-01,0.0505719
-4.98112e-01,0.0513562
-4.98104e-01,0.0508656
-4.98096e-01,0.0494062
-4.98088e-01,0.0516437
-4.98080e-01,0.0498937
-4.98072e-01,0.0513844
-4.98064e-01,0.0503937
-4.98056e-01,0.0510562
-4.98048e-01,0.049225
-4.98040e-01,0.0525656
-4.98032e-01,0.0515875
-4.98024e-01,0.0517406
-4.98016e-01,0.0513469
-4.98008e-01,0.0489969
-4.98000e-01,0.0515156
-4.97992e-01,0.0507
-4.97984e-01,0.0520312
-4.97976e-01,0.0495781
-4.97968e-01,0.0488375
-4.97960e-01,0.0530375
-4.97952e-01,0.0505219
-4.97944e-01,0.0509812
-4.97936e-01,0.0518031
-4.97928e-01,0.0499906
-4.97920e-01,0.0493844
-4.97912e-01,0.0512687
-4.97904e-01,0.0515531
-4.97896e-01,0.0498625
-4.97888e-01,0.0509125
-4.97880e-01,0.0496875
-4.97872e-01,0.0511344
-4.97864e-01,0.050375
-4.97856e-01,0.0501406
-4.97848e-01,0.0500187
-4.97840e-01,0.0512125
-4.97832e-01,0.0502625
-4.97824e-01,0.0505937
-4.97816e-01,0.0538687
-4.97808e-01,0.0515344
-4.97800e-01,0.0527406
-4.97792e-01,0.0499312
-4.97784e-01,0.0510594
-4.97776e-01,0.0524312
-4.97768e-01,0.0497344
-4.97760e-01,0.0485281
-4.97752e-01,0.0504437
-4.97744e-01,0.0501594
-4.97736e-01,0.0516094
-4.97728e-01,0.0515125
-4.97720e-01,0.0499094
-4.97712e-01,0.0510594
-4.97704e-01,0.0494125
-4.97696e-01,0.0507344
-4.97688e-01,0.0510531
-4.97680e-01,0.0518719
-4.97672e-01,0.052025
-4.97664e-01,0.0503875
-4.97656e-01,0.0510312
-4.97648e-01,0.0509969
-4.97640e-01,0.0504594
-4.97632e-01,0.0512406
-4.97624e-01,0.0536562
-4.97616e-01,0.0511062
-4.97608e-01,0.0520062
-4.97600e-01,0.0516719
-4.97592e-01,0.0522031
-4.97584e-01,0.0530812
-4.97576e-01,0.0504656
-4.97568e-01,0.0520531
-4.97560e-01,0.0507687
-4.97552e-01,0.050575
-4.97544e-01,0.0522625
-4.97536e-01,0.0501562
-4.97528e-01,0.0495906
-4.97520e-01,0.0511219
-4.97512e-01,0.0510094
-4.97504e-01,0.0514469
-4.97496e-01,0.0511187
-4.97488e-01,0.05145
-4.97480e-01,0.0520125
-4.97472e-01,0.0508625
-4.97464e-01,0.0528125
-4.97456e-01,0.0496656
-4.97448e-01,0.0515187
-4.97440e-01,0.0513219
-4.97432e-01,0.0491531
-4.97424e-01,0.0502812
-4.97416e-01,0.0506875
-4.97408e-01,0.0510031
-4.97400e-01,0.0511844
-4.97392e-01,0.0512094
-4.97384e-01,0.0515969
-4.97376e-01,0.0516937
-4.97368e-01,0.0525562
-4.97360e-01,0.0506875
-4.97352e-01,0.0507781
-4.97344e-01,0.0503437
-4.97336e-01,0.0509625
-4.97328e-01,0.05175
-4.97320e-01,0.0511281
-4.97312e-01,0.0478844
-4.97304e-01,0.0519594
-4.97296e-01,0.0514625
-4.97288e-01,0.0499187
-4.97280e-01,0.051325
-4.97272e-01,0.0516219
-4.97264e-01,0.0525281
-4.97256e-01,0.0496812
-4.97248e-01,0.0491562
-4.97240e-01,0.0511125
-4.97232e-01,0.0504469
-4.97224e-01,0.050825
-4.97216e-01,0.0505594
-4.97208e-01,0.0497031
-4.97200e-01,0.0499
-4.97192e-01,0.050325
-4.97184e-01,0.0506344
-4.97176e-01,0.0512469
-4.97168e-01,0.0510125
-4.97160e-01,0.0507906
-4.97152e-01,0.049625
-4.97144e-01,0.0501562
-4.97136e-01,0.0520937
-4.97128e-01,0.0508469
-4.97120e-01,0.0488875
-4.97112e-01,0.0509531
-4.97104e-01,0.0514937
-4.97096e-01,0.0507625
-4.97088e-01,0.0518406
-4.97080e-01,0.0506719
-4.97072e-01,0.0510625
-4.97064e-01,0.0495469
-4.97056e-01,0.0507219
-4.97048e-01,0.0512375
-4.97040e-01,0.0497687
-4.97032e-01,0.0504125
-4.97024e-01,0.0505531
-4.97016e-01,0.0500437
-4.97008e-01,0.0511812
-4.97000e-01,0.0510687
-4.96992e-01,0.0517312
-4.96984e-01,0.0515906
-4.96976e-01,0.0505
-4.96968e-01,0.0503031
-4.96960e-01,0.0517344
-4.96952e-01,0.0520375
-4.96944e-01,0.0494844
-4.96936e-01,0.0515062
-4.96928e-01,0.048325
-4.96920e-01,0.0536219
-4.96912e-01,0.0513906
-4.96904e-01,0.0509
-4.96896e-01,0.0508562
-4.96888e-01,0.0509812
-4.96880e-01,0.0512
-4.96872e-01,0.0510531
-4.96864e-01,0.0510125
-4.96856e-01,0.0516312
-4.96848e-01,0.0524375
-4.96840e-01,0.0505656
-4.96832e-01,0.047325
-4.96824e-01,0.0507062
-4.96816e-01,0.0521375
-4.96808e-01,0.0521156
-4.96800e-01,0.0503187
-4.96792e-01,0.0468437
-4.96784e-01,0.0512531
-4.96776e-01,0.0499219
-4.96768e-01,0.0513406
-4.96760e-01,0.0516906
-4.96752e-01,0.0521094
-4.96744e-01,0.0512594
-4.96736e-01,0.0500781
-4.96728e-01,0.0510125
-4.96720e-01,0.0515594
-4.96712e-01,0.0500156
-4.96704e-01,0.0501344
-4.96696e-01,0.0506594
-4.96688e-01,0.0491875
-4.96680e-01,0.0518687
-4.96672e-01,0.051575
-4.96664e-01,0.0507156
-4.96656e-01,0.0514281
-4.96648e-01,0.0520594
-4.96640e-01,0.0513437
-4.96632e-01,0.0509312
-4.96624e-01,0.0512062
-4.96616e-01,0.0499125
-4.96608e-01,0.0507531
-4.96600e-01,0.0502969
-4.96592e-01,0.0503969
-4.96584e-01,0.0514531
-4.96576e-01,0.049425
-4.96568e-01,0.0498187
-4.96560e-01,0.0519187
-4.96552e-01,0.0512656
-4.96544e-01,0.0508187
-4.96536e-01,0.0521344
-4.96528e-01,0.05155
-4.96520e-01,0.0513625
-4.96512e-01,0.050525
-4.96504e-01,0.0516062
-4.96496e-01,0.0519344
-4.96488e-01,0.0515781
-4.96480e-01,0.0499937
-4.96472e-01,0.0500094
-4.96464e-01,0.0496562
-4.96456e-01,0.0527656
-4.96448e-01,0.0502531
-4.96440e-01,0.0521312
-4.96432e-01,0.0504844
-4.96424e-01,0.0501
-4.96416e-01,0.0495469
-4.96408e-01,0.0506312
-4.96400e-01,0.0517375
-4.96392e-01,0.0500812
-4.96384e-01,0.0518062
-4.96376e-01,0.0514375
-4.96368e-01,0.0506875
-4.96360e-01,0.0510937
-4.96352e-01,0.0517156
-4.96344e-01,0.0512156
-4.96336e-01,0.0510781
-4.96328e-01,0.0525062
-4.96320e-01,0.0512375
-4.96312e-01,0.0502687
-4.96304e-01,0.0500656
-4.96296e-01,0.0516
-4.96288e-01,0.0483375
-4.96280e-01,0.0517531
-4.96272e-01,0.0501625
-4.96264e-01,0.0512062
-4.96256e-01,0.052725
-4.96248e-01,0.0518844
-4.96240e-01,0.0509937
-4.96232e-01,0.0499781
-4.96224e-01,0.0501969
-4.96216e-01,0.0509781
-4.96208e-01,0.0508969
-4.96200e-01,0.0507219
-4.96192e-01,0.0500937
-4.96184e-01,0.049675
-4.96176e-01,0.0500594
-4.96168e-01,0.0518281
-4.96160e-01,0.0495844
-4.96152e-01,0.0523937
-4.96144e-01,0.0510312
-4.96136e-01,0.0510031
-4.96128e-01,0.0520594
-4.96120e-01,0.0515625
-4.96112e-01,0.0492406
-4.96104e-01,0.0498062
-4.96096e-01,0.0509531
-4.96088e-01,0.0511281
-4.96080e-01,0.0494969
-4.96072e-01,0.0501469
-4.96064e-01,0.0509062
-4.96056e-01,0.0510437
-4.96048e-01,0.0499969
-4.96040e-01,0.0507281
-4.96032e-01,0.0511625
-4.96024e-01,0.0502062
-4.96016e-01,0.0500219
-4.96008e-01,0.0514094
-4.96000e-01,0.0503062
-4.95992e-01,0.0484812
-4.95984e-01,0.0523156
-4.95976e-01,0.0509844
-4.95968e-01,0.0520687
-4.95960e-01,0.0514562
-4.95952e-01,0.0527125
-4.95944e-01,0.0517875
-4.95936e-01,0.0512437
-4.95928e-01,0.0491
-4.95920e-01,0.0499125
-4.95912e-01,0.0490656
-4.95904e-01,0.0510312
-4.95896e-01,0.0520156
-4.95888e-01,0.0515844
-4.95880e-01,0.0517375
-4.95872e-01,0.0515344
-4.95864e-01,0.05075
-4.95856e-01,0.0504125
-4.95848e-01,0.0510906
-4.95840e-01,0.0506156
-4.95832e-01,0.0515
-4.95824e-01,0.0500656
-4.95816e-01,0.0491031
-4.95808e-01,0.0511719
-4.95800e-01,0.0505687
-4.95792e-01,0.0513
-4.95784e-01,0.048575
-4.95776e-01,0.052325
-4.95768e-01,0.0512094
-4.95760e-01,0.050375
-4.95752e-01,0.0516937
-4.95744e-01,0.049825
-4.95736e-01,0.0496781
-4.95728e-01,0.0510812
-4.95720e-01,0.0510594
-4.95712e-01,0.0508344
-4.95704e-01,0.0498406
-4.95696e-01,0.0512781
-4.95688e-01,0.0501906
-4.95680e-01,0.0505375
-4.95672e-01,0.0509406
-4.95664e-01,0.05155
-4.95656e-01,0.05145
-4.95648e-01,0.051125
-4.95640e-01,0.0512375
-4.95632e-01,0.0493875
-4.95624e-01,0.0505906
-4.95616e-01,0.0507687
-4.95608e-01,0.0492469
-4.95600e-01,0.0515469
-4.95592e-01,0.0514625
-4.95584e-01,0.0506781
-4.95576e-01,0.0509
-4.95568e-01,0.0525937
-4.95560e-01,0.0510375
-4.95552e-01,0.0510812
-4.95544e-01,0.0520656
-4.95536e-01,0.0505406
-4.95528e-01,0.0519125
-4.95520e-01,0.0499094
-4.95512e-01,0.0509469
-4.95504e-01,0.0504937
-4.95496e-01,0.050675
-4.95488e-01,0.0484594
-4.95480e-01,0.0517375
-4.95472e-01,0.051525
-4.95464e-01,0.0487
-4.95456e-01,0.051
-4.95448e-01,0.0517437
-4.95440e-01,0.0507906
-4.95432e-01,0.0488312
-4.95424e-01,0.0516031
-4.95416e-01,0.050825
-4.95408e-01,0.0513312
-4.95400e-01,0.052375
-4.95392e-01,0.0505437
-4.95384e-01,0.0508344
-4.95376e-01,0.0509187
-4.95368e-01,0.0505781
-4.95360e-01,0.0521469
-4.95352e-01,0.0499906
-4.95344e-01,0.0516687
-4.95336e-01,0.0508406
-4.95328e-01,0.0506281
-4.95320e-01,0.0522219
-4.95312e-01,0.0479187
-4.95304e-01,0.0500469
-4.95296e-01,0.0495125
-4.95288e-01,0.0505437
-4.95280e-01,0.0501844
-4.95272e-01,0.051625
-4.95264e-01,0.0518906
-4.95256e-01,0.0504094
-4.95248e-01,0.0498656
-4.95240e-01,0.0521687
-4.95232e-01,0.0492656
-4.95224e-01,0.0511844
-4.95216e-01,0.05105
-4.95208e-01,0.0499187
-4.95200e-01,0.0516094
-4.95192e-01,0.0506406
-4.95184e-01,0.0497312
-4.95176e-01,0.0511344
-4.95168e-01,0.0498625
-4.95160e-01,0.0497437
-4.95152e-01,0.0489094
-4.95144e-01,0.0523375
-4.95136e-01,0.0504437
-4.95128e-01,0.0515031
-4.95120e-01,0.05085
-4.95112e-01,0.0523406
-4.95104e-01,0.0514094
-4.95096e-01,0.0491719
-4.95088e-01,0.0502875
-4.95080e-01,0.0513906
-4.95072e-01,0.0502219
-4.95064e-01,0.0500437
-4.95056e-01,0.050925
-4.95048e-01,0.0517219
-4.95040e-01,0.0501281
-4.95032e-01,0.0508375
-4.95024e-01,0.0511844
-4.95016e-01,0.05
-4.95008e-01,0.0507094
-4.95000e-01,0.0504406
-4.94992e-01,0.0502187
-4.94984e-01,0.0492937
-4.94976e-01,0.0506969
-4.94968e-01,0.0509469
-4.94960e-01,0.0510812
-4.94952e-01,0.0512656
-4.94944e-01,0.0508437
-4.94936e-01,0.0505812
-4.94928e-01,0.0494656
-4.94920e-01,0.0506594
-4.94912e-01,0.0510625
-4.94904e-01,0.0502562
-4.94896e-01,0.0513375
-4.94888e-01,0.0509156
-4.94880e-01,0.0494531
-4.94872e-01,0.0500531
-4.94864e-01,0.0525281
-4.94856e-01,0.0510469
-4.94848e-01,0.0521219
-4.94840e-01,0.0510562
-4.94832e-01,0.0515937
-4.94824e-01,0.05155
-4.94816e-01,0.0511406
-4.94808e-01,0.0493031
-4.94800e-01,0.0507531
-4.94792e-01,0.0501656
-4.94784e-01,0.0499687
-4.94776e-01,0.0516875
-4.94768e-01,0.0496687
-4.94760e-01,0.050775
-4.94752e-01,0.0512281
-4.94744e-01,0.0492312
-4.94736e-01,0.0504875
-4.94728e-01,0.0505687
-4.94720e-01,0.05075
-4.94712e-01,0.0509125
-4.94704e-01,0.0500437
-4.94696e-01,0.0523
-4.94688e-01,0.0499562
-4.94680e-01,0.0506531
-4.94672e-01,0.0510594
-4.94664e-01,0.05015
-4.94656e-01,0.0501625
-4.94648e-01,0.0540562
-4.94640e-01,0.0489937
-4.94632e-01,0.0496062
-4.94624e-01,0.0498906
-4.94616e-01,0.0506719
-4.94608e-01,0.0510094
-4.94600e-01,0.052
-4.94592e-01,0.0501781
-4.94584e-01,0.0501375
-4.94576e-01,0.0517781
-4.94568e-01,0.0508281
-4.94560e-01,0.050175
-4.94552e-01,0.0508937
-4.94544e-01,0.0508562
-4.94536e-01,0.0499
-4.94528e-01,0.0499812
-4.94520e-01,0.0501781
-4.94512e-01,0.0511125
-4.94504e-01,0.0511562
-4.94496e-01,0.0514281
-4.94488e-01,0.0501531
-4.94480e-01,0.0506125
-4.94472e-01,0.0494312
-4.94464e-01,0.0523281
-4.94456e-01,0.0505156
-4.94448e-01,0.0507062
-4.94440e-01,0.0510219
-4.94432e-01,0.0522594
-4.94424e-01,0.0505094
-4.94416e-01,0.0510094
-4.94408e-01,0.0529125
-4.94400e-01,0.051025
-4.94392e-01,0.0510594
-4.94384e-01,0.0502437
-4.94376e-01,0.0503
-4.94368e-01,0.0521687
-4.94360e-01,0.0501062
-4.94352e-01,0.0507281
-4.94344e-01,0.0496969
-4.94336e-01,0.0498094
-4.94328e-01,0.0515875
-4.94320e-01,0.0516656
-4.94312e-01,0.0498625
-4.94304e-01,0.0530437
-4.94296e-01,0.0509281
-4.94288e-01,0.0506969
-4.94280e-01,0.0506094
-4.94272e-01,0.0497375
-4.94264e-01,0.0532094
-4.94256e-01,0.0506781
-4.94248e-01,0.0490156
-4.94240e-01,0.0525031
-4.94232e-01,0.0510625
-4.94224e-01,0.0495156
-4.94216e-01,0.0492187
-4.94208e-01,0.0513656
-4.94200e-01,0.0507031
-4.94192e-01,0.0516062
-4.94184e-01,0.0510656
-4.94176e-01,0.0507906
-4.94168e-01,0.0524312
-4.94160e-01,0.0514375
-4.94152e-01,0.0497906
-4.94144e-01,0.052
-4.94136e-01,0.0527094
-4.94128e-01,0.0513437
-4.94120e-01,0.050575
-4.94112e-01,0.0509094
-4.94104e-01,0.050725
-4.94096e-01,0.0495625
-4.94088e-01,0.0513844
-4.94080e-01,0.05015
-4.94072e-01,0.0489156
-4.94064e-01,0.0508
-4.94056e-01,0.0510125
-4.94048e-01,0.0509875
-4.94040e-01,0.05085
-4.94032e-01,0.0496625
-4.94024e-01,0.0493844
-4.94016e-01,0.0504469
-4.94008e-01,0.0494062
-4.94000e-01,0.0507875
-4.93992e-01,0.0514844
-4.93984e-01,0.0516562
-4.93976e-01,0.0508156
-4.93968e-01,0.0497031
-4.93960e-01,0.050125
-4.93952e-01,0.0511594
-4.93944e-01,0.0505344
-4.93936e-01,0.0495594
-4.93928e-01,0.0502719
-4.93920e-01,0.0519531
-4.93912e-01,0.0487187
-4.93904e-01,0.0509062
-4.93896e-01,0.0521531
-4.93888e-01,0.0502969
-4.93880e-01,0.05015
-4.93872e-01,0.0512281
-4.93864e-01,0.0493687
-4.93856e-01,0.0516969
-4.93848e-01,0.0509187
-4.93840e-01,0.050675
-4.93832e-01,0.0511187
-4.93824e-01,0.050575
-4.93816e-01,0.0503094
-4.93808e-01,0.051
-4.93800e-01,0.0512969
-4.93792e-01,0.0516062
-4.93784e-01,0.0528687
-4.93776e-01,0.0511562
-4.93768e-01,0.0513031
-4.93760e-01,0.0512406
-4.93752e-01,0.0521281
-4.93744e-01,0.0496937
-4.93736e-01,0.0510406
-4.93728e-01,0.0497875
-4.93720e-01,0.0514
-4.93712e-01,0.0519312
-4.93704e-01,0.0495562
-4.93696e-01,0.0500625
-4.93688e-01,0.0512687
-4.93680e-01,0.0528594
-4.93672e-01,0.0516469
-4.93664e-01,0.0510844
-4.93656e-01,0.0505031
-4.93648e-01,0.0498937
-4.93640e-01,0.0483437
-4.93632e-01,0.0519531
-4.93624e-01,0.0502281
-4.93616e-01,0.0508094
-4.93608e-01,0.0490375
-4.93600e-01,0.0512875
-4.93592e-01,0.0525094
-4.93584e-01,0.0493031
-4.93576e-01,0.0516594
-4.93568e-01,0.0517812
-4.93560e-01,0.0475375
-4.93552e-01,0.0519156
-4.93544e-01,0.0517219
-4.93536e-01,0.0498875
-4.93528e-01,0.0499531
-4.93520e-01,0.0505156
-4.93512e-01,0.0509625
-4.93504e-01,0.0503031
-4.93496e-01,0.0511812
-4.93488e-01,0.0505187
-4.93480e-01,0.0493844
-4.93472e-01,0.0514812
-4.93464e-01,0.0481969
-4.93456e-01,0.0515656
-4.93448e-01,0.0505656
-4.93440e-01,0.0512687
-4.93432e-01,0.0501937
-4.93424e-01,0.0502094
-4.93416e-01,0.0499625
-4.93408e-01,0.0495844
-4.93400e-01,0.0523531
-4.93392e-01,0.0511406
-4.93384e-01,0.0491625
-4.93376e-01,0.0510625
-4.93368e-01,0.0505906
-4.93360e-01,0.0517062
-4.93352e-01,0.0514031
-4.93344e-01,0.049
-4.93336e-01,0.051075
-4.93328e-01,0.0518687
-4.93320e-01,0.050475
-4.93312e-01,0.0498062
-4.93304e-01,0.0510562
-4.93296e-01,0.0526156
-4.93288e-01,0.051225
-4.93280e-01,0.050425
-4.93272e-01,0.050825
-4.93264e-01,0.0496906
-4.93256e-01,0.0510375
-4.93248e-01,0.0495062
-4.93240e-01,0.0519625
-4.93232e-01,0.0504656
-4.93224e-01,0.0518625
-4.93216e-01,0.0469656
-4.93208e-01,0.0516969
-4.93200e-01,0.0497062
-4.93192e-01,0.0496094
-4.93184e-01,0.0502094
-4.93176e-01,0.0498031
-4.93168e-01,0.0509187
-4.93160e-01,0.0505719
-4.93152e-01,0.0513281
-4.93144e-01,0.0498281
-4.93136e-01,0.0539812
-4.93128e-01,0.051325
-4.93120e-01,0.0505469
-4.93112e-01,0.0498656
-4.93104e-01,0.0515844
-4.93096e-01,0.0511375
-4.93088e-01,0.0498937
-4.93080e-01,0.04985
