Messung_Energiemessung_Harvester2/1_Magnet/Harvester2_100Ohm.CSV

Model,MSO2024
Firmware Version,1.52

Point Format,Y
Horizontal Units,S
Horizontal Scale,0.2
Sample Interval,1.6e-05
Filter Frequency,2e+08
Record Length,125000
Gating,0.0% to 100.0%
Probe Attenuation,10
Vertical Units,V
Vertical Offset,0
Vertical Scale,0.02
Label,
TIME,CH1
-8.00000e-01,0.000318751
-7.99984e-01,0.00191875
-7.99968e-01,0.00207813
-7.99952e-01,0.00191875
-7.99936e-01,0.00207813
-7.99920e-01,0.000796876
-7.99904e-01,0.000318751
-7.99888e-01,0.000478126
-7.99872e-01,0.000637501
-7.99856e-01,-3.12424e-06
-7.99840e-01,0.000959376
-7.99824e-01,0.00431875
-7.99808e-01,0.00207813
-7.99792e-01,0.00287813
-7.99776e-01,0.00287813
-7.99760e-01,0.00159688
-7.99744e-01,0.00271875
-7.99728e-01,0.00255938
-7.99712e-01,0.000796876
-7.99696e-01,0.000318751
-7.99680e-01,0.00159688
-7.99664e-01,0.00159688
-7.99648e-01,0.0022375
-7.99632e-01,0.00191875
-7.99616e-01,0.00255938
-7.99600e-01,0.000796876
-7.99584e-01,0.000318751
-7.99568e-01,0.00191875
-7.99552e-01,0.00207813
-7.99536e-01,0.0014375
-7.99520e-01,-0.000481249
-7.99504e-01,0.00111875
-7.99488e-01,0.00287813
-7.99472e-01,0.0014375
-7.99456e-01,0.00207813
-7.99440e-01,0.00191875
-7.99424e-01,0.00111875
-7.99408e-01,0.00159688
-7.99392e-01,0.00191875
-7.99376e-01,0.0022375
-7.99360e-01,0.00191875
-7.99344e-01,0.00191875
-7.99328e-01,0.000159376
-7.99312e-01,0.0030375
-7.99296e-01,0.00191875
-7.99280e-01,0.000796876
-7.99264e-01,0.00159688
-7.99248e-01,0.00175938
-7.99232e-01,0.00271875
-7.99216e-01,0.00159688
-7.99200e-01,0.00319688
-7.99184e-01,0.00159688
-7.99168e-01,0.0046375
-7.99152e-01,0.0014375
-7.99136e-01,-0.00112187
-7.99120e-01,0.00207813
-7.99104e-01,0.00271875
-7.99088e-01,0.00271875
-7.99072e-01,0.00175938
-7.99056e-01,0.0022375
-7.99040e-01,0.0022375
-7.99024e-01,0.00319688
-7.99008e-01,0.000637501
-7.98992e-01,0.00191875
-7.98976e-01,0.00255938
-7.98960e-01,0.00239688
-7.98944e-01,0.00255938
-7.98928e-01,0.0014375
-7.98912e-01,0.0038375
-7.98896e-01,0.00127813
-7.98880e-01,0.00271875
-7.98864e-01,0.00159688
-7.98848e-01,0.00207813
-7.98832e-01,0.00399688
-7.98816e-01,0.0030375
-7.98800e-01,0.00239688
-7.98784e-01,0.00335938
-7.98768e-01,0.00111875
-7.98752e-01,0.00319688
-7.98736e-01,0.00255938
-7.98720e-01,0.00287813
-7.98704e-01,0.000796876
-7.98688e-01,0.00159688
-7.98672e-01,0.0014375
-7.98656e-01,0.00207813
-7.98640e-01,0.0014375
-7.98624e-01,0.00255938
-7.98608e-01,0.00191875
-7.98592e-01,0.000637501
-7.98576e-01,0.000959376
-7.98560e-01,0.00207813
-7.98544e-01,0.00239688
-7.98528e-01,0.0014375
-7.98512e-01,0.00255938
-7.98496e-01,0.00319688
-7.98480e-01,0.00159688
-7.98464e-01,0.00271875
-7.98448e-01,0.00191875
-7.98432e-01,0.00239688
-7.98416e-01,0.000959376
-7.98400e-01,0.00351875
-7.98384e-01,0.0022375
-7.98368e-01,0.00191875
-7.98352e-01,0.0030375
-7.98336e-01,0.00319688
-7.98320e-01,0.00367813
-7.98304e-01,0.0030375
-7.98288e-01,0.00287813
-7.98272e-01,0.00287813
-7.98256e-01,0.00159688
-7.98240e-01,0.0014375
-7.98224e-01,0.00127813
-7.98208e-01,0.00255938
-7.98192e-01,0.00239688
-7.98176e-01,0.00191875
-7.98160e-01,0.0038375
-7.98144e-01,0.00191875
-7.98128e-01,0.000478126
-7.98112e-01,0.00255938
-7.98096e-01,0.00239688
-7.98080e-01,0.0014375
-7.98064e-01,0.00287813
-7.98048e-01,0.00191875
-7.98032e-01,0.00207813
-7.98016e-01,0.00175938
-7.98000e-01,0.00335938
-7.97984e-01,0.00191875
-7.97968e-01,0.00367813
-7.97952e-01,0.00287813
-7.97936e-01,0.00111875
-7.97920e-01,0.00287813
-7.97904e-01,0.0030375
-7.97888e-01,0.00239688
-7.97872e-01,0.00127813
-7.97856e-01,0.00399688
-7.97840e-01,0.00239688
-7.97824e-01,0.00127813
-7.97808e-01,0.00159688
-7.97792e-01,0.00335938
-7.97776e-01,0.000796876
-7.97760e-01,0.00367813
-7.97744e-01,0.00287813
-7.97728e-01,0.00111875
-7.97712e-01,0.00207813
-7.97696e-01,0.00367813
-7.97680e-01,0.00159688
-7.97664e-01,0.00239688
-7.97648e-01,0.00271875
-7.97632e-01,0.00191875
-7.97616e-01,0.000478126
-7.97600e-01,0.00207813
-7.97584e-01,0.00287813
-7.97568e-01,0.0014375
-7.97552e-01,0.00175938
-7.97536e-01,0.00111875
-7.97520e-01,0.0014375
-7.97504e-01,0.00207813
-7.97488e-01,0.00287813
-7.97472e-01,0.00175938
-7.97456e-01,0.00207813
-7.97440e-01,0.0014375
-7.97424e-01,0.000959376
-7.97408e-01,0.000637501
-7.97392e-01,0.0022375
-7.97376e-01,-0.000162499
-7.97360e-01,0.00239688
-7.97344e-01,0.000796876
-7.97328e-01,0.00127813
-7.97312e-01,0.00255938
-7.97296e-01,0.0022375
-7.97280e-01,0.00127813
-7.97264e-01,0.00271875
-7.97248e-01,0.00207813
-7.97232e-01,0.0022375
-7.97216e-01,0.00175938
-7.97200e-01,0.0030375
-7.97184e-01,0.000959376
-7.97168e-01,0.00175938
-7.97152e-01,0.00287813
-7.97136e-01,0.0022375
-7.97120e-01,0.00207813
-7.97104e-01,0.0014375
-7.97088e-01,0.00111875
-7.97072e-01,0.00431875
-7.97056e-01,0.00175938
-7.97040e-01,0.0030375
-7.97024e-01,0.0030375
-7.97008e-01,0.00287813
-7.96992e-01,0.00207813
-7.96976e-01,0.00175938
-7.96960e-01,-0.000162499
-7.96944e-01,0.00159688
-7.96928e-01,0.0014375
-7.96912e-01,0.00159688
-7.96896e-01,0.0030375
-7.96880e-01,0.00159688
-7.96864e-01,0.00255938
-7.96848e-01,0.000637501
-7.96832e-01,0.00111875
-7.96816e-01,0.000796876
-7.96800e-01,0.00207813
-7.96784e-01,0.0030375
-7.96768e-01,0.0022375
-7.96752e-01,0.00319688
-7.96736e-01,0.00415938
-7.96720e-01,0.00319688
-7.96704e-01,0.0022375
-7.96688e-01,0.000318751
-7.96672e-01,0.00159688
-7.96656e-01,0.000796876
-7.96640e-01,0.0014375
-7.96624e-01,0.00207813
-7.96608e-01,0.00239688
-7.96592e-01,-3.12424e-06
-7.96576e-01,0.00159688
-7.96560e-01,0.000478126
-7.96544e-01,0.00159688
-7.96528e-01,0.0014375
-7.96512e-01,0.00111875
-7.96496e-01,0.00319688
-7.96480e-01,0.00111875
-7.96464e-01,0.00255938
-7.96448e-01,0.00207813
-7.96432e-01,0.00207813
-7.96416e-01,0.00175938
-7.96400e-01,0.00207813
-7.96384e-01,0.00111875
-7.96368e-01,0.000637501
-7.96352e-01,0.00111875
-7.96336e-01,0.00335938
-7.96320e-01,0.00447813
-7.96304e-01,0.00207813
-7.96288e-01,0.00335938
-7.96272e-01,0.00319688
-7.96256e-01,0.00207813
-7.96240e-01,0.0038375
-7.96224e-01,0.00207813
-7.96208e-01,0.00271875
-7.96192e-01,0.00111875
-7.96176e-01,0.00239688
-7.96160e-01,0.0014375
-7.96144e-01,0.000796876
-7.96128e-01,0.00175938
-7.96112e-01,0.00207813
-7.96096e-01,0.000796876
-7.96080e-01,0.0030375
-7.96064e-01,0.00159688
-7.96048e-01,0.00207813
-7.96032e-01,0.0030375
-7.96016e-01,0.00191875
-7.96000e-01,0.00271875
-7.95984e-01,0.00335938
-7.95968e-01,0.00239688
-7.95952e-01,0.0014375
-7.95936e-01,0.00175938
-7.95920e-01,0.00191875
-7.95904e-01,0.00175938
-7.95888e-01,0.00335938
-7.95872e-01,0.00255938
-7.95856e-01,0.000796876
-7.95840e-01,0.000959376
-7.95824e-01,0.00159688
-7.95808e-01,0.00127813
-7.95792e-01,0.00415938
-7.95776e-01,0.00271875
-7.95760e-01,0.0022375
-7.95744e-01,0.00191875
-7.95728e-01,0.00239688
-7.95712e-01,0.00335938
-7.95696e-01,0.0030375
-7.95680e-01,0.00175938
-7.95664e-01,0.00255938
-7.95648e-01,0.00271875
-7.95632e-01,0.00287813
-7.95616e-01,0.000637501
-7.95600e-01,0.00207813
-7.95584e-01,0.00239688
-7.95568e-01,0.00255938
-7.95552e-01,0.00111875
-7.95536e-01,0.000478126
-7.95520e-01,0.00207813
-7.95504e-01,0.00207813
-7.95488e-01,0.00367813
-7.95472e-01,0.00415938
-7.95456e-01,0.00367813
-7.95440e-01,0.000637501
-7.95424e-01,0.00335938
-7.95408e-01,0.00175938
-7.95392e-01,0.00319688
-7.95376e-01,0.00191875
-7.95360e-01,0.00207813
-7.95344e-01,0.0022375
-7.95328e-01,0.00175938
-7.95312e-01,0.00239688
-7.95296e-01,0.00255938
-7.95280e-01,0.00175938
-7.95264e-01,0.00431875
-7.95248e-01,0.000959376
-7.95232e-01,0.00159688
-7.95216e-01,0.00335938
-7.95200e-01,0.00287813
-7.95184e-01,0.00191875
-7.95168e-01,0.0014375
-7.95152e-01,0.00319688
-7.95136e-01,0.00127813
-7.95120e-01,0.0030375
-7.95104e-01,0.00239688
-7.95088e-01,0.00175938
-7.95072e-01,0.00127813
-7.95056e-01,0.00207813
-7.95040e-01,0.00239688
-7.95024e-01,0.00159688
-7.95008e-01,0.00351875
-7.94992e-01,0.00351875
-7.94976e-01,-0.000640624
-7.94960e-01,0.0022375
-7.94944e-01,0.00127813
-7.94928e-01,0.00191875
-7.94912e-01,0.00399688
-7.94896e-01,0.0022375
-7.94880e-01,0.00287813
-7.94864e-01,0.000796876
-7.94848e-01,0.00111875
-7.94832e-01,0.00255938
-7.94816e-01,0.00127813
-7.94800e-01,0.00175938
-7.94784e-01,-3.12424e-06
-7.94768e-01,0.000959376
-7.94752e-01,0.00367813
-7.94736e-01,0.00255938
-7.94720e-01,0.000159376
-7.94704e-01,0.000796876
-7.94688e-01,0.0030375
-7.94672e-01,0.000637501
-7.94656e-01,0.00271875
-7.94640e-01,0.00207813
-7.94624e-01,0.00351875
-7.94608e-01,0.00415938
-7.94592e-01,0.0014375
-7.94576e-01,0.00191875
-7.94560e-01,0.00159688
-7.94544e-01,0.00127813
-7.94528e-01,0.00271875
-7.94512e-01,0.00191875
-7.94496e-01,0.00207813
-7.94480e-01,0.0030375
-7.94464e-01,0.00351875
-7.94448e-01,0.00287813
-7.94432e-01,0.00415938
-7.94416e-01,0.00175938
-7.94400e-01,0.000478126
-7.94384e-01,0.000159376
-7.94368e-01,0.0022375
-7.94352e-01,0.000959376
-7.94336e-01,0.00271875
-7.94320e-01,0.00255938
-7.94304e-01,0.00255938
-7.94288e-01,0.00255938
-7.94272e-01,0.00431875
-7.94256e-01,0.00271875
-7.94240e-01,0.00207813
-7.94224e-01,0.00159688
-7.94208e-01,0.000796876
-7.94192e-01,0.00271875
-7.94176e-01,0.00367813
-7.94160e-01,0.00127813
-7.94144e-01,0.00319688
-7.94128e-01,0.00175938
-7.94112e-01,0.00319688
-7.94096e-01,0.00271875
-7.94080e-01,0.0022375
-7.94064e-01,0.0022375
-7.94048e-01,0.000959376
-7.94032e-01,0.00239688
-7.94016e-01,0.00271875
-7.94000e-01,0.00255938
-7.93984e-01,0.00271875
-7.93968e-01,0.0022375
-7.93952e-01,0.00111875
-7.93936e-01,0.00271875
-7.93920e-01,0.00175938
-7.93904e-01,0.00255938
-7.93888e-01,0.00319688
-7.93872e-01,0.00367813
-7.93856e-01,0.00191875
-7.93840e-01,0.00239688
-7.93824e-01,0.00271875
-7.93808e-01,0.000318751
-7.93792e-01,0.00159688
-7.93776e-01,0.00239688
-7.93760e-01,0.0046375
-7.93744e-01,0.00319688
-7.93728e-01,0.00175938
-7.93712e-01,0.00447813
-7.93696e-01,0.00239688
-7.93680e-01,0.000478126
-7.93664e-01,0.00239688
-7.93648e-01,0.00239688
-7.93632e-01,0.0022375
-7.93616e-01,0.00255938
-7.93600e-01,0.0030375
-7.93584e-01,0.0030375
-7.93568e-01,0.00191875
-7.93552e-01,0.0046375
-7.93536e-01,0.00175938
-7.93520e-01,0.00319688
-7.93504e-01,0.00239688
-7.93488e-01,0.000318751
-7.93472e-01,0.00319688
-7.93456e-01,0.00495938
-7.93440e-01,0.00175938
-7.93424e-01,0.00319688
-7.93408e-01,0.00159688
-7.93392e-01,0.0014375
-7.93376e-01,0.00319688
-7.93360e-01,0.00367813
-7.93344e-01,0.00335938
-7.93328e-01,0.00207813
-7.93312e-01,0.00271875
-7.93296e-01,0.00239688
-7.93280e-01,0.00335938
-7.93264e-01,0.0014375
-7.93248e-01,0.00575938
-7.93232e-01,0.00319688
-7.93216e-01,0.00319688
-7.93200e-01,0.00175938
-7.93184e-01,0.00335938
-7.93168e-01,0.00335938
-7.93152e-01,0.00511875
-7.93136e-01,0.00127813
-7.93120e-01,0.0014375
-7.93104e-01,0.00159688
-7.93088e-01,0.000796876
-7.93072e-01,0.00255938
-7.93056e-01,0.00287813
-7.93040e-01,0.00159688
-7.93024e-01,0.00367813
-7.93008e-01,0.00351875
-7.92992e-01,0.00207813
-7.92976e-01,0.0014375
-7.92960e-01,0.0030375
-7.92944e-01,0.00159688
-7.92928e-01,0.0030375
-7.92912e-01,0.00287813
-7.92896e-01,0.00239688
-7.92880e-01,0.00447813
-7.92864e-01,0.0030375
-7.92848e-01,0.00287813
-7.92832e-01,0.0014375
-7.92816e-01,0.0014375
-7.92800e-01,0.00415938
-7.92784e-01,0.00207813
-7.92768e-01,0.00207813
-7.92752e-01,0.00159688
-7.92736e-01,0.00367813
-7.92720e-01,0.00527813
-7.92704e-01,0.00207813
-7.92688e-01,0.0022375
-7.92672e-01,0.00335938
-7.92656e-01,0.000637501
-7.92640e-01,0.0046375
-7.92624e-01,0.00207813
-7.92608e-01,0.00415938
-7.92592e-01,0.00207813
-7.92576e-01,0.00415938
-7.92560e-01,0.0022375
-7.92544e-01,0.00111875
-7.92528e-01,0.00399688
-7.92512e-01,0.00511875
-7.92496e-01,0.00447813
-7.92480e-01,0.00415938
-7.92464e-01,0.0038375
-7.92448e-01,0.00335938
-7.92432e-01,0.00351875
-7.92416e-01,0.00271875
-7.92400e-01,0.00255938
-7.92384e-01,0.00111875
-7.92368e-01,0.00239688
-7.92352e-01,0.0038375
-7.92336e-01,0.00191875
-7.92320e-01,0.00351875
-7.92304e-01,0.0030375
-7.92288e-01,0.0046375
-7.92272e-01,0.0030375
-7.92256e-01,0.00367813
-7.92240e-01,0.0014375
-7.92224e-01,0.00415938
-7.92208e-01,0.00111875
-7.92192e-01,0.00479688
-7.92176e-01,0.00335938
-7.92160e-01,0.00287813
-7.92144e-01,0.00271875
-7.92128e-01,0.00175938
-7.92112e-01,0.00319688
-7.92096e-01,0.00367813
-7.92080e-01,0.0038375
-7.92064e-01,0.0046375
-7.92048e-01,0.00335938
-7.92032e-01,0.00335938
-7.92016e-01,0.00255938
-7.92000e-01,0.00271875
-7.91984e-01,0.00207813
-7.91968e-01,0.0030375
-7.91952e-01,0.00159688
-7.91936e-01,0.00479688
-7.91920e-01,0.00511875
-7.91904e-01,0.00479688
-7.91888e-01,0.00367813
-7.91872e-01,0.00127813
-7.91856e-01,0.00447813
-7.91840e-01,0.00319688
-7.91824e-01,0.00239688
-7.91808e-01,0.00431875
-7.91792e-01,0.00511875
-7.91776e-01,0.00159688
-7.91760e-01,0.0054375
-7.91744e-01,0.00431875
-7.91728e-01,0.00239688
-7.91712e-01,0.00479688
-7.91696e-01,0.00335938
-7.91680e-01,0.00175938
-7.91664e-01,0.00319688
-7.91648e-01,0.00431875
-7.91632e-01,0.00351875
-7.91616e-01,0.00367813
-7.91600e-01,0.00399688
-7.91584e-01,0.00399688
-7.91568e-01,0.00607813
-7.91552e-01,0.00335938
-7.91536e-01,0.0038375
-7.91520e-01,0.00271875
-7.91504e-01,0.00319688
-7.91488e-01,0.00239688
-7.91472e-01,0.00431875
-7.91456e-01,0.00447813
-7.91440e-01,0.00351875
-7.91424e-01,0.0038375
-7.91408e-01,0.00335938
-7.91392e-01,0.00415938
-7.91376e-01,0.0030375
-7.91360e-01,0.0030375
-7.91344e-01,0.0054375
-7.91328e-01,0.00431875
-7.91312e-01,0.0046375
-7.91296e-01,0.00415938
-7.91280e-01,0.00399688
-7.91264e-01,0.00399688
-7.91248e-01,0.00399688
-7.91232e-01,0.00511875
-7.91216e-01,0.00271875
-7.91200e-01,0.00399688
-7.91184e-01,0.00415938
-7.91168e-01,0.0030375
-7.91152e-01,0.0046375
-7.91136e-01,0.00271875
-7.91120e-01,0.00271875
-7.91104e-01,0.00367813
-7.91088e-01,0.00239688
-7.91072e-01,0.00479688
-7.91056e-01,0.00415938
-7.91040e-01,0.00511875
-7.91024e-01,0.00239688
-7.91008e-01,0.0046375
-7.90992e-01,0.00447813
-7.90976e-01,0.00447813
-7.90960e-01,0.00399688
-7.90944e-01,0.00287813
-7.90928e-01,0.00239688
-7.90912e-01,0.00335938
-7.90896e-01,0.0022375
-7.90880e-01,0.00319688
-7.90864e-01,0.00527813
-7.90848e-01,0.00367813
-7.90832e-01,0.00351875
-7.90816e-01,0.00207813
-7.90800e-01,0.00335938
-7.90784e-01,0.00351875
-7.90768e-01,0.00287813
-7.90752e-01,0.00255938
-7.90736e-01,0.0022375
-7.90720e-01,0.00287813
-7.90704e-01,0.00335938
-7.90688e-01,0.00111875
-7.90672e-01,0.0014375
-7.90656e-01,0.00399688
-7.90640e-01,0.00591875
-7.90624e-01,0.0014375
-7.90608e-01,0.0014375
-7.90592e-01,0.00367813
-7.90576e-01,0.0038375
-7.90560e-01,0.0054375
-7.90544e-01,0.00319688
-7.90528e-01,0.0038375
-7.90512e-01,0.00255938
-7.90496e-01,0.00239688
-7.90480e-01,0.00255938
-7.90464e-01,0.00287813
-7.90448e-01,0.00239688
-7.90432e-01,0.00591875
-7.90416e-01,0.00239688
-7.90400e-01,0.0062375
-7.90384e-01,0.00319688
-7.90368e-01,0.0030375
-7.90352e-01,0.0046375
-7.90336e-01,0.00271875
-7.90320e-01,0.00447813
-7.90304e-01,0.00175938
-7.90288e-01,0.0038375
-7.90272e-01,0.0030375
-7.90256e-01,0.00207813
-7.90240e-01,0.00207813
-7.90224e-01,0.00399688
-7.90208e-01,0.00351875
-7.90192e-01,0.00287813
-7.90176e-01,0.00399688
-7.90160e-01,0.0030375
-7.90144e-01,0.00207813
-7.90128e-01,0.00431875
-7.90112e-01,0.00191875
-7.90096e-01,0.00399688
-7.90080e-01,0.00399688
-7.90064e-01,0.00319688
-7.90048e-01,0.00351875
-7.90032e-01,0.00399688
-7.90016e-01,0.00479688
-7.90000e-01,0.00399688
-7.89984e-01,0.00415938
-7.89968e-01,0.00447813
-7.89952e-01,0.00255938
-7.89936e-01,0.0014375
-7.89920e-01,0.00255938
-7.89904e-01,0.00415938
-7.89888e-01,0.00191875
-7.89872e-01,0.00415938
-7.89856e-01,0.0022375
-7.89840e-01,0.00431875
-7.89824e-01,0.00351875
-7.89808e-01,0.00335938
-7.89792e-01,0.00351875
-7.89776e-01,0.00191875
-7.89760e-01,0.00271875
-7.89744e-01,0.00431875
-7.89728e-01,0.00287813
-7.89712e-01,0.00479688
-7.89696e-01,0.00447813
-7.89680e-01,0.00431875
-7.89664e-01,0.00415938
-7.89648e-01,0.00399688
-7.89632e-01,0.0022375
-7.89616e-01,0.00399688
-7.89600e-01,0.0054375
-7.89584e-01,0.00415938
-7.89568e-01,0.00479688
-7.89552e-01,0.00255938
-7.89536e-01,0.00335938
-7.89520e-01,0.0030375
-7.89504e-01,0.00335938
-7.89488e-01,0.00479688
-7.89472e-01,0.00511875
-7.89456e-01,0.0046375
-7.89440e-01,0.00111875
-7.89424e-01,0.00351875
-7.89408e-01,0.00271875
-7.89392e-01,0.00175938
-7.89376e-01,0.00367813
-7.89360e-01,0.0038375
-7.89344e-01,0.00207813
-7.89328e-01,0.00575938
-7.89312e-01,0.0038375
-7.89296e-01,0.00431875
-7.89280e-01,0.00271875
-7.89264e-01,0.00351875
-7.89248e-01,0.00239688
-7.89232e-01,0.0030375
-7.89216e-01,0.00319688
-7.89200e-01,0.00399688
-7.89184e-01,0.00191875
-7.89168e-01,0.00271875
-7.89152e-01,0.00335938
-7.89136e-01,0.00415938
-7.89120e-01,0.00351875
-7.89104e-01,0.0030375
-7.89088e-01,0.00207813
-7.89072e-01,0.00319688
-7.89056e-01,0.00127813
-7.89040e-01,0.00367813
-7.89024e-01,0.0046375
-7.89008e-01,0.00319688
-7.88992e-01,0.00351875
-7.88976e-01,0.00351875
-7.88960e-01,0.00207813
-7.88944e-01,0.00319688
-7.88928e-01,0.00207813
-7.88912e-01,0.00335938
-7.88896e-01,0.0022375
-7.88880e-01,0.00287813
-7.88864e-01,0.0022375
-7.88848e-01,0.00479688
-7.88832e-01,0.00207813
-7.88816e-01,0.0038375
-7.88800e-01,0.00415938
-7.88784e-01,0.00191875
-7.88768e-01,0.0046375
-7.88752e-01,0.00351875
-7.88736e-01,0.00447813
-7.88720e-01,0.00351875
-7.88704e-01,0.00127813
-7.88688e-01,0.00319688
-7.88672e-01,0.00191875
-7.88656e-01,0.0030375
-7.88640e-01,0.00239688
-7.88624e-01,0.000959376
-7.88608e-01,0.00159688
-7.88592e-01,0.00431875
-7.88576e-01,0.00431875
-7.88560e-01,0.0030375
-7.88544e-01,0.00207813
-7.88528e-01,0.00335938
-7.88512e-01,0.00399688
-7.88496e-01,0.00271875
-7.88480e-01,0.00351875
-7.88464e-01,0.0022375
-7.88448e-01,0.00367813
-7.88432e-01,0.00319688
-7.88416e-01,0.00207813
-7.88400e-01,0.00399688
-7.88384e-01,0.0014375
-7.88368e-01,0.00175938
-7.88352e-01,0.00191875
-7.88336e-01,0.00287813
-7.88320e-01,0.00319688
-7.88304e-01,0.00511875
-7.88288e-01,0.00239688
-7.88272e-01,0.0038375
-7.88256e-01,0.00335938
-7.88240e-01,0.00239688
-7.88224e-01,0.00351875
-7.88208e-01,0.0030375
-7.88192e-01,0.0046375
-7.88176e-01,0.00207813
-7.88160e-01,0.00335938
-7.88144e-01,0.00447813
-7.88128e-01,0.00239688
-7.88112e-01,0.00399688
-7.88096e-01,0.0014375
-7.88080e-01,0.0030375
-7.88064e-01,0.00367813
-7.88048e-01,0.000318751
-7.88032e-01,0.00255938
-7.88016e-01,0.00447813
-7.88000e-01,0.00239688
-7.87984e-01,0.00271875
-7.87968e-01,0.00415938
-7.87952e-01,0.00175938
-7.87936e-01,0.00511875
-7.87920e-01,0.00367813
-7.87904e-01,0.0030375
-7.87888e-01,0.00335938
-7.87872e-01,0.00399688
-7.87856e-01,0.00207813
-7.87840e-01,0.0022375
-7.87824e-01,0.00255938
-7.87808e-01,0.00335938
-7.87792e-01,0.00191875
-7.87776e-01,0.00271875
-7.87760e-01,0.00399688
-7.87744e-01,0.0030375
-7.87728e-01,0.0022375
-7.87712e-01,0.00207813
-7.87696e-01,0.00351875
-7.87680e-01,0.00239688
-7.87664e-01,0.000318751
-7.87648e-01,0.00351875
-7.87632e-01,0.00271875
-7.87616e-01,0.00239688
-7.87600e-01,0.00207813
-7.87584e-01,0.00367813
-7.87568e-01,0.00399688
-7.87552e-01,0.00271875
-7.87536e-01,0.00271875
-7.87520e-01,0.00415938
-7.87504e-01,0.00319688
-7.87488e-01,0.00319688
-7.87472e-01,0.00479688
-7.87456e-01,0.00367813
-7.87440e-01,0.0030375
-7.87424e-01,0.00367813
-7.87408e-01,0.00431875
-7.87392e-01,0.00287813
-7.87376e-01,0.00527813
-7.87360e-01,0.00271875
-7.87344e-01,0.00527813
-7.87328e-01,0.0046375
-7.87312e-01,0.00431875
-7.87296e-01,0.0022375
-7.87280e-01,0.00239688
-7.87264e-01,0.00271875
-7.87248e-01,0.00415938
-7.87232e-01,0.00431875
-7.87216e-01,0.00191875
-7.87200e-01,0.00335938
-7.87184e-01,0.0038375
-7.87168e-01,0.00399688
-7.87152e-01,0.00255938
-7.87136e-01,0.00367813
-7.87120e-01,0.0038375
-7.87104e-01,0.00415938
-7.87088e-01,0.00239688
-7.87072e-01,0.00351875
-7.87056e-01,0.0038375
-7.87040e-01,0.00111875
-7.87024e-01,0.00495938
-7.87008e-01,0.0022375
-7.86992e-01,0.00479688
-7.86976e-01,0.00367813
-7.86960e-01,0.00367813
-7.86944e-01,0.00415938
-7.86928e-01,0.00271875
-7.86912e-01,0.00351875
-7.86896e-01,0.00207813
-7.86880e-01,0.00415938
-7.86864e-01,0.00511875
-7.86848e-01,0.0062375
-7.86832e-01,0.00495938
-7.86816e-01,0.00287813
