CD-Dateien/Messprotokolle/Messung_Leistungskennlinie_Harvesterausgang_endgültige_Hardware/15kmh/Harvester_15kmh_3kOhm.CSV

Model,MSO2024
Firmware Version,1.52

Point Format,Y,
Horizontal Units,S,
Horizontal Scale,0.1,
Sample Interval,8e-06,
Filter Frequency,2e+08,
Record Length,125000,
Gating,0.0% to 100.0%,
Probe Attenuation,10,
Vertical Units,V,
Vertical Offset,0,
Vertical Scale,0.1,
Label,,
TIME,CH1,CH1 Peak Detect
-5.00000e-01,0.298,0.314
-4.99992e-01,0.286,0.262
-4.99984e-01,0.306,0.322
-4.99976e-01,0.29,0.262
-4.99968e-01,0.274,0.318
-4.99960e-01,0.282,0.262
-4.99952e-01,0.29,0.318
-4.99944e-01,0.302,0.262
-4.99936e-01,0.29,0.314
-4.99928e-01,0.282,0.262
-4.99920e-01,0.282,0.318
-4.99912e-01,0.29,0.262
-4.99904e-01,0.29,0.322
-4.99896e-01,0.282,0.262
-4.99888e-01,0.294,0.322
-4.99880e-01,0.274,0.258
-4.99872e-01,0.286,0.314
-4.99864e-01,0.294,0.262
-4.99856e-01,0.274,0.314
-4.99848e-01,0.29,0.262
-4.99840e-01,0.286,0.318
-4.99832e-01,0.286,0.262
-4.99824e-01,0.29,0.318
-4.99816e-01,0.29,0.262
-4.99808e-01,0.29,0.314
-4.99800e-01,0.282,0.262
-4.99792e-01,0.282,0.318
-4.99784e-01,0.298,0.262
-4.99776e-01,0.286,0.318
-4.99768e-01,0.29,0.258
-4.99760e-01,0.29,0.314
-4.99752e-01,0.298,0.262
-4.99744e-01,0.286,0.318
-4.99736e-01,0.29,0.262
-4.99728e-01,0.278,0.318
-4.99720e-01,0.298,0.258
-4.99712e-01,0.29,0.314
-4.99704e-01,0.282,0.262
-4.99696e-01,0.294,0.318
-4.99688e-01,0.286,0.258
-4.99680e-01,0.278,0.318
-4.99672e-01,0.29,0.254
-4.99664e-01,0.274,0.318
-4.99656e-01,0.294,0.262
-4.99648e-01,0.286,0.314
-4.99640e-01,0.282,0.262
-4.99632e-01,0.294,0.314
-4.99624e-01,0.278,0.258
-4.99616e-01,0.294,0.318
-4.99608e-01,0.302,0.258
-4.99600e-01,0.278,0.314
-4.99592e-01,0.294,0.262
-4.99584e-01,0.286,0.322
-4.99576e-01,0.278,0.262
-4.99568e-01,0.29,0.318
-4.99560e-01,0.286,0.258
-4.99552e-01,0.29,0.322
-4.99544e-01,0.282,0.258
-4.99536e-01,0.274,0.314
-4.99528e-01,0.29,0.258
-4.99520e-01,0.286,0.318
-4.99512e-01,0.29,0.262
-4.99504e-01,0.294,0.318
-4.99496e-01,0.282,0.262
-4.99488e-01,0.278,0.318
-4.99480e-01,0.29,0.254
-4.99472e-01,0.29,0.322
-4.99464e-01,0.274,0.262
-4.99456e-01,0.282,0.322
-4.99448e-01,0.29,0.262
-4.99440e-01,0.294,0.314
-4.99432e-01,0.29,0.258
-4.99424e-01,0.294,0.322
-4.99416e-01,0.286,0.258
-4.99408e-01,0.282,0.318
-4.99400e-01,0.302,0.262
-4.99392e-01,0.294,0.318
-4.99384e-01,0.298,0.262
-4.99376e-01,0.282,0.322
-4.99368e-01,0.294,0.262
-4.99360e-01,0.286,0.318
-4.99352e-01,0.298,0.258
-4.99344e-01,0.294,0.318
-4.99336e-01,0.286,0.262
-4.99328e-01,0.29,0.318
-4.99320e-01,0.29,0.262
-4.99312e-01,0.294,0.318
-4.99304e-01,0.29,0.262
-4.99296e-01,0.294,0.318
-4.99288e-01,0.278,0.258
-4.99280e-01,0.298,0.318
-4.99272e-01,0.27,0.262
-4.99264e-01,0.282,0.318
-4.99256e-01,0.298,0.262
-4.99248e-01,0.29,0.318
-4.99240e-01,0.286,0.258
-4.99232e-01,0.274,0.326
-4.99224e-01,0.29,0.258
-4.99216e-01,0.286,0.314
-4.99208e-01,0.278,0.258
-4.99200e-01,0.294,0.314
-4.99192e-01,0.282,0.262
-4.99184e-01,0.294,0.314
-4.99176e-01,0.29,0.262
-4.99168e-01,0.286,0.318
-4.99160e-01,0.294,0.258
-4.99152e-01,0.282,0.314
-4.99144e-01,0.286,0.262
-4.99136e-01,0.294,0.322
-4.99128e-01,0.294,0.258
-4.99120e-01,0.29,0.318
-4.99112e-01,0.294,0.262
-4.99104e-01,0.29,0.314
-4.99096e-01,0.286,0.262
-4.99088e-01,0.294,0.314
-4.99080e-01,0.274,0.262
-4.99072e-01,0.278,0.314
-4.99064e-01,0.286,0.262
-4.99056e-01,0.294,0.314
-4.99048e-01,0.29,0.262
-4.99040e-01,0.298,0.314
-4.99032e-01,0.282,0.262
-4.99024e-01,0.286,0.314
-4.99016e-01,0.29,0.262
-4.99008e-01,0.278,0.322
-4.99000e-01,0.282,0.262
-4.98992e-01,0.29,0.318
-4.98984e-01,0.29,0.262
-4.98976e-01,0.278,0.314
-4.98968e-01,0.274,0.254
-4.98960e-01,0.294,0.318
-4.98952e-01,0.29,0.262
-4.98944e-01,0.294,0.314
-4.98936e-01,0.29,0.262
-4.98928e-01,0.29,0.318
-4.98920e-01,0.302,0.262
-4.98912e-01,0.286,0.318
-4.98904e-01,0.29,0.258
-4.98896e-01,0.286,0.314
-4.98888e-01,0.294,0.262
-4.98880e-01,0.298,0.314
-4.98872e-01,0.278,0.262
-4.98864e-01,0.278,0.318
-4.98856e-01,0.286,0.262
-4.98848e-01,0.274,0.314
-4.98840e-01,0.278,0.262
-4.98832e-01,0.29,0.318
-4.98824e-01,0.286,0.258
-4.98816e-01,0.282,0.318
-4.98808e-01,0.282,0.258
-4.98800e-01,0.298,0.318
-4.98792e-01,0.278,0.258
-4.98784e-01,0.294,0.318
-4.98776e-01,0.29,0.262
-4.98768e-01,0.286,0.314
-4.98760e-01,0.278,0.262
-4.98752e-01,0.294,0.314
-4.98744e-01,0.294,0.258
-4.98736e-01,0.274,0.318
-4.98728e-01,0.294,0.262
-4.98720e-01,0.278,0.314
-4.98712e-01,0.286,0.254
-4.98704e-01,0.302,0.322
-4.98696e-01,0.282,0.258
-4.98688e-01,0.298,0.314
-4.98680e-01,0.282,0.258
-4.98672e-01,0.294,0.318
-4.98664e-01,0.278,0.258
-4.98656e-01,0.282,0.314
-4.98648e-01,0.286,0.262
-4.98640e-01,0.286,0.318
-4.98632e-01,0.286,0.262
-4.98624e-01,0.294,0.318
-4.98616e-01,0.29,0.258
-4.98608e-01,0.282,0.318
-4.98600e-01,0.29,0.258
-4.98592e-01,0.286,0.314
-4.98584e-01,0.29,0.262
-4.98576e-01,0.294,0.318
-4.98568e-01,0.282,0.258
-4.98560e-01,0.282,0.318
-4.98552e-01,0.29,0.262
-4.98544e-01,0.286,0.31
-4.98536e-01,0.278,0.254
-4.98528e-01,0.298,0.318
-4.98520e-01,0.278,0.258
-4.98512e-01,0.286,0.322
-4.98504e-01,0.286,0.258
-4.98496e-01,0.286,0.318
-4.98488e-01,0.282,0.262
-4.98480e-01,0.29,0.314
-4.98472e-01,0.286,0.262
-4.98464e-01,0.282,0.314
-4.98456e-01,0.286,0.258
-4.98448e-01,0.282,0.314
-4.98440e-01,0.294,0.258
-4.98432e-01,0.29,0.314
-4.98424e-01,0.286,0.258
-4.98416e-01,0.294,0.318
-4.98408e-01,0.29,0.258
-4.98400e-01,0.278,0.318
-4.98392e-01,0.294,0.262
-4.98384e-01,0.286,0.314
-4.98376e-01,0.294,0.262
-4.98368e-01,0.294,0.314
-4.98360e-01,0.29,0.258
-4.98352e-01,0.294,0.314
-4.98344e-01,0.274,0.258
-4.98336e-01,0.286,0.314
-4.98328e-01,0.274,0.254
-4.98320e-01,0.29,0.314
-4.98312e-01,0.282,0.262
-4.98304e-01,0.286,0.318
-4.98296e-01,0.29,0.262
-4.98288e-01,0.278,0.314
-4.98280e-01,0.286,0.258
-4.98272e-01,0.294,0.318
-4.98264e-01,0.282,0.258
-4.98256e-01,0.282,0.314
-4.98248e-01,0.282,0.258
-4.98240e-01,0.286,0.314
-4.98232e-01,0.286,0.258
-4.98224e-01,0.286,0.314
-4.98216e-01,0.278,0.258
-4.98208e-01,0.278,0.318
-4.98200e-01,0.29,0.258
-4.98192e-01,0.29,0.314
-4.98184e-01,0.282,0.258
-4.98176e-01,0.29,0.318
-4.98168e-01,0.282,0.254
-4.98160e-01,0.29,0.314
-4.98152e-01,0.282,0.254
-4.98144e-01,0.286,0.314
-4.98136e-01,0.29,0.258
-4.98128e-01,0.27,0.314
-4.98120e-01,0.29,0.262
-4.98112e-01,0.29,0.322
-4.98104e-01,0.282,0.258
-4.98096e-01,0.278,0.318
-4.98088e-01,0.278,0.262
-4.98080e-01,0.286,0.314
-4.98072e-01,0.29,0.258
-4.98064e-01,0.286,0.314
-4.98056e-01,0.302,0.258
-4.98048e-01,0.286,0.314
-4.98040e-01,0.294,0.258
-4.98032e-01,0.282,0.314
-4.98024e-01,0.286,0.258
-4.98016e-01,0.29,0.314
-4.98008e-01,0.298,0.262
-4.98000e-01,0.278,0.314
-4.97992e-01,0.294,0.258
-4.97984e-01,0.274,0.318
-4.97976e-01,0.282,0.258
-4.97968e-01,0.282,0.314
-4.97960e-01,0.29,0.254
-4.97952e-01,0.282,0.314
-4.97944e-01,0.294,0.258
-4.97936e-01,0.27,0.314
-4.97928e-01,0.294,0.258
-4.97920e-01,0.274,0.314
-4.97912e-01,0.286,0.258
-4.97904e-01,0.29,0.318
-4.97896e-01,0.294,0.254
-4.97888e-01,0.294,0.318
-4.97880e-01,0.294,0.258
-4.97872e-01,0.29,0.318
-4.97864e-01,0.282,0.262
-4.97856e-01,0.29,0.314
-4.97848e-01,0.286,0.254
-4.97840e-01,0.29,0.314
-4.97832e-01,0.302,0.262
-4.97824e-01,0.286,0.314
-4.97816e-01,0.294,0.258
-4.97808e-01,0.286,0.314
-4.97800e-01,0.278,0.254
-4.97792e-01,0.286,0.314
-4.97784e-01,0.274,0.258
-4.97776e-01,0.29,0.314
-4.97768e-01,0.294,0.254
-4.97760e-01,0.282,0.318
-4.97752e-01,0.286,0.258
-4.97744e-01,0.282,0.31
-4.97736e-01,0.278,0.258
-4.97728e-01,0.29,0.318
-4.97720e-01,0.278,0.254
-4.97712e-01,0.294,0.314
-4.97704e-01,0.286,0.258
-4.97696e-01,0.286,0.314
-4.97688e-01,0.29,0.258
-4.97680e-01,0.278,0.318
-4.97672e-01,0.282,0.262
-4.97664e-01,0.29,0.314
-4.97656e-01,0.29,0.258
-4.97648e-01,0.29,0.318
-4.97640e-01,0.29,0.254
-4.97632e-01,0.286,0.314
-4.97624e-01,0.278,0.254
-4.97616e-01,0.286,0.314
-4.97608e-01,0.294,0.258
-4.97600e-01,0.278,0.318
-4.97592e-01,0.286,0.254
-4.97584e-01,0.294,0.318
-4.97576e-01,0.278,0.254
-4.97568e-01,0.274,0.31
-4.97560e-01,0.274,0.262
-4.97552e-01,0.298,0.314
-4.97544e-01,0.278,0.254
-4.97536e-01,0.286,0.314
-4.97528e-01,0.298,0.258
-4.97520e-01,0.294,0.31
-4.97512e-01,0.29,0.258
-4.97504e-01,0.294,0.318
-4.97496e-01,0.278,0.258
-4.97488e-01,0.29,0.314
-4.97480e-01,0.286,0.258
-4.97472e-01,0.282,0.314
-4.97464e-01,0.29,0.258
-4.97456e-01,0.286,0.314
-4.97448e-01,0.282,0.258
-4.97440e-01,0.294,0.318
-4.97432e-01,0.278,0.262
-4.97424e-01,0.29,0.314
-4.97416e-01,0.286,0.258
-4.97408e-01,0.286,0.314
-4.97400e-01,0.278,0.258
-4.97392e-01,0.282,0.314
-4.97384e-01,0.286,0.262
-4.97376e-01,0.294,0.314
-4.97368e-01,0.274,0.258
-4.97360e-01,0.278,0.314
-4.97352e-01,0.298,0.258
-4.97344e-01,0.294,0.314
-4.97336e-01,0.294,0.262
-4.97328e-01,0.282,0.318
-4.97320e-01,0.29,0.258
-4.97312e-01,0.282,0.314
-4.97304e-01,0.282,0.258
-4.97296e-01,0.278,0.314
-4.97288e-01,0.302,0.258
-4.97280e-01,0.282,0.314
-4.97272e-01,0.298,0.258
-4.97264e-01,0.286,0.314
-4.97256e-01,0.29,0.258
-4.97248e-01,0.282,0.314
-4.97240e-01,0.282,0.258
-4.97232e-01,0.29,0.314
-4.97224e-01,0.286,0.258
-4.97216e-01,0.302,0.314
-4.97208e-01,0.306,0.258
-4.97200e-01,0.274,0.314
-4.97192e-01,0.286,0.258
-4.97184e-01,0.294,0.318
-4.97176e-01,0.282,0.258
-4.97168e-01,0.298,0.318
-4.97160e-01,0.282,0.258
-4.97152e-01,0.298,0.31
-4.97144e-01,0.278,0.258
-4.97136e-01,0.29,0.314
-4.97128e-01,0.29,0.258
-4.97120e-01,0.274,0.318
-4.97112e-01,0.298,0.258
-4.97104e-01,0.286,0.314
-4.97096e-01,0.286,0.258
-4.97088e-01,0.29,0.318
-4.97080e-01,0.29,0.258
-4.97072e-01,0.29,0.31
-4.97064e-01,0.294,0.254
-4.97056e-01,0.29,0.322
-4.97048e-01,0.294,0.258
-4.97040e-01,0.282,0.318
-4.97032e-01,0.29,0.258
-4.97024e-01,0.286,0.31
-4.97016e-01,0.286,0.258
-4.97008e-01,0.298,0.314
-4.97000e-01,0.286,0.258
-4.96992e-01,0.298,0.314
-4.96984e-01,0.278,0.246
-4.96976e-01,0.282,0.314
-4.96968e-01,0.278,0.254
-4.96960e-01,0.278,0.314
-4.96952e-01,0.302,0.254
-4.96944e-01,0.278,0.314
-4.96936e-01,0.278,0.254
-4.96928e-01,0.29,0.314
-4.96920e-01,0.294,0.258
-4.96912e-01,0.278,0.314
-4.96904e-01,0.298,0.258
-4.96896e-01,0.286,0.318
-4.96888e-01,0.29,0.258
-4.96880e-01,0.278,0.314
-4.96872e-01,0.286,0.254
-4.96864e-01,0.282,0.31
-4.96856e-01,0.278,0.254
-4.96848e-01,0.29,0.314
-4.96840e-01,0.278,0.258
-4.96832e-01,0.282,0.314
-4.96824e-01,0.294,0.258
-4.96816e-01,0.294,0.31
-4.96808e-01,0.282,0.258
-4.96800e-01,0.266,0.314
-4.96792e-01,0.27,0.254
-4.96784e-01,0.294,0.31
-4.96776e-01,0.282,0.254
-4.96768e-01,0.274,0.314
-4.96760e-01,0.294,0.254
-4.96752e-01,0.286,0.31
-4.96744e-01,0.282,0.258
-4.96736e-01,0.262,0.314
-4.96728e-01,0.274,0.258
-4.96720e-01,0.278,0.31
-4.96712e-01,0.274,0.258
-4.96704e-01,0.294,0.314
-4.96696e-01,0.278,0.254
-4.96688e-01,0.286,0.318
-4.96680e-01,0.274,0.258
-4.96672e-01,0.294,0.314
-4.96664e-01,0.286,0.258
-4.96656e-01,0.282,0.31
-4.96648e-01,0.286,0.254
-4.96640e-01,0.27,0.314
-4.96632e-01,0.298,0.262
-4.96624e-01,0.266,0.314
-4.96616e-01,0.286,0.258
-4.96608e-01,0.282,0.314
-4.96600e-01,0.282,0.258
-4.96592e-01,0.282,0.31
-4.96584e-01,0.282,0.254
-4.96576e-01,0.29,0.314
-4.96568e-01,0.29,0.254
-4.96560e-01,0.29,0.314
-4.96552e-01,0.294,0.262
-4.96544e-01,0.278,0.31
-4.96536e-01,0.29,0.258
-4.96528e-01,0.282,0.31
-4.96520e-01,0.282,0.258
-4.96512e-01,0.282,0.314
-4.96504e-01,0.286,0.254
-4.96496e-01,0.29,0.314
-4.96488e-01,0.282,0.258
-4.96480e-01,0.278,0.314
-4.96472e-01,0.282,0.258
-4.96464e-01,0.286,0.31
-4.96456e-01,0.29,0.258
-4.96448e-01,0.294,0.314
-4.96440e-01,0.286,0.254
-4.96432e-01,0.286,0.314
-4.96424e-01,0.282,0.258
-4.96416e-01,0.294,0.314
-4.96408e-01,0.282,0.254
-4.96400e-01,0.282,0.314
-4.96392e-01,0.282,0.258
-4.96384e-01,0.282,0.31
-4.96376e-01,0.286,0.262
-4.96368e-01,0.29,0.314
-4.96360e-01,0.282,0.254
-4.96352e-01,0.278,0.314
-4.96344e-01,0.286,0.258
-4.96336e-01,0.294,0.318
-4.96328e-01,0.282,0.258
-4.96320e-01,0.282,0.31
-4.96312e-01,0.282,0.25
-4.96304e-01,0.274,0.314
-4.96296e-01,0.278,0.25
-4.96288e-01,0.278,0.31
-4.96280e-01,0.29,0.258
-4.96272e-01,0.274,0.314
-4.96264e-01,0.294,0.258
-4.96256e-01,0.29,0.31
-4.96248e-01,0.29,0.258
-4.96240e-01,0.29,0.318
-4.96232e-01,0.278,0.254
-4.96224e-01,0.294,0.314
-4.96216e-01,0.274,0.254
-4.96208e-01,0.29,0.314
-4.96200e-01,0.282,0.258
-4.96192e-01,0.29,0.314
-4.96184e-01,0.294,0.258
-4.96176e-01,0.282,0.314
-4.96168e-01,0.282,0.258
-4.96160e-01,0.298,0.314
-4.96152e-01,0.286,0.262
-4.96144e-01,0.274,0.314
-4.96136e-01,0.278,0.258
-4.96128e-01,0.298,0.31
-4.96120e-01,0.278,0.254
-4.96112e-01,0.282,0.314
-4.96104e-01,0.286,0.258
-4.96096e-01,0.286,0.318
-4.96088e-01,0.282,0.258
-4.96080e-01,0.282,0.31
-4.96072e-01,0.282,0.258
-4.96064e-01,0.282,0.31
-4.96056e-01,0.278,0.254
-4.96048e-01,0.278,0.314
-4.96040e-01,0.294,0.254
-4.96032e-01,0.286,0.314
-4.96024e-01,0.274,0.254
-4.96016e-01,0.294,0.31
-4.96008e-01,0.29,0.254
-4.96000e-01,0.286,0.31
-4.95992e-01,0.282,0.254
-4.95984e-01,0.294,0.314
-4.95976e-01,0.294,0.258
-4.95968e-01,0.29,0.314
-4.95960e-01,0.286,0.258
-4.95952e-01,0.282,0.31
-4.95944e-01,0.29,0.258
-4.95936e-01,0.274,0.314
-4.95928e-01,0.282,0.258
-4.95920e-01,0.286,0.31
-4.95912e-01,0.282,0.254
-4.95904e-01,0.282,0.314
-4.95896e-01,0.27,0.258
-4.95888e-01,0.29,0.314
-4.95880e-01,0.27,0.258
-4.95872e-01,0.274,0.314
-4.95864e-01,0.298,0.258
-4.95856e-01,0.282,0.314
-4.95848e-01,0.286,0.258
-4.95840e-01,0.278,0.31
-4.95832e-01,0.278,0.258
-4.95824e-01,0.29,0.314
-4.95816e-01,0.278,0.258
-4.95808e-01,0.282,0.314
-4.95800e-01,0.29,0.254
-4.95792e-01,0.27,0.314
-4.95784e-01,0.29,0.254
-4.95776e-01,0.278,0.318
-4.95768e-01,0.29,0.254
-4.95760e-01,0.278,0.314
-4.95752e-01,0.286,0.258
-4.95744e-01,0.29,0.314
-4.95736e-01,0.29,0.254
-4.95728e-01,0.29,0.314
-4.95720e-01,0.29,0.258
-4.95712e-01,0.286,0.314
-4.95704e-01,0.29,0.258
-4.95696e-01,0.282,0.314
-4.95688e-01,0.278,0.258
-4.95680e-01,0.282,0.31
-4.95672e-01,0.282,0.258
-4.95664e-01,0.29,0.31
-4.95656e-01,0.282,0.258
-4.95648e-01,0.286,0.31
-4.95640e-01,0.278,0.254
-4.95632e-01,0.27,0.31
-4.95624e-01,0.278,0.254
-4.95616e-01,0.282,0.314
-4.95608e-01,0.282,0.258
-4.95600e-01,0.266,0.314
-4.95592e-01,0.278,0.258
-4.95584e-01,0.294,0.31
-4.95576e-01,0.294,0.258
-4.95568e-01,0.278,0.314
-4.95560e-01,0.294,0.254
-4.95552e-01,0.278,0.314
-4.95544e-01,0.306,0.254
-4.95536e-01,0.29,0.314
-4.95528e-01,0.27,0.258
-4.95520e-01,0.29,0.31
-4.95512e-01,0.286,0.254
-4.95504e-01,0.282,0.31
-4.95496e-01,0.29,0.254
-4.95488e-01,0.286,0.314
-4.95480e-01,0.294,0.258
-4.95472e-01,0.278,0.314
-4.95464e-01,0.282,0.258
-4.95456e-01,0.29,0.314
-4.95448e-01,0.27,0.254
-4.95440e-01,0.274,0.318
-4.95432e-01,0.282,0.254
-4.95424e-01,0.278,0.314
-4.95416e-01,0.282,0.254
-4.95408e-01,0.286,0.318
-4.95400e-01,0.29,0.258
-4.95392e-01,0.294,0.31
-4.95384e-01,0.274,0.254
-4.95376e-01,0.282,0.31
-4.95368e-01,0.27,0.25
-4.95360e-01,0.286,0.31
-4.95352e-01,0.286,0.258
-4.95344e-01,0.282,0.31
-4.95336e-01,0.278,0.254
-4.95328e-01,0.282,0.314
-4.95320e-01,0.29,0.254
-4.95312e-01,0.278,0.314
-4.95304e-01,0.282,0.258
-4.95296e-01,0.286,0.31
-4.95288e-01,0.282,0.258
-4.95280e-01,0.278,0.314
-4.95272e-01,0.286,0.254
-4.95264e-01,0.278,0.31
-4.95256e-01,0.29,0.254
-4.95248e-01,0.282,0.314
-4.95240e-01,0.29,0.25
-4.95232e-01,0.286,0.314
-4.95224e-01,0.286,0.258
-4.95216e-01,0.278,0.31
-4.95208e-01,0.278,0.258
-4.95200e-01,0.282,0.31
-4.95192e-01,0.286,0.25
-4.95184e-01,0.286,0.314
-4.95176e-01,0.298,0.254
-4.95168e-01,0.282,0.31
-4.95160e-01,0.274,0.258
-4.95152e-01,0.274,0.31
-4.95144e-01,0.282,0.25
-4.95136e-01,0.294,0.31
-4.95128e-01,0.274,0.258
-4.95120e-01,0.294,0.31
-4.95112e-01,0.282,0.254
-4.95104e-01,0.298,0.314
-4.95096e-01,0.29,0.254
-4.95088e-01,0.286,0.31
-4.95080e-01,0.274,0.254
-4.95072e-01,0.286,0.31
-4.95064e-01,0.27,0.254
-4.95056e-01,0.29,0.314
-4.95048e-01,0.286,0.258
-4.95040e-01,0.282,0.31
-4.95032e-01,0.294,0.25
-4.95024e-01,0.282,0.31
-4.95016e-01,0.294,0.254
-4.95008e-01,0.274,0.314
-4.95000e-01,0.29,0.254
-4.94992e-01,0.282,0.314
-4.94984e-01,0.29,0.254
-4.94976e-01,0.29,0.31
-4.94968e-01,0.274,0.254
-4.94960e-01,0.29,0.314
-4.94952e-01,0.278,0.254
-4.94944e-01,0.282,0.314
-4.94936e-01,0.278,0.258
-4.94928e-01,0.282,0.31
-4.94920e-01,0.278,0.25
-4.94912e-01,0.286,0.31
-4.94904e-01,0.274,0.254
-4.94896e-01,0.282,0.314
-4.94888e-01,0.282,0.258
-4.94880e-01,0.282,0.31
-4.94872e-01,0.29,0.258
-4.94864e-01,0.286,0.31
-4.94856e-01,0.282,0.254
-4.94848e-01,0.278,0.314
-4.94840e-01,0.29,0.254
-4.94832e-01,0.29,0.318
-4.94824e-01,0.286,0.254
-4.94816e-01,0.282,0.31
-4.94808e-01,0.282,0.254
-4.94800e-01,0.282,0.31
-4.94792e-01,0.282,0.258
-4.94784e-01,0.278,0.31
-4.94776e-01,0.29,0.254
-4.94768e-01,0.27,0.314
-4.94760e-01,0.286,0.254
-4.94752e-01,0.278,0.314
-4.94744e-01,0.282,0.258
-4.94736e-01,0.282,0.31
-4.94728e-01,0.282,0.254
-4.94720e-01,0.282,0.314
-4.94712e-01,0.278,0.25
-4.94704e-01,0.262,0.314
-4.94696e-01,0.282,0.254
-4.94688e-01,0.282,0.31
-4.94680e-01,0.282,0.258
-4.94672e-01,0.282,0.314
-4.94664e-01,0.27,0.254
-4.94656e-01,0.29,0.31
-4.94648e-01,0.274,0.254
-4.94640e-01,0.294,0.31
-4.94632e-01,0.29,0.254
-4.94624e-01,0.278,0.314
-4.94616e-01,0.282,0.258
-4.94608e-01,0.29,0.314
-4.94600e-01,0.294,0.254
-4.94592e-01,0.286,0.31
-4.94584e-01,0.294,0.254
-4.94576e-01,0.282,0.314
-4.94568e-01,0.27,0.258
-4.94560e-01,0.282,0.31
-4.94552e-01,0.274,0.25
-4.94544e-01,0.29,0.314
-4.94536e-01,0.286,0.254
-4.94528e-01,0.286,0.31
-4.94520e-01,0.27,0.258
-4.94512e-01,0.294,0.31
-4.94504e-01,0.286,0.258
-4.94496e-01,0.286,0.314
-4.94488e-01,0.29,0.254
-4.94480e-01,0.282,0.31
-4.94472e-01,0.294,0.258
-4.94464e-01,0.274,0.314
-4.94456e-01,0.27,0.254
-4.94448e-01,0.29,0.314
-4.94440e-01,0.286,0.258
-4.94432e-01,0.298,0.31
-4.94424e-01,0.278,0.258
-4.94416e-01,0.286,0.318
-4.94408e-01,0.294,0.254
-4.94400e-01,0.282,0.314
-4.94392e-01,0.29,0.25
-4.94384e-01,0.274,0.31
-4.94376e-01,0.282,0.254
-4.94368e-01,0.278,0.31
-4.94360e-01,0.29,0.25
-4.94352e-01,0.29,0.314
-4.94344e-01,0.302,0.254
-4.94336e-01,0.286,0.314
-4.94328e-01,0.278,0.254
-4.94320e-01,0.29,0.31
-4.94312e-01,0.282,0.254
-4.94304e-01,0.27,0.306
-4.94296e-01,0.29,0.25
-4.94288e-01,0.294,0.31
-4.94280e-01,0.27,0.254
-4.94272e-01,0.282,0.31
-4.94264e-01,0.278,0.254
-4.94256e-01,0.282,0.314
-4.94248e-01,0.278,0.254
-4.94240e-01,0.282,0.314
-4.94232e-01,0.29,0.258
-4.94224e-01,0.286,0.314
-4.94216e-01,0.274,0.254
-4.94208e-01,0.282,0.314
-4.94200e-01,0.282,0.254
-4.94192e-01,0.286,0.314
-4.94184e-01,0.278,0.258
-4.94176e-01,0.286,0.31
-4.94168e-01,0.282,0.254
-4.94160e-01,0.282,0.31
-4.94152e-01,0.278,0.25
-4.94144e-01,0.286,0.314
-4.94136e-01,0.274,0.254
-4.94128e-01,0.278,0.31
-4.94120e-01,0.294,0.25
-4.94112e-01,0.29,0.314
-4.94104e-01,0.29,0.254
-4.94096e-01,0.286,0.31
-4.94088e-01,0.274,0.254
-4.94080e-01,0.29,0.314
-4.94072e-01,0.278,0.25
-4.94064e-01,0.286,0.31
-4.94056e-01,0.282,0.254
-4.94048e-01,0.278,0.31
-4.94040e-01,0.282,0.254
-4.94032e-01,0.278,0.31
-4.94024e-01,0.29,0.254
-4.94016e-01,0.274,0.31
-4.94008e-01,0.278,0.254
-4.94000e-01,0.29,0.31
-4.93992e-01,0.274,0.254
-4.93984e-01,0.278,0.31
-4.93976e-01,0.282,0.254
-4.93968e-01,0.282,0.314
-4.93960e-01,0.27,0.258
-4.93952e-01,0.29,0.314
-4.93944e-01,0.286,0.254
-4.93936e-01,0.29,0.31
-4.93928e-01,0.286,0.254
-4.93920e-01,0.29,0.31
-4.93912e-01,0.282,0.254
-4.93904e-01,0.298,0.314
-4.93896e-01,0.274,0.258
-4.93888e-01,0.278,0.31
-4.93880e-01,0.282,0.25
-4.93872e-01,0.286,0.31
-4.93864e-01,0.278,0.258
-4.93856e-01,0.294,0.31
-4.93848e-01,0.278,0.25
-4.93840e-01,0.278,0.31
-4.93832e-01,0.286,0.254
-4.93824e-01,0.278,0.318
-4.93816e-01,0.29,0.254
-4.93808e-01,0.282,0.31
-4.93800e-01,0.274,0.254
-4.93792e-01,0.27,0.306
-4.93784e-01,0.282,0.254
-4.93776e-01,0.27,0.31
-4.93768e-01,0.286,0.254
-4.93760e-01,0.278,0.31
-4.93752e-01,0.29,0.254
-4.93744e-01,0.262,0.306
-4.93736e-01,0.282,0.254
-4.93728e-01,0.286,0.306
-4.93720e-01,0.29,0.254
-4.93712e-01,0.294,0.31
-4.93704e-01,0.278,0.254
-4.93696e-01,0.29,0.306
-4.93688e-01,0.274,0.254
-4.93680e-01,0.282,0.31
-4.93672e-01,0.286,0.254
-4.93664e-01,0.278,0.31
-4.93656e-01,0.278,0.254
-4.93648e-01,0.286,0.31
-4.93640e-01,0.278,0.254
-4.93632e-01,0.278,0.31
-4.93624e-01,0.286,0.254
-4.93616e-01,0.29,0.31
-4.93608e-01,0.282,0.254
