Messung_Energiemessung_Harvester2/Harvester_alt/10kmh/Harvester_10kOhm.CSV

Model,MSO2024
Firmware Version,1.52

Point Format,Y
Horizontal Units,S
Horizontal Scale,0.1
Sample Interval,8e-06
Filter Frequency,2e+08
Record Length,125000
Gating,0.0% to 100.0%
Probe Attenuation,10
Vertical Units,V
Vertical Offset,0
Vertical Scale,0.02
Label,
TIME,CH1
-5.00000e-01,0.0164656
-4.99992e-01,0.016025
-4.99984e-01,0.0150063
-4.99976e-01,0.0154844
-4.99968e-01,0.0153125
-4.99960e-01,0.0144844
-4.99952e-01,0.0164063
-4.99944e-01,0.01525
-4.99936e-01,0.0156156
-4.99928e-01,0.0149688
-4.99920e-01,0.0160438
-4.99912e-01,0.0160375
-4.99904e-01,0.0155281
-4.99896e-01,0.0152531
-4.99888e-01,0.0150156
-4.99880e-01,0.0151719
-4.99872e-01,0.0152125
-4.99864e-01,0.0156656
-4.99856e-01,0.0154656
-4.99848e-01,0.015925
-4.99840e-01,0.0165844
-4.99832e-01,0.0155938
-4.99824e-01,0.0150625
-4.99816e-01,0.0150875
-4.99808e-01,0.0161094
-4.99800e-01,0.01495
-4.99792e-01,0.0156594
-4.99784e-01,0.0145531
-4.99776e-01,0.0159375
-4.99768e-01,0.0162625
-4.99760e-01,0.0153781
-4.99752e-01,0.0162844
-4.99744e-01,0.0163906
-4.99736e-01,0.0160875
-4.99728e-01,0.0160156
-4.99720e-01,0.0163969
-4.99712e-01,0.0153875
-4.99704e-01,0.0149469
-4.99696e-01,0.0148594
-4.99688e-01,0.0168344
-4.99680e-01,0.0153875
-4.99672e-01,0.0161375
-4.99664e-01,0.0163563
-4.99656e-01,0.0158188
-4.99648e-01,0.0156406
-4.99640e-01,0.0161781
-4.99632e-01,0.0159969
-4.99624e-01,0.0155938
-4.99616e-01,0.015875
-4.99608e-01,0.0149
-4.99600e-01,0.0148719
-4.99592e-01,0.0155281
-4.99584e-01,0.0163469
-4.99576e-01,0.016775
-4.99568e-01,0.0161656
-4.99560e-01,0.0164563
-4.99552e-01,0.0156531
-4.99544e-01,0.0149563
-4.99536e-01,0.0161063
-4.99528e-01,0.0162188
-4.99520e-01,0.0145188
-4.99512e-01,0.0166281
-4.99504e-01,0.0146
-4.99496e-01,0.0168438
-4.99488e-01,0.0151625
-4.99480e-01,0.0156375
-4.99472e-01,0.0161844
-4.99464e-01,0.0149938
-4.99456e-01,0.0151406
-4.99448e-01,0.0154594
-4.99440e-01,0.0159219
-4.99432e-01,0.0148781
-4.99424e-01,0.0154375
-4.99416e-01,0.0165969
-4.99408e-01,0.0147063
-4.99400e-01,0.0160781
-4.99392e-01,0.0156906
-4.99384e-01,0.0155844
-4.99376e-01,0.0161031
-4.99368e-01,0.014525
-4.99360e-01,0.0160031
-4.99352e-01,0.0161094
-4.99344e-01,0.0154625
-4.99336e-01,0.015175
-4.99328e-01,0.0159156
-4.99320e-01,0.0150781
-4.99312e-01,0.0155906
-4.99304e-01,0.0152125
-4.99296e-01,0.0160813
-4.99288e-01,0.0152906
-4.99280e-01,0.0162219
-4.99272e-01,0.0167844
-4.99264e-01,0.0153156
-4.99256e-01,0.0164875
-4.99248e-01,0.0164688
-4.99240e-01,0.0162719
-4.99232e-01,0.0151563
-4.99224e-01,0.0156813
-4.99216e-01,0.0158219
-4.99208e-01,0.0155688
-4.99200e-01,0.0150719
-4.99192e-01,0.0162313
-4.99184e-01,0.0163531
-4.99176e-01,0.0153406
-4.99168e-01,0.0149531
-4.99160e-01,0.0152719
-4.99152e-01,0.013925
-4.99144e-01,0.0136094
-4.99136e-01,0.0146
-4.99128e-01,0.0154906
-4.99120e-01,0.015175
-4.99112e-01,0.0156281
-4.99104e-01,0.0156219
-4.99096e-01,0.0154813
-4.99088e-01,0.0159219
-4.99080e-01,0.0153156
-4.99072e-01,0.0154625
-4.99064e-01,0.0146531
-4.99056e-01,0.0163563
-4.99048e-01,0.0147969
-4.99040e-01,0.0159594
-4.99032e-01,0.0154406
-4.99024e-01,0.014975
-4.99016e-01,0.0153469
-4.99008e-01,0.0142219
-4.99000e-01,0.0148031
-4.98992e-01,0.0157094
-4.98984e-01,0.0165781
-4.98976e-01,0.0151938
-4.98968e-01,0.0159813
-4.98960e-01,0.0144063
-4.98952e-01,0.0154875
-4.98944e-01,0.0150969
-4.98936e-01,0.0154969
-4.98928e-01,0.0144063
-4.98920e-01,0.0159594
-4.98912e-01,0.0153
-4.98904e-01,0.016275
-4.98896e-01,0.0148063
-4.98888e-01,0.0162969
-4.98880e-01,0.0161313
-4.98872e-01,0.0156688
-4.98864e-01,0.0161688
-4.98856e-01,0.01545
-4.98848e-01,0.0157156
-4.98840e-01,0.0155875
-4.98832e-01,0.0153625
-4.98824e-01,0.0157375
-4.98816e-01,0.0152406
-4.98808e-01,0.0169438
-4.98800e-01,0.0152
-4.98792e-01,0.0156
-4.98784e-01,0.0152563
-4.98776e-01,0.0152781
-4.98768e-01,0.0159844
-4.98760e-01,0.0164719
-4.98752e-01,0.0161625
-4.98744e-01,0.0154125
-4.98736e-01,0.0159875
-4.98728e-01,0.0152938
-4.98720e-01,0.0156688
-4.98712e-01,0.0153844
-4.98704e-01,0.0154938
-4.98696e-01,0.0164313
-4.98688e-01,0.0152438
-4.98680e-01,0.0146531
-4.98672e-01,0.0149281
-4.98664e-01,0.0166188
-4.98656e-01,0.0145188
-4.98648e-01,0.0153219
-4.98640e-01,0.016925
-4.98632e-01,0.013975
-4.98624e-01,0.0144438
-4.98616e-01,0.0162344
-4.98608e-01,0.0157813
-4.98600e-01,0.01695
-4.98592e-01,0.0159125
-4.98584e-01,0.0157813
-4.98576e-01,0.0160781
-4.98568e-01,0.0159969
-4.98560e-01,0.0166719
-4.98552e-01,0.0156063
-4.98544e-01,0.0162281
-4.98536e-01,0.0157969
-4.98528e-01,0.0150844
-4.98520e-01,0.0160125
-4.98512e-01,0.0146063
-4.98504e-01,0.0150281
-4.98496e-01,0.0138781
-4.98488e-01,0.0165781
-4.98480e-01,0.0144719
-4.98472e-01,0.0142688
-4.98464e-01,0.0156156
-4.98456e-01,0.0171219
-4.98448e-01,0.0151125
-4.98440e-01,0.0152531
-4.98432e-01,0.0149406
-4.98424e-01,0.0153344
-4.98416e-01,0.0140938
-4.98408e-01,0.0148563
-4.98400e-01,0.0165
-4.98392e-01,0.0165063
-4.98384e-01,0.0136781
-4.98376e-01,0.0146063
-4.98368e-01,0.016125
-4.98360e-01,0.0148906
-4.98352e-01,0.0159313
-4.98344e-01,0.0174781
-4.98336e-01,0.015
-4.98328e-01,0.0151844
-4.98320e-01,0.0151844
-4.98312e-01,0.0161844
-4.98304e-01,0.0153969
-4.98296e-01,0.0160406
-4.98288e-01,0.0159188
-4.98280e-01,0.0147688
-4.98272e-01,0.0155
-4.98264e-01,0.0151781
-4.98256e-01,0.0132438
-4.98248e-01,0.0164406
-4.98240e-01,0.0147781
-4.98232e-01,0.016125
-4.98224e-01,0.0155438
-4.98216e-01,0.0154156
-4.98208e-01,0.016325
-4.98200e-01,0.0157438
-4.98192e-01,0.0151844
-4.98184e-01,0.016425
-4.98176e-01,0.0161063
-4.98168e-01,0.0165156
-4.98160e-01,0.0153844
-4.98152e-01,0.01575
-4.98144e-01,0.0164125
-4.98136e-01,0.0152406
-4.98128e-01,0.0155594
-4.98120e-01,0.0158375
-4.98112e-01,0.0150063
-4.98104e-01,0.01655
-4.98096e-01,0.0154438
-4.98088e-01,0.0158531
-4.98080e-01,0.0151156
-4.98072e-01,0.0165656
-4.98064e-01,0.0156188
-4.98056e-01,0.0152125
-4.98048e-01,0.0159031
-4.98040e-01,0.0142188
-4.98032e-01,0.016325
-4.98024e-01,0.0153156
-4.98016e-01,0.0149313
-4.98008e-01,0.015775
-4.98000e-01,0.0146813
-4.97992e-01,0.0143906
-4.97984e-01,0.0158281
-4.97976e-01,0.0158938
-4.97968e-01,0.014625
-4.97960e-01,0.0152313
-4.97952e-01,0.0149375
-4.97944e-01,0.0164813
-4.97936e-01,0.0154094
-4.97928e-01,0.0147219
-4.97920e-01,0.0165031
-4.97912e-01,0.0163313
-4.97904e-01,0.0156125
-4.97896e-01,0.0150156
-4.97888e-01,0.0158875
-4.97880e-01,0.014475
-4.97872e-01,0.0158
-4.97864e-01,0.0158
-4.97856e-01,0.015225
-4.97848e-01,0.0149406
-4.97840e-01,0.0154063
-4.97832e-01,0.0162781
-4.97824e-01,0.0151281
-4.97816e-01,0.0155125
-4.97808e-01,0.0152313
-4.97800e-01,0.0166094
-4.97792e-01,0.0157313
-4.97784e-01,0.0148875
-4.97776e-01,0.0157656
-4.97768e-01,0.0151469
-4.97760e-01,0.0166594
-4.97752e-01,0.0165156
-4.97744e-01,0.0157375
-4.97736e-01,0.0157156
-4.97728e-01,0.0142469
-4.97720e-01,0.0166844
-4.97712e-01,0.0158063
-4.97704e-01,0.0157656
-4.97696e-01,0.01375
-4.97688e-01,0.0155938
-4.97680e-01,0.016725
-4.97672e-01,0.0141813
-4.97664e-01,0.0160688
-4.97656e-01,0.0141969
-4.97648e-01,0.014725
-4.97640e-01,0.0159656
-4.97632e-01,0.0152781
-4.97624e-01,0.0144469
-4.97616e-01,0.0158188
-4.97608e-01,0.0150281
-4.97600e-01,0.0160719
-4.97592e-01,0.0157625
-4.97584e-01,0.0159219
-4.97576e-01,0.0150906
-4.97568e-01,0.0155656
-4.97560e-01,0.0153406
-4.97552e-01,0.0152844
-4.97544e-01,0.0151844
-4.97536e-01,0.0143031
-4.97528e-01,0.0154719
-4.97520e-01,0.0147813
-4.97512e-01,0.0157125
-4.97504e-01,0.0171906
-4.97496e-01,0.0163094
-4.97488e-01,0.0148906
-4.97480e-01,0.0159344
-4.97472e-01,0.0159156
-4.97464e-01,0.0164
-4.97456e-01,0.0148938
-4.97448e-01,0.0163125
-4.97440e-01,0.0168563
-4.97432e-01,0.0155563
-4.97424e-01,0.0155
-4.97416e-01,0.0156438
-4.97408e-01,0.0160531
-4.97400e-01,0.0164313
-4.97392e-01,0.01485
-4.97384e-01,0.0152969
-4.97376e-01,0.0164969
-4.97368e-01,0.0157313
-4.97360e-01,0.0148969
-4.97352e-01,0.0137281
-4.97344e-01,0.0161281
-4.97336e-01,0.0157906
-4.97328e-01,0.0148844
-4.97320e-01,0.0152531
-4.97312e-01,0.016175
-4.97304e-01,0.0153125
-4.97296e-01,0.0157625
-4.97288e-01,0.015975
-4.97280e-01,0.0144563
-4.97272e-01,0.0155406
-4.97264e-01,0.0154219
-4.97256e-01,0.0156813
-4.97248e-01,0.0150375
-4.97240e-01,0.0154344
-4.97232e-01,0.0154813
-4.97224e-01,0.0149563
-4.97216e-01,0.0151438
-4.97208e-01,0.0168156
-4.97200e-01,0.0156938
-4.97192e-01,0.0159719
-4.97184e-01,0.0157344
-4.97176e-01,0.0155344
-4.97168e-01,0.0154031
-4.97160e-01,0.0156844
-4.97152e-01,0.0152375
-4.97144e-01,0.0155406
-4.97136e-01,0.0154375
-4.97128e-01,0.0172375
-4.97120e-01,0.01525
-4.97112e-01,0.0156031
-4.97104e-01,0.0163625
-4.97096e-01,0.0146156
-4.97088e-01,0.0159813
-4.97080e-01,0.01565
-4.97072e-01,0.01485
-4.97064e-01,0.0154594
-4.97056e-01,0.0155719
-4.97048e-01,0.0146719
-4.97040e-01,0.0150438
-4.97032e-01,0.0159938
-4.97024e-01,0.0149
-4.97016e-01,0.0156469
-4.97008e-01,0.0164688
-4.97000e-01,0.0147156
-4.96992e-01,0.0156094
-4.96984e-01,0.0165344
-4.96976e-01,0.0149719
-4.96968e-01,0.0165344
-4.96960e-01,0.0159156
-4.96952e-01,0.0137875
-4.96944e-01,0.014975
-4.96936e-01,0.01485
-4.96928e-01,0.0156688
-4.96920e-01,0.0157969
-4.96912e-01,0.0147094
-4.96904e-01,0.015925
-4.96896e-01,0.0147813
-4.96888e-01,0.014825
-4.96880e-01,0.0144469
-4.96872e-01,0.0149688
-4.96864e-01,0.0156094
-4.96856e-01,0.0148188
-4.96848e-01,0.0148469
-4.96840e-01,0.0143531
-4.96832e-01,0.0165906
-4.96824e-01,0.0152938
-4.96816e-01,0.0140969
-4.96808e-01,0.0168625
-4.96800e-01,0.0133188
-4.96792e-01,0.0153375
-4.96784e-01,0.0148188
-4.96776e-01,0.0155688
-4.96768e-01,0.0169219
-4.96760e-01,0.0170906
-4.96752e-01,0.015625
-4.96744e-01,0.0154719
-4.96736e-01,0.0144
-4.96728e-01,0.0141438
-4.96720e-01,0.0158125
-4.96712e-01,0.0143719
-4.96704e-01,0.01525
-4.96696e-01,0.0155875
-4.96688e-01,0.01475
-4.96680e-01,0.0149438
-4.96672e-01,0.0144469
-4.96664e-01,0.0145906
-4.96656e-01,0.0149625
-4.96648e-01,0.0157344
-4.96640e-01,0.0153969
-4.96632e-01,0.0145781
-4.96624e-01,0.0155688
-4.96616e-01,0.0164406
-4.96608e-01,0.0164344
-4.96600e-01,0.0153938
-4.96592e-01,0.0147
-4.96584e-01,0.0155125
-4.96576e-01,0.0143094
-4.96568e-01,0.0151781
-4.96560e-01,0.014825
-4.96552e-01,0.0153344
-4.96544e-01,0.0157438
-4.96536e-01,0.0148656
-4.96528e-01,0.015675
-4.96520e-01,0.0155906
-4.96512e-01,0.0155656
-4.96504e-01,0.014775
-4.96496e-01,0.015825
-4.96488e-01,0.0158938
-4.96480e-01,0.0158156
-4.96472e-01,0.0149438
-4.96464e-01,0.0168406
-4.96456e-01,0.0162438
-4.96448e-01,0.0137906
-4.96440e-01,0.0160625
-4.96432e-01,0.0154656
-4.96424e-01,0.0149188
-4.96416e-01,0.0153188
-4.96408e-01,0.0148531
-4.96400e-01,0.0150031
-4.96392e-01,0.0136406
-4.96384e-01,0.0153875
-4.96376e-01,0.0153438
-4.96368e-01,0.0151813
-4.96360e-01,0.0150594
-4.96352e-01,0.0149719
-4.96344e-01,0.0148688
-4.96336e-01,0.0152094
-4.96328e-01,0.0150844
-4.96320e-01,0.0153938
-4.96312e-01,0.01455
-4.96304e-01,0.0146156
-4.96296e-01,0.0158531
-4.96288e-01,0.015225
-4.96280e-01,0.0151531
-4.96272e-01,0.0145406
-4.96264e-01,0.0148063
-4.96256e-01,0.0159531
-4.96248e-01,0.0151844
-4.96240e-01,0.0157031
-4.96232e-01,0.0157469
-4.96224e-01,0.0146625
-4.96216e-01,0.0163688
-4.96208e-01,0.0155938
-4.96200e-01,0.0159219
-4.96192e-01,0.0159281
-4.96184e-01,0.0164063
-4.96176e-01,0.0150406
-4.96168e-01,0.0158313
-4.96160e-01,0.0154156
-4.96152e-01,0.015225
-4.96144e-01,0.0156375
-4.96136e-01,0.0148188
-4.96128e-01,0.0147875
-4.96120e-01,0.0155469
-4.96112e-01,0.0146
-4.96104e-01,0.0153188
-4.96096e-01,0.0142906
-4.96088e-01,0.0159688
-4.96080e-01,0.0152219
-4.96072e-01,0.0165875
-4.96064e-01,0.0155813
-4.96056e-01,0.0162344
-4.96048e-01,0.0155469
-4.96040e-01,0.0143844
-4.96032e-01,0.0158344
-4.96024e-01,0.0150469
-4.96016e-01,0.0173563
-4.96008e-01,0.0148094
-4.96000e-01,0.0150125
-4.95992e-01,0.0150594
-4.95984e-01,0.0152875
-4.95976e-01,0.0145875
-4.95968e-01,0.0151063
-4.95960e-01,0.0152406
-4.95952e-01,0.0160344
-4.95944e-01,0.0160406
-4.95936e-01,0.0145563
-4.95928e-01,0.0155563
-4.95920e-01,0.0161719
-4.95912e-01,0.01495
-4.95904e-01,0.0163906
-4.95896e-01,0.0155281
-4.95888e-01,0.0153031
-4.95880e-01,0.0163156
-4.95872e-01,0.0157813
-4.95864e-01,0.0146188
-4.95856e-01,0.01455
-4.95848e-01,0.01455
-4.95840e-01,0.0147594
-4.95832e-01,0.0143781
-4.95824e-01,0.0151156
-4.95816e-01,0.0156375
-4.95808e-01,0.0155281
-4.95800e-01,0.0157438
-4.95792e-01,0.015675
-4.95784e-01,0.0154031
-4.95776e-01,0.0155438
-4.95768e-01,0.0166969
-4.95760e-01,0.0161438
-4.95752e-01,0.0150469
-4.95744e-01,0.0154719
-4.95736e-01,0.015675
-4.95728e-01,0.0161063
-4.95720e-01,0.0153094
-4.95712e-01,0.0146656
-4.95704e-01,0.0155844
-4.95696e-01,0.0146188
-4.95688e-01,0.0161906
-4.95680e-01,0.014575
-4.95672e-01,0.0158656
-4.95664e-01,0.015075
-4.95656e-01,0.0159719
-4.95648e-01,0.0150375
-4.95640e-01,0.0156594
-4.95632e-01,0.0159438
-4.95624e-01,0.0154875
-4.95616e-01,0.0162438
-4.95608e-01,0.0133938
-4.95600e-01,0.0150156
-4.95592e-01,0.0149344
-4.95584e-01,0.0162563
-4.95576e-01,0.0152688
-4.95568e-01,0.0146375
-4.95560e-01,0.0158875
-4.95552e-01,0.0161844
-4.95544e-01,0.0156969
-4.95536e-01,0.0156781
-4.95528e-01,0.0160969
-4.95520e-01,0.016625
-4.95512e-01,0.0166625
-4.95504e-01,0.0148906
-4.95496e-01,0.0167625
-4.95488e-01,0.01455
-4.95480e-01,0.0153188
-4.95472e-01,0.0153125
-4.95464e-01,0.0160094
-4.95456e-01,0.0158375
-4.95448e-01,0.0156844
-4.95440e-01,0.0154719
-4.95432e-01,0.0167938
-4.95424e-01,0.0140281
-4.95416e-01,0.0161094
-4.95408e-01,0.0137188
-4.95400e-01,0.015575
-4.95392e-01,0.0144813
-4.95384e-01,0.0155969
-4.95376e-01,0.0146656
-4.95368e-01,0.0155156
-4.95360e-01,0.0154781
-4.95352e-01,0.0145688
-4.95344e-01,0.0151906
-4.95336e-01,0.0151156
-4.95328e-01,0.014325
-4.95320e-01,0.0165281
-4.95312e-01,0.0142531
-4.95304e-01,0.0155406
-4.95296e-01,0.0150656
-4.95288e-01,0.0135625
-4.95280e-01,0.0163031
-4.95272e-01,0.015325
-4.95264e-01,0.0153719
-4.95256e-01,0.0149656
-4.95248e-01,0.0151719
-4.95240e-01,0.0151
-4.95232e-01,0.0156063
-4.95224e-01,0.0161781
-4.95216e-01,0.0141469
-4.95208e-01,0.0157906
-4.95200e-01,0.0152625
-4.95192e-01,0.0161406
-4.95184e-01,0.0141219
-4.95176e-01,0.0147125
-4.95168e-01,0.0162344
-4.95160e-01,0.0150063
-4.95152e-01,0.01515
-4.95144e-01,0.0157438
-4.95136e-01,0.0151938
-4.95128e-01,0.0164531
-4.95120e-01,0.01505
-4.95112e-01,0.0159938
-4.95104e-01,0.0164469
-4.95096e-01,0.0152219
-4.95088e-01,0.0153219
-4.95080e-01,0.016
-4.95072e-01,0.0143875
-4.95064e-01,0.0152656
-4.95056e-01,0.01495
-4.95048e-01,0.0150875
-4.95040e-01,0.0159875
-4.95032e-01,0.0151406
-4.95024e-01,0.0151813
-4.95016e-01,0.01585
-4.95008e-01,0.0144531
-4.95000e-01,0.0155938
-4.94992e-01,0.0159375
-4.94984e-01,0.0154188
-4.94976e-01,0.0161844
-4.94968e-01,0.0147406
-4.94960e-01,0.0156156
-4.94952e-01,0.0164781
-4.94944e-01,0.0160969
-4.94936e-01,0.0154219
-4.94928e-01,0.0159625
-4.94920e-01,0.0154438
-4.94912e-01,0.0132719
-4.94904e-01,0.0152594
-4.94896e-01,0.0167625
-4.94888e-01,0.0163531
-4.94880e-01,0.0148813
-4.94872e-01,0.0153938
-4.94864e-01,0.014975
-4.94856e-01,0.0161781
-4.94848e-01,0.0147156
-4.94840e-01,0.0147625
-4.94832e-01,0.0150656
-4.94824e-01,0.0157313
-4.94816e-01,0.0143563
-4.94808e-01,0.0158531
-4.94800e-01,0.0152219
-4.94792e-01,0.0157156
-4.94784e-01,0.0141031
-4.94776e-01,0.0150406
-4.94768e-01,0.0150375
-4.94760e-01,0.0152219
-4.94752e-01,0.0152844
-4.94744e-01,0.0155688
-4.94736e-01,0.0150719
-4.94728e-01,0.0159875
-4.94720e-01,0.0143969
-4.94712e-01,0.0155625
-4.94704e-01,0.0153813
-4.94696e-01,0.0155969
-4.94688e-01,0.0152375
-4.94680e-01,0.015825
-4.94672e-01,0.0167938
-4.94664e-01,0.0148281
-4.94656e-01,0.016175
-4.94648e-01,0.0150688
-4.94640e-01,0.0149813
-4.94632e-01,0.0166344
-4.94624e-01,0.0151438
-4.94616e-01,0.0155094
-4.94608e-01,0.0155969
-4.94600e-01,0.0155406
-4.94592e-01,0.0169094
-4.94584e-01,0.0140406
-4.94576e-01,0.0147594
-4.94568e-01,0.0160531
-4.94560e-01,0.0159375
-4.94552e-01,0.0149656
-4.94544e-01,0.0144
-4.94536e-01,0.0139469
-4.94528e-01,0.0159719
-4.94520e-01,0.0150719
-4.94512e-01,0.0153
-4.94504e-01,0.0150938
-4.94496e-01,0.0148469
-4.94488e-01,0.0143281
-4.94480e-01,0.0155188
-4.94472e-01,0.015475
-4.94464e-01,0.0160281
-4.94456e-01,0.0169406
-4.94448e-01,0.0145219
-4.94440e-01,0.0146125
-4.94432e-01,0.0155438
-4.94424e-01,0.0157906
-4.94416e-01,0.014325
-4.94408e-01,0.0153656
-4.94400e-01,0.016775
-4.94392e-01,0.0136906
-4.94384e-01,0.0160469
-4.94376e-01,0.0147438
-4.94368e-01,0.0149313
-4.94360e-01,0.0157219
-4.94352e-01,0.0154531
-4.94344e-01,0.0151813
-4.94336e-01,0.0155188
-4.94328e-01,0.0151969
-4.94320e-01,0.0156938
-4.94312e-01,0.0159969
-4.94304e-01,0.0159219
-4.94296e-01,0.0159063
-4.94288e-01,0.0160531
-4.94280e-01,0.0147063
-4.94272e-01,0.0161781
-4.94264e-01,0.0158156
-4.94256e-01,0.0150344
-4.94248e-01,0.0146969
-4.94240e-01,0.0153938
-4.94232e-01,0.0141906
-4.94224e-01,0.0144625
-4.94216e-01,0.0142438
-4.94208e-01,0.014425
-4.94200e-01,0.0153688
-4.94192e-01,0.0139875
-4.94184e-01,0.0149031
-4.94176e-01,0.0143438
-4.94168e-01,0.0164594
-4.94160e-01,0.0156563
-4.94152e-01,0.0141875
-4.94144e-01,0.0148375
-4.94136e-01,0.0148625
-4.94128e-01,0.0152875
-4.94120e-01,0.0155219
-4.94112e-01,0.0148063
-4.94104e-01,0.0152438
-4.94096e-01,0.0153469
-4.94088e-01,0.0147938
-4.94080e-01,0.0156938
-4.94072e-01,0.0145188
-4.94064e-01,0.0152813
-4.94056e-01,0.01535
-4.94048e-01,0.015275
-4.94040e-01,0.0162719
-4.94032e-01,0.0152969
-4.94024e-01,0.0156875
-4.94016e-01,0.0150031
-4.94008e-01,0.015875
-4.94000e-01,0.0146063
-4.93992e-01,0.0152406
-4.93984e-01,0.0148031
-4.93976e-01,0.0150531
-4.93968e-01,0.0155344
-4.93960e-01,0.0148469
-4.93952e-01,0.0148406
-4.93944e-01,0.0153031
-4.93936e-01,0.0153594
-4.93928e-01,0.0163719
-4.93920e-01,0.0139906
-4.93912e-01,0.0158219
-4.93904e-01,0.0154969
-4.93896e-01,0.0154125
-4.93888e-01,0.0151594
-4.93880e-01,0.0141063
-4.93872e-01,0.0153156
-4.93864e-01,0.0144219
-4.93856e-01,0.0149156
-4.93848e-01,0.0151938
-4.93840e-01,0.0153844
-4.93832e-01,0.0141594
-4.93824e-01,0.0152563
-4.93816e-01,0.0148906
-4.93808e-01,0.0140594
-4.93800e-01,0.0154656
-4.93792e-01,0.0148219
-4.93784e-01,0.0150156
-4.93776e-01,0.0150313
-4.93768e-01,0.0166438
-4.93760e-01,0.0146219
-4.93752e-01,0.0161938
-4.93744e-01,0.0153594
-4.93736e-01,0.01595
-4.93728e-01,0.01465
-4.93720e-01,0.0162688
-4.93712e-01,0.0157625
-4.93704e-01,0.0148656
-4.93696e-01,0.0140375
-4.93688e-01,0.016425
-4.93680e-01,0.0151625
-4.93672e-01,0.0145969
-4.93664e-01,0.0150344
-4.93656e-01,0.0152031
-4.93648e-01,0.0151688
-4.93640e-01,0.0163313
-4.93632e-01,0.0146469
-4.93624e-01,0.014675
-4.93616e-01,0.0153625
-4.93608e-01,0.01535
-4.93600e-01,0.0160469
-4.93592e-01,0.0156625
-4.93584e-01,0.0155656
-4.93576e-01,0.0153438
-4.93568e-01,0.016075
-4.93560e-01,0.0150875
-4.93552e-01,0.0157313
-4.93544e-01,0.015225
-4.93536e-01,0.0153344
-4.93528e-01,0.0136625
-4.93520e-01,0.0151219
-4.93512e-01,0.0146813
-4.93504e-01,0.0152094
-4.93496e-01,0.0162969
-4.93488e-01,0.0138656
-4.93480e-01,0.0165906
-4.93472e-01,0.0147281
-4.93464e-01,0.0156969
-4.93456e-01,0.0150375
-4.93448e-01,0.014575
-4.93440e-01,0.0163344
-4.93432e-01,0.0149969
-4.93424e-01,0.0150406
-4.93416e-01,0.0161469
-4.93408e-01,0.0149875
-4.93400e-01,0.0154844
-4.93392e-01,0.0156844
-4.93384e-01,0.0152563
-4.93376e-01,0.0159031
-4.93368e-01,0.0158125
-4.93360e-01,0.01545
-4.93352e-01,0.0148875
-4.93344e-01,0.016175
-4.93336e-01,0.0155875
-4.93328e-01,0.0159094
-4.93320e-01,0.0150219
-4.93312e-01,0.0156125
-4.93304e-01,0.0156719
-4.93296e-01,0.0150094
-4.93288e-01,0.014525
-4.93280e-01,0.0155531
-4.93272e-01,0.015725
-4.93264e-01,0.0137031
-4.93256e-01,0.0144438
-4.93248e-01,0.0150656
-4.93240e-01,0.0161219
-4.93232e-01,0.0149875
-4.93224e-01,0.0161594
-4.93216e-01,0.0161594
-4.93208e-01,0.0151406
-4.93200e-01,0.0151156
-4.93192e-01,0.0156375
-4.93184e-01,0.015925
-4.93176e-01,0.0141313
-4.93168e-01,0.0161875
-4.93160e-01,0.0156938
-4.93152e-01,0.0164563
-4.93144e-01,0.0158906
-4.93136e-01,0.0150688
-4.93128e-01,0.0149563
-4.93120e-01,0.0163313
-4.93112e-01,0.0144813
-4.93104e-01,0.016525
-4.93096e-01,0.0151844
-4.93088e-01,0.0155969
