Messung_Energiemessung_Harvester2/Harvester_alt/20kmh/Harvester_50kOhm.CSV

Model,MSO2024
Firmware Version,1.52

Point Format,Y
Horizontal Units,S
Horizontal Scale,0.04
Sample Interval,3.2e-06
Filter Frequency,2e+08
Record Length,125000
Gating,0.0% to 100.0%
Probe Attenuation,10
Vertical Units,V
Vertical Offset,0
Vertical Scale,0.05
Label,
TIME,CH1
-2.00000e-01,0.179594
-1.99997e-01,0.176422
-1.99994e-01,0.183328
-1.99990e-01,0.175609
-1.99987e-01,0.180195
-1.99984e-01,0.178461
-1.99981e-01,0.181633
-1.99978e-01,0.183195
-1.99974e-01,0.178773
-1.99971e-01,0.174758
-1.99968e-01,0.17732
-1.99965e-01,0.177422
-1.99962e-01,0.177563
-1.99958e-01,0.178328
-1.99955e-01,0.175203
-1.99952e-01,0.178547
-1.99949e-01,0.175508
-1.99946e-01,0.179031
-1.99942e-01,0.182664
-1.99939e-01,0.181766
-1.99936e-01,0.178672
-1.99933e-01,0.175914
-1.99930e-01,0.174297
-1.99926e-01,0.181234
-1.99923e-01,0.177313
-1.99920e-01,0.178125
-1.99917e-01,0.179594
-1.99914e-01,0.178445
-1.99910e-01,0.182219
-1.99907e-01,0.175594
-1.99904e-01,0.17525
-1.99901e-01,0.175219
-1.99898e-01,0.18132
-1.99894e-01,0.173758
-1.99891e-01,0.174578
-1.99888e-01,0.180344
-1.99885e-01,0.174563
-1.99882e-01,0.178414
-1.99878e-01,0.172891
-1.99875e-01,0.181344
-1.99872e-01,0.178383
-1.99869e-01,0.178844
-1.99866e-01,0.181648
-1.99862e-01,0.178063
-1.99859e-01,0.182531
-1.99856e-01,0.175773
-1.99853e-01,0.176828
-1.99850e-01,0.177461
-1.99846e-01,0.179711
-1.99843e-01,0.177352
-1.99840e-01,0.175328
-1.99837e-01,0.182258
-1.99834e-01,0.183203
-1.99830e-01,0.177711
-1.99827e-01,0.177492
-1.99824e-01,0.173742
-1.99821e-01,0.174313
-1.99818e-01,0.181742
-1.99814e-01,0.180359
-1.99811e-01,0.178117
-1.99808e-01,0.178625
-1.99805e-01,0.178766
-1.99802e-01,0.17875
-1.99798e-01,0.178328
-1.99795e-01,0.173734
-1.99792e-01,0.181445
-1.99789e-01,0.171695
-1.99786e-01,0.178094
-1.99782e-01,0.176836
-1.99779e-01,0.175563
-1.99776e-01,0.177078
-1.99773e-01,0.175719
-1.99770e-01,0.177867
-1.99766e-01,0.179813
-1.99763e-01,0.178656
-1.99760e-01,0.173023
-1.99757e-01,0.176875
-1.99754e-01,0.180828
-1.99750e-01,0.177078
-1.99747e-01,0.174789
-1.99744e-01,0.184492
-1.99741e-01,0.177664
-1.99738e-01,0.178945
-1.99734e-01,0.179977
-1.99731e-01,0.177484
-1.99728e-01,0.174602
-1.99725e-01,0.172367
-1.99722e-01,0.180656
-1.99718e-01,0.175797
-1.99715e-01,0.176711
-1.99712e-01,0.175289
-1.99709e-01,0.17568
-1.99706e-01,0.177477
-1.99702e-01,0.175273
-1.99699e-01,0.181031
-1.99696e-01,0.185203
-1.99693e-01,0.179
-1.99690e-01,0.17882
-1.99686e-01,0.179594
-1.99683e-01,0.177211
-1.99680e-01,0.175484
-1.99677e-01,0.179891
-1.99674e-01,0.183984
-1.99670e-01,0.179273
-1.99667e-01,0.177773
-1.99664e-01,0.177125
-1.99661e-01,0.178523
-1.99658e-01,0.174711
-1.99654e-01,0.17475
-1.99651e-01,0.175664
-1.99648e-01,0.180039
-1.99645e-01,0.183148
-1.99642e-01,0.181461
-1.99638e-01,0.179391
-1.99635e-01,0.178297
-1.99632e-01,0.182039
-1.99629e-01,0.17725
-1.99626e-01,0.182141
-1.99622e-01,0.17732
-1.99619e-01,0.180969
-1.99616e-01,0.176203
-1.99613e-01,0.180117
-1.99610e-01,0.180117
-1.99606e-01,0.178344
-1.99603e-01,0.179203
-1.99600e-01,0.175523
-1.99597e-01,0.177492
-1.99594e-01,0.178156
-1.99590e-01,0.183484
-1.99587e-01,0.183781
-1.99584e-01,0.179094
-1.99581e-01,0.180328
-1.99578e-01,0.175805
-1.99574e-01,0.176992
-1.99571e-01,0.176391
-1.99568e-01,0.179805
-1.99565e-01,0.178672
-1.99562e-01,0.185391
-1.99558e-01,0.174141
-1.99555e-01,0.174922
-1.99552e-01,0.176492
-1.99549e-01,0.181953
-1.99546e-01,0.176125
-1.99542e-01,0.176938
-1.99539e-01,0.175227
-1.99536e-01,0.174523
-1.99533e-01,0.179078
-1.99530e-01,0.173664
-1.99526e-01,0.176102
-1.99523e-01,0.177633
-1.99520e-01,0.180016
-1.99517e-01,0.176828
-1.99514e-01,0.17582
-1.99510e-01,0.175133
-1.99507e-01,0.177547
-1.99504e-01,0.179445
-1.99501e-01,0.176523
-1.99498e-01,0.179859
-1.99494e-01,0.174492
-1.99491e-01,0.184883
-1.99488e-01,0.176422
-1.99485e-01,0.174813
-1.99482e-01,0.178
-1.99478e-01,0.180633
-1.99475e-01,0.176953
-1.99472e-01,0.175031
-1.99469e-01,0.178859
-1.99466e-01,0.179703
-1.99462e-01,0.176852
-1.99459e-01,0.180617
-1.99456e-01,0.176445
-1.99453e-01,0.176641
-1.99450e-01,0.178938
-1.99446e-01,0.182648
-1.99443e-01,0.178633
-1.99440e-01,0.174547
-1.99437e-01,0.17607
-1.99434e-01,0.179672
-1.99430e-01,0.184703
-1.99427e-01,0.169586
-1.99424e-01,0.174203
-1.99421e-01,0.182359
-1.99418e-01,0.174023
-1.99414e-01,0.174352
-1.99411e-01,0.182344
-1.99408e-01,0.174984
-1.99405e-01,0.179398
-1.99402e-01,0.179609
-1.99398e-01,0.17732
-1.99395e-01,0.178219
-1.99392e-01,0.179
-1.99389e-01,0.178578
-1.99386e-01,0.17693
-1.99382e-01,0.180164
-1.99379e-01,0.176359
-1.99376e-01,0.179258
-1.99373e-01,0.177938
-1.99370e-01,0.181891
-1.99366e-01,0.181953
-1.99363e-01,0.182258
-1.99360e-01,0.179133
-1.99357e-01,0.179336
-1.99354e-01,0.171094
-1.99350e-01,0.181586
-1.99347e-01,0.181602
-1.99344e-01,0.181453
-1.99341e-01,0.177164
-1.99338e-01,0.176492
-1.99334e-01,0.177406
-1.99331e-01,0.175383
-1.99328e-01,0.181438
-1.99325e-01,0.177438
-1.99322e-01,0.179453
-1.99318e-01,0.175414
-1.99315e-01,0.180945
-1.99312e-01,0.180906
-1.99309e-01,0.183219
-1.99306e-01,0.179531
-1.99302e-01,0.178383
-1.99299e-01,0.177438
-1.99296e-01,0.173242
-1.99293e-01,0.179313
-1.99290e-01,0.174352
-1.99286e-01,0.180438
-1.99283e-01,0.176313
-1.99280e-01,0.175008
-1.99277e-01,0.171359
-1.99274e-01,0.177555
-1.99270e-01,0.176156
-1.99267e-01,0.177352
-1.99264e-01,0.179281
-1.99261e-01,0.18207
-1.99258e-01,0.176523
-1.99254e-01,0.174547
-1.99251e-01,0.176344
-1.99248e-01,0.175797
-1.99245e-01,0.178133
-1.99242e-01,0.177875
-1.99238e-01,0.180039
-1.99235e-01,0.178344
-1.99232e-01,0.173977
-1.99229e-01,0.179969
-1.99226e-01,0.178664
-1.99222e-01,0.173938
-1.99219e-01,0.180961
-1.99216e-01,0.177781
-1.99213e-01,0.178219
-1.99210e-01,0.178766
-1.99206e-01,0.180969
-1.99203e-01,0.178563
-1.99200e-01,0.175016
-1.99197e-01,0.178914
-1.99194e-01,0.174852
-1.99190e-01,0.180141
-1.99187e-01,0.178367
-1.99184e-01,0.182672
-1.99181e-01,0.18082
-1.99178e-01,0.183023
-1.99174e-01,0.173898
-1.99171e-01,0.181406
-1.99168e-01,0.177078
-1.99165e-01,0.174781
-1.99162e-01,0.177016
-1.99158e-01,0.173023
-1.99155e-01,0.178352
-1.99152e-01,0.171758
-1.99149e-01,0.177875
-1.99146e-01,0.17607
-1.99142e-01,0.178297
-1.99139e-01,0.181203
-1.99136e-01,0.177922
-1.99133e-01,0.176633
-1.99130e-01,0.174563
-1.99126e-01,0.175789
-1.99123e-01,0.182531
-1.99120e-01,0.182055
-1.99117e-01,0.179508
-1.99114e-01,0.173039
-1.99110e-01,0.183086
-1.99107e-01,0.182852
-1.99104e-01,0.180055
-1.99101e-01,0.183305
-1.99098e-01,0.17557
-1.99094e-01,0.176445
-1.99091e-01,0.178148
-1.99088e-01,0.178141
-1.99085e-01,0.180438
-1.99082e-01,0.179227
-1.99078e-01,0.17482
-1.99075e-01,0.180945
-1.99072e-01,0.177234
-1.99069e-01,0.181484
-1.99066e-01,0.179211
-1.99062e-01,0.174891
-1.99059e-01,0.18143
-1.99056e-01,0.175914
-1.99053e-01,0.178953
-1.99050e-01,0.18218
-1.99046e-01,0.179555
-1.99043e-01,0.178742
-1.99040e-01,0.174266
-1.99037e-01,0.173039
-1.99034e-01,0.182367
-1.99030e-01,0.179531
-1.99027e-01,0.177883
-1.99024e-01,0.17968
-1.99021e-01,0.177594
-1.99018e-01,0.178672
-1.99014e-01,0.175422
-1.99011e-01,0.181844
-1.99008e-01,0.184219
-1.99005e-01,0.18107
-1.99002e-01,0.180359
-1.98998e-01,0.173156
-1.98995e-01,0.181125
-1.98992e-01,0.178938
-1.98989e-01,0.171164
-1.98986e-01,0.179109
-1.98982e-01,0.176109
-1.98979e-01,0.179406
-1.98976e-01,0.174531
-1.98973e-01,0.179914
-1.98970e-01,0.174641
-1.98966e-01,0.180141
-1.98963e-01,0.174219
-1.98960e-01,0.175211
-1.98957e-01,0.177266
-1.98954e-01,0.180734
-1.98950e-01,0.176625
-1.98947e-01,0.17743
-1.98944e-01,0.174227
-1.98941e-01,0.178445
-1.98938e-01,0.176375
-1.98934e-01,0.179734
-1.98931e-01,0.177195
-1.98928e-01,0.175914
-1.98925e-01,0.176828
-1.98922e-01,0.173
-1.98918e-01,0.178336
-1.98915e-01,0.178242
-1.98912e-01,0.174898
-1.98909e-01,0.181
-1.98906e-01,0.181016
-1.98902e-01,0.174266
-1.98899e-01,0.178516
-1.98896e-01,0.17693
-1.98893e-01,0.178406
-1.98890e-01,0.174617
-1.98886e-01,0.183055
-1.98883e-01,0.177391
-1.98880e-01,0.185109
-1.98877e-01,0.178758
-1.98874e-01,0.178375
-1.98870e-01,0.178977
-1.98867e-01,0.174383
-1.98864e-01,0.181352
-1.98861e-01,0.180281
-1.98858e-01,0.177344
-1.98854e-01,0.173063
-1.98851e-01,0.176227
-1.98848e-01,0.182227
-1.98845e-01,0.170352
-1.98842e-01,0.177164
-1.98838e-01,0.176133
-1.98835e-01,0.17968
-1.98832e-01,0.179336
-1.98829e-01,0.182664
-1.98826e-01,0.178313
-1.98822e-01,0.178172
-1.98819e-01,0.18082
-1.98816e-01,0.178344
-1.98813e-01,0.181367
-1.98810e-01,0.179305
-1.98806e-01,0.174672
-1.98803e-01,0.17668
-1.98800e-01,0.172891
-1.98797e-01,0.180469
-1.98794e-01,0.177797
-1.98790e-01,0.182086
-1.98787e-01,0.179789
-1.98784e-01,0.182875
-1.98781e-01,0.17557
-1.98778e-01,0.174391
-1.98774e-01,0.175625
-1.98771e-01,0.175766
-1.98768e-01,0.179828
-1.98765e-01,0.17918
-1.98762e-01,0.182125
-1.98758e-01,0.177852
-1.98755e-01,0.184852
-1.98752e-01,0.176773
-1.98749e-01,0.177672
-1.98746e-01,0.177086
-1.98742e-01,0.173625
-1.98739e-01,0.182266
-1.98736e-01,0.175352
-1.98733e-01,0.177219
-1.98730e-01,0.17657
-1.98726e-01,0.181758
-1.98723e-01,0.175688
-1.98720e-01,0.179836
-1.98717e-01,0.180875
-1.98714e-01,0.178539
-1.98710e-01,0.181477
-1.98707e-01,0.176984
-1.98704e-01,0.183289
-1.98701e-01,0.177953
-1.98698e-01,0.181648
-1.98694e-01,0.176734
-1.98691e-01,0.181219
-1.98688e-01,0.175625
-1.98685e-01,0.171469
-1.98682e-01,0.179539
-1.98678e-01,0.181703
-1.98675e-01,0.18425
-1.98672e-01,0.173906
-1.98669e-01,0.17575
-1.98666e-01,0.175813
-1.98662e-01,0.178602
-1.98659e-01,0.172789
-1.98656e-01,0.174438
-1.98653e-01,0.18075
-1.98650e-01,0.177648
-1.98646e-01,0.177352
-1.98643e-01,0.181273
-1.98640e-01,0.181898
-1.98637e-01,0.176672
-1.98634e-01,0.173758
-1.98630e-01,0.177492
-1.98627e-01,0.176398
-1.98624e-01,0.177234
-1.98621e-01,0.173797
-1.98618e-01,0.177023
-1.98614e-01,0.17675
-1.98611e-01,0.18057
-1.98608e-01,0.175766
-1.98605e-01,0.181508
-1.98602e-01,0.181688
-1.98598e-01,0.1745
-1.98595e-01,0.179953
-1.98592e-01,0.179352
-1.98589e-01,0.17607
-1.98586e-01,0.176516
-1.98582e-01,0.178641
-1.98579e-01,0.175703
-1.98576e-01,0.179531
-1.98573e-01,0.177266
-1.98570e-01,0.176148
-1.98566e-01,0.17643
-1.98563e-01,0.175641
-1.98560e-01,0.187063
-1.98557e-01,0.180961
-1.98554e-01,0.174898
-1.98550e-01,0.178844
-1.98547e-01,0.177281
-1.98544e-01,0.180922
-1.98541e-01,0.176703
-1.98538e-01,0.178633
-1.98534e-01,0.174063
-1.98531e-01,0.181547
-1.98528e-01,0.177188
-1.98525e-01,0.18225
-1.98522e-01,0.173203
-1.98518e-01,0.174594
-1.98515e-01,0.181367
-1.98512e-01,0.180367
-1.98509e-01,0.181531
-1.98506e-01,0.176383
-1.98502e-01,0.179289
-1.98499e-01,0.174867
-1.98496e-01,0.179922
-1.98493e-01,0.177578
-1.98490e-01,0.177492
-1.98486e-01,0.179359
-1.98483e-01,0.175883
-1.98480e-01,0.173063
-1.98477e-01,0.179313
-1.98474e-01,0.175859
-1.98470e-01,0.178281
-1.98467e-01,0.177273
-1.98464e-01,0.179453
-1.98461e-01,0.175648
-1.98458e-01,0.183875
-1.98454e-01,0.177906
-1.98451e-01,0.180773
-1.98448e-01,0.177188
-1.98445e-01,0.179453
-1.98442e-01,0.180938
-1.98438e-01,0.175477
-1.98435e-01,0.180602
-1.98432e-01,0.178633
-1.98429e-01,0.180484
-1.98426e-01,0.172273
-1.98422e-01,0.17582
-1.98419e-01,0.177883
-1.98416e-01,0.172961
-1.98413e-01,0.182531
-1.98410e-01,0.174938
-1.98406e-01,0.189344
-1.98403e-01,0.180508
-1.98400e-01,0.180344
-1.98397e-01,0.175328
-1.98394e-01,0.179711
-1.98390e-01,0.177469
-1.98387e-01,0.177086
-1.98384e-01,0.180977
-1.98381e-01,0.179313
-1.98378e-01,0.176305
-1.98374e-01,0.175898
-1.98371e-01,0.183641
-1.98368e-01,0.180039
-1.98365e-01,0.177508
-1.98362e-01,0.186102
-1.98358e-01,0.174047
-1.98355e-01,0.181516
-1.98352e-01,0.177109
-1.98349e-01,0.176359
-1.98346e-01,0.185297
-1.98342e-01,0.179492
-1.98339e-01,0.177641
-1.98336e-01,0.180508
-1.98333e-01,0.179203
-1.98330e-01,0.177758
-1.98326e-01,0.181945
-1.98323e-01,0.178008
-1.98320e-01,0.177602
-1.98317e-01,0.177844
-1.98314e-01,0.17668
-1.98310e-01,0.176852
-1.98307e-01,0.178336
-1.98304e-01,0.175469
-1.98301e-01,0.176563
-1.98298e-01,0.178539
-1.98294e-01,0.177016
-1.98291e-01,0.178672
-1.98288e-01,0.176969
-1.98285e-01,0.177438
-1.98282e-01,0.182172
-1.98278e-01,0.17718
-1.98275e-01,0.182352
-1.98272e-01,0.177906
-1.98269e-01,0.180773
-1.98266e-01,0.178367
-1.98262e-01,0.177828
-1.98259e-01,0.174281
-1.98256e-01,0.175891
-1.98253e-01,0.178578
-1.98250e-01,0.175164
-1.98246e-01,0.179797
-1.98243e-01,0.171102
-1.98240e-01,0.179383
-1.98237e-01,0.17882
-1.98234e-01,0.178328
-1.98230e-01,0.1805
-1.98227e-01,0.178336
-1.98224e-01,0.180375
-1.98221e-01,0.179875
-1.98218e-01,0.171906
-1.98214e-01,0.179547
-1.98211e-01,0.183016
-1.98208e-01,0.179883
-1.98205e-01,0.174852
-1.98202e-01,0.181617
-1.98198e-01,0.176508
-1.98195e-01,0.180898
-1.98192e-01,0.178086
-1.98189e-01,0.176781
-1.98186e-01,0.177039
-1.98182e-01,0.17468
-1.98179e-01,0.18057
-1.98176e-01,0.17882
-1.98173e-01,0.180773
-1.98170e-01,0.179828
-1.98166e-01,0.179164
-1.98163e-01,0.179227
-1.98160e-01,0.176242
-1.98157e-01,0.176891
-1.98154e-01,0.179836
-1.98150e-01,0.183211
-1.98147e-01,0.178922
-1.98144e-01,0.178484
-1.98141e-01,0.177609
-1.98138e-01,0.17568
-1.98134e-01,0.176586
-1.98131e-01,0.178586
-1.98128e-01,0.177875
-1.98125e-01,0.172188
-1.98122e-01,0.176281
-1.98118e-01,0.174938
-1.98115e-01,0.179563
-1.98112e-01,0.174859
-1.98109e-01,0.179
-1.98106e-01,0.186836
-1.98102e-01,0.177484
-1.98099e-01,0.182711
-1.98096e-01,0.176664
-1.98093e-01,0.179016
-1.98090e-01,0.179938
-1.98086e-01,0.180242
-1.98083e-01,0.176242
-1.98080e-01,0.179852
-1.98077e-01,0.174898
-1.98074e-01,0.176719
-1.98070e-01,0.175313
-1.98067e-01,0.177492
-1.98064e-01,0.180664
-1.98061e-01,0.176469
-1.98058e-01,0.179633
-1.98054e-01,0.177523
-1.98051e-01,0.181086
-1.98048e-01,0.181469
-1.98045e-01,0.180969
-1.98042e-01,0.177531
-1.98038e-01,0.169742
-1.98035e-01,0.183008
-1.98032e-01,0.178797
-1.98029e-01,0.18
-1.98026e-01,0.173844
-1.98022e-01,0.176516
-1.98019e-01,0.177227
-1.98016e-01,0.173016
-1.98013e-01,0.1815
-1.98010e-01,0.17432
-1.98006e-01,0.185109
-1.98003e-01,0.175391
-1.98000e-01,0.178266
-1.97997e-01,0.171961
-1.97994e-01,0.179133
-1.97990e-01,0.183719
-1.97987e-01,0.179
-1.97984e-01,0.17925
-1.97981e-01,0.178023
-1.97978e-01,0.178359
-1.97974e-01,0.18157
-1.97971e-01,0.179875
-1.97968e-01,0.174805
-1.97965e-01,0.178648
-1.97962e-01,0.177953
-1.97958e-01,0.175906
-1.97955e-01,0.176445
-1.97952e-01,0.179875
-1.97949e-01,0.176914
-1.97946e-01,0.176242
-1.97942e-01,0.181383
-1.97939e-01,0.178359
-1.97936e-01,0.181156
-1.97933e-01,0.179828
-1.97930e-01,0.177344
-1.97926e-01,0.185555
-1.97923e-01,0.178234
-1.97920e-01,0.178953
-1.97917e-01,0.183875
-1.97914e-01,0.17832
-1.97910e-01,0.172281
-1.97907e-01,0.178016
-1.97904e-01,0.177859
-1.97901e-01,0.179875
-1.97898e-01,0.176094
-1.97894e-01,0.179367
-1.97891e-01,0.181891
-1.97888e-01,0.175031
-1.97885e-01,0.182398
-1.97882e-01,0.175031
-1.97878e-01,0.1775
-1.97875e-01,0.183398
-1.97872e-01,0.177961
-1.97869e-01,0.179539
-1.97866e-01,0.176477
-1.97862e-01,0.179188
-1.97859e-01,0.175867
-1.97856e-01,0.181
-1.97853e-01,0.177625
-1.97850e-01,0.175656
-1.97846e-01,0.177602
-1.97843e-01,0.174695
-1.97840e-01,0.178859
-1.97837e-01,0.17475
-1.97834e-01,0.181391
-1.97830e-01,0.183992
-1.97827e-01,0.179547
-1.97824e-01,0.173859
-1.97821e-01,0.172031
-1.97818e-01,0.180031
-1.97814e-01,0.174109
-1.97811e-01,0.179461
-1.97808e-01,0.178391
-1.97805e-01,0.179359
-1.97802e-01,0.173781
-1.97798e-01,0.179438
-1.97795e-01,0.176234
-1.97792e-01,0.175594
-1.97789e-01,0.180938
-1.97786e-01,0.174883
-1.97782e-01,0.177836
-1.97779e-01,0.178906
-1.97776e-01,0.180758
-1.97773e-01,0.172031
-1.97770e-01,0.183938
-1.97766e-01,0.178531
-1.97763e-01,0.174672
-1.97760e-01,0.182297
-1.97757e-01,0.174883
-1.97754e-01,0.18107
-1.97750e-01,0.172555
-1.97747e-01,0.179016
-1.97744e-01,0.175195
-1.97741e-01,0.174344
-1.97738e-01,0.177727
-1.97734e-01,0.180031
-1.97731e-01,0.183156
-1.97728e-01,0.17882
-1.97725e-01,0.177352
-1.97722e-01,0.174703
-1.97718e-01,0.177734
-1.97715e-01,0.179094
-1.97712e-01,0.177734
-1.97709e-01,0.174977
-1.97706e-01,0.178563
-1.97702e-01,0.177617
-1.97699e-01,0.176656
-1.97696e-01,0.169219
-1.97693e-01,0.176703
-1.97690e-01,0.180375
-1.97686e-01,0.175797
-1.97683e-01,0.179313
-1.97680e-01,0.179375
-1.97677e-01,0.177094
-1.97674e-01,0.179266
-1.97670e-01,0.172781
-1.97667e-01,0.17975
-1.97664e-01,0.172508
-1.97661e-01,0.174719
-1.97658e-01,0.186414
-1.97654e-01,0.174883
-1.97651e-01,0.182703
-1.97648e-01,0.177438
-1.97645e-01,0.177781
-1.97642e-01,0.172648
-1.97638e-01,0.177969
-1.97635e-01,0.183961
-1.97632e-01,0.176008
-1.97629e-01,0.180891
-1.97626e-01,0.177367
-1.97622e-01,0.176273
-1.97619e-01,0.177844
-1.97616e-01,0.174781
-1.97613e-01,0.177305
-1.97610e-01,0.177219
-1.97606e-01,0.179453
-1.97603e-01,0.178305
-1.97600e-01,0.182406
-1.97597e-01,0.174344
-1.97594e-01,0.184141
-1.97590e-01,0.176828
-1.97587e-01,0.177813
-1.97584e-01,0.1805
-1.97581e-01,0.176828
-1.97578e-01,0.176523
-1.97574e-01,0.176656
-1.97571e-01,0.185805
-1.97568e-01,0.175875
-1.97565e-01,0.173336
-1.97562e-01,0.17775
-1.97558e-01,0.171141
-1.97555e-01,0.180203
-1.97552e-01,0.182008
-1.97549e-01,0.178109
-1.97546e-01,0.182313
-1.97542e-01,0.172602
-1.97539e-01,0.178336
-1.97536e-01,0.17643
-1.97533e-01,0.182406
-1.97530e-01,0.177734
-1.97526e-01,0.179008
-1.97523e-01,0.172516
-1.97520e-01,0.180375
-1.97517e-01,0.176063
-1.97514e-01,0.175273
-1.97510e-01,0.170383
-1.97507e-01,0.181828
-1.97504e-01,0.180938
-1.97501e-01,0.176344
-1.97498e-01,0.180414
-1.97494e-01,0.180117
-1.97491e-01,0.174656
-1.97488e-01,0.1765
-1.97485e-01,0.176461
-1.97482e-01,0.175883
-1.97478e-01,0.177086
-1.97475e-01,0.178461
-1.97472e-01,0.176672
-1.97469e-01,0.177977
-1.97466e-01,0.176766
-1.97462e-01,0.170578
-1.97459e-01,0.174773
-1.97456e-01,0.179539
-1.97453e-01,0.174445
-1.97450e-01,0.177922
-1.97446e-01,0.178445
-1.97443e-01,0.176898
-1.97440e-01,0.178313
-1.97437e-01,0.179336
-1.97434e-01,0.176148
-1.97430e-01,0.176203
-1.97427e-01,0.178961
-1.97424e-01,0.173656
-1.97421e-01,0.180531
-1.97418e-01,0.178141
-1.97414e-01,0.168891
-1.97411e-01,0.180281
-1.97408e-01,0.174367
-1.97405e-01,0.180922
-1.97402e-01,0.18207
-1.97398e-01,0.180844
-1.97395e-01,0.171648
-1.97392e-01,0.177063
-1.97389e-01,0.175734
-1.97386e-01,0.178406
-1.97382e-01,0.177359
-1.97379e-01,0.181055
-1.97376e-01,0.181422
-1.97373e-01,0.175063
-1.97370e-01,0.175383
-1.97366e-01,0.172094
-1.97363e-01,0.174883
-1.97360e-01,0.180453
-1.97357e-01,0.177391
-1.97354e-01,0.18382
-1.97350e-01,0.172445
-1.97347e-01,0.180125
-1.97344e-01,0.17425
-1.97341e-01,0.178594
-1.97338e-01,0.178852
-1.97334e-01,0.17975
-1.97331e-01,0.174422
-1.97328e-01,0.175
-1.97325e-01,0.180195
-1.97322e-01,0.175555
-1.97318e-01,0.181008
-1.97315e-01,0.176703
-1.97312e-01,0.178039
-1.97309e-01,0.179891
-1.97306e-01,0.181242
-1.97302e-01,0.179219
-1.97299e-01,0.180484
-1.97296e-01,0.174352
-1.97293e-01,0.176875
-1.97290e-01,0.175156
-1.97286e-01,0.179883
-1.97283e-01,0.177828
-1.97280e-01,0.175047
-1.97277e-01,0.174734
-1.97274e-01,0.173297
-1.97270e-01,0.177078
-1.97267e-01,0.175906
-1.97264e-01,0.178297
-1.97261e-01,0.181422
-1.97258e-01,0.174734
-1.97254e-01,0.179469
-1.97251e-01,0.17993
-1.97248e-01,0.182398
-1.97245e-01,0.179164
-1.97242e-01,0.177578
-1.97238e-01,0.179055
-1.97235e-01,0.17725
-1.97232e-01,0.176305
-1.97229e-01,0.176078
-1.97226e-01,0.177492
-1.97222e-01,0.180867
-1.97219e-01,0.171445
-1.97216e-01,0.176844
-1.97213e-01,0.173156
-1.97210e-01,0.178914
-1.97206e-01,0.17932
-1.97203e-01,0.170758
-1.97200e-01,0.172727
-1.97197e-01,0.174531
-1.97194e-01,0.17318
-1.97190e-01,0.177719
-1.97187e-01,0.179703
-1.97184e-01,0.178867
-1.97181e-01,0.177531
-1.97178e-01,0.179
-1.97174e-01,0.183344
-1.97171e-01,0.177023
-1.97168e-01,0.177844
-1.97165e-01,0.173492
-1.97162e-01,0.177234
-1.97158e-01,0.178805
-1.97155e-01,0.175961
-1.97152e-01,0.177492
-1.97149e-01,0.177875
-1.97146e-01,0.181906
-1.97142e-01,0.174922
-1.97139e-01,0.179391
-1.97136e-01,0.175133
-1.97133e-01,0.17843
-1.97130e-01,0.176227
-1.97126e-01,0.181586
-1.97123e-01,0.174094
-1.97120e-01,0.177422
