Messung_Energiemessung_Harvester2/Harvester_alt/20kmh/Harvester_100kOhm.CSV

Model,MSO2024
Firmware Version,1.52

Point Format,Y
Horizontal Units,S
Horizontal Scale,0.04
Sample Interval,3.2e-06
Filter Frequency,2e+08
Record Length,125000
Gating,0.0% to 100.0%
Probe Attenuation,10
Vertical Units,V
Vertical Offset,0
Vertical Scale,0.05
Label,
TIME,CH1
-2.00000e-01,0.219633
-1.99997e-01,0.215203
-1.99994e-01,0.216125
-1.99990e-01,0.225281
-1.99987e-01,0.219328
-1.99984e-01,0.222477
-1.99981e-01,0.221633
-1.99978e-01,0.216711
-1.99974e-01,0.220203
-1.99971e-01,0.217164
-1.99968e-01,0.214961
-1.99965e-01,0.222711
-1.99962e-01,0.221086
-1.99958e-01,0.220555
-1.99955e-01,0.21732
-1.99952e-01,0.223016
-1.99949e-01,0.221734
-1.99946e-01,0.221664
-1.99942e-01,0.217445
-1.99939e-01,0.221289
-1.99936e-01,0.21368
-1.99933e-01,0.219273
-1.99930e-01,0.217383
-1.99926e-01,0.220953
-1.99923e-01,0.219133
-1.99920e-01,0.21743
-1.99917e-01,0.212141
-1.99914e-01,0.218078
-1.99910e-01,0.22282
-1.99907e-01,0.217844
-1.99904e-01,0.22107
-1.99901e-01,0.211352
-1.99898e-01,0.22043
-1.99894e-01,0.212617
-1.99891e-01,0.215898
-1.99888e-01,0.218789
-1.99885e-01,0.215109
-1.99882e-01,0.221352
-1.99878e-01,0.216289
-1.99875e-01,0.214102
-1.99872e-01,0.215852
-1.99869e-01,0.224734
-1.99866e-01,0.221375
-1.99862e-01,0.219977
-1.99859e-01,0.21943
-1.99856e-01,0.215813
-1.99853e-01,0.220578
-1.99850e-01,0.21643
-1.99846e-01,0.221375
-1.99843e-01,0.225125
-1.99840e-01,0.221602
-1.99837e-01,0.226414
-1.99834e-01,0.220383
-1.99830e-01,0.214016
-1.99827e-01,0.218305
-1.99824e-01,0.225547
-1.99821e-01,0.213008
-1.99818e-01,0.221125
-1.99814e-01,0.222148
-1.99811e-01,0.214633
-1.99808e-01,0.221219
-1.99805e-01,0.217375
-1.99802e-01,0.225203
-1.99798e-01,0.219336
-1.99795e-01,0.219289
-1.99792e-01,0.217539
-1.99789e-01,0.219125
-1.99786e-01,0.220281
-1.99782e-01,0.216914
-1.99779e-01,0.221586
-1.99776e-01,0.220828
-1.99773e-01,0.217813
-1.99770e-01,0.21418
-1.99766e-01,0.221844
-1.99763e-01,0.214594
-1.99760e-01,0.217133
-1.99757e-01,0.217438
-1.99754e-01,0.219563
-1.99750e-01,0.214031
-1.99747e-01,0.219852
-1.99744e-01,0.22
-1.99741e-01,0.217227
-1.99738e-01,0.223328
-1.99734e-01,0.212758
-1.99731e-01,0.216578
-1.99728e-01,0.212781
-1.99725e-01,0.21857
-1.99722e-01,0.220352
-1.99718e-01,0.215867
-1.99715e-01,0.219625
-1.99712e-01,0.212484
-1.99709e-01,0.212906
-1.99706e-01,0.21893
-1.99702e-01,0.223023
-1.99699e-01,0.220945
-1.99696e-01,0.210984
-1.99693e-01,0.215883
-1.99690e-01,0.219922
-1.99686e-01,0.214
-1.99683e-01,0.213063
-1.99680e-01,0.220289
-1.99677e-01,0.214766
-1.99674e-01,0.219398
-1.99670e-01,0.215
-1.99667e-01,0.219492
-1.99664e-01,0.215453
-1.99661e-01,0.218016
-1.99658e-01,0.219359
-1.99654e-01,0.218508
-1.99651e-01,0.218648
-1.99648e-01,0.22368
-1.99645e-01,0.218031
-1.99642e-01,0.221828
-1.99638e-01,0.214938
-1.99635e-01,0.221273
-1.99632e-01,0.217805
-1.99629e-01,0.215398
-1.99626e-01,0.217633
-1.99622e-01,0.21382
-1.99619e-01,0.217469
-1.99616e-01,0.218313
-1.99613e-01,0.218609
-1.99610e-01,0.215781
-1.99606e-01,0.220172
-1.99603e-01,0.216805
-1.99600e-01,0.218766
-1.99597e-01,0.221023
-1.99594e-01,0.216203
-1.99590e-01,0.219883
-1.99587e-01,0.221922
-1.99584e-01,0.220477
-1.99581e-01,0.217438
-1.99578e-01,0.212734
-1.99574e-01,0.221086
-1.99571e-01,0.211094
-1.99568e-01,0.224016
-1.99565e-01,0.217992
-1.99562e-01,0.216563
-1.99558e-01,0.218008
-1.99555e-01,0.224344
-1.99552e-01,0.212703
-1.99549e-01,0.223188
-1.99546e-01,0.217375
-1.99542e-01,0.212219
-1.99539e-01,0.220188
-1.99536e-01,0.218656
-1.99533e-01,0.22707
-1.99530e-01,0.219141
-1.99526e-01,0.218836
-1.99523e-01,0.21868
-1.99520e-01,0.221617
-1.99517e-01,0.218234
-1.99514e-01,0.214367
-1.99510e-01,0.216969
-1.99507e-01,0.218883
-1.99504e-01,0.221648
-1.99501e-01,0.214008
-1.99498e-01,0.217
-1.99494e-01,0.218531
-1.99491e-01,0.21818
-1.99488e-01,0.220438
-1.99485e-01,0.223563
-1.99482e-01,0.215648
-1.99478e-01,0.217367
-1.99475e-01,0.218461
-1.99472e-01,0.217578
-1.99469e-01,0.21568
-1.99466e-01,0.216742
-1.99462e-01,0.216133
-1.99459e-01,0.22032
-1.99456e-01,0.224977
-1.99453e-01,0.214516
-1.99450e-01,0.213555
-1.99446e-01,0.220516
-1.99443e-01,0.223813
-1.99440e-01,0.21843
-1.99437e-01,0.217047
-1.99434e-01,0.219078
-1.99430e-01,0.219172
-1.99427e-01,0.219547
-1.99424e-01,0.220398
-1.99421e-01,0.221805
-1.99418e-01,0.217742
-1.99414e-01,0.216969
-1.99411e-01,0.216125
-1.99408e-01,0.226734
-1.99405e-01,0.214172
-1.99402e-01,0.21832
-1.99398e-01,0.219391
-1.99395e-01,0.222789
-1.99392e-01,0.216703
-1.99389e-01,0.216492
-1.99386e-01,0.219602
-1.99382e-01,0.215844
-1.99379e-01,0.218211
-1.99376e-01,0.217344
-1.99373e-01,0.221102
-1.99370e-01,0.223375
-1.99366e-01,0.216008
-1.99363e-01,0.218289
-1.99360e-01,0.221766
-1.99357e-01,0.212672
-1.99354e-01,0.217547
-1.99350e-01,0.211734
-1.99347e-01,0.213141
-1.99344e-01,0.221258
-1.99341e-01,0.219141
-1.99338e-01,0.217609
-1.99334e-01,0.215445
-1.99331e-01,0.215664
-1.99328e-01,0.219836
-1.99325e-01,0.21707
-1.99322e-01,0.214023
-1.99318e-01,0.217352
-1.99315e-01,0.216813
-1.99312e-01,0.216547
-1.99309e-01,0.219656
-1.99306e-01,0.219922
-1.99302e-01,0.214031
-1.99299e-01,0.215078
-1.99296e-01,0.216906
-1.99293e-01,0.209508
-1.99290e-01,0.210875
-1.99286e-01,0.215766
-1.99283e-01,0.220688
-1.99280e-01,0.221141
-1.99277e-01,0.219453
-1.99274e-01,0.215461
-1.99270e-01,0.21875
-1.99267e-01,0.224008
-1.99264e-01,0.216922
-1.99261e-01,0.218484
-1.99258e-01,0.214172
-1.99254e-01,0.216148
-1.99251e-01,0.215969
-1.99248e-01,0.223328
-1.99245e-01,0.215523
-1.99242e-01,0.221211
-1.99238e-01,0.217266
-1.99235e-01,0.218492
-1.99232e-01,0.218047
-1.99229e-01,0.220313
-1.99226e-01,0.223336
-1.99222e-01,0.220563
-1.99219e-01,0.219508
-1.99216e-01,0.219813
-1.99213e-01,0.222906
-1.99210e-01,0.215258
-1.99206e-01,0.219867
-1.99203e-01,0.222953
-1.99200e-01,0.221
-1.99197e-01,0.212813
-1.99194e-01,0.222156
-1.99190e-01,0.216469
-1.99187e-01,0.223219
-1.99184e-01,0.218203
-1.99181e-01,0.217945
-1.99178e-01,0.2145
-1.99174e-01,0.215523
-1.99171e-01,0.215977
-1.99168e-01,0.213945
-1.99165e-01,0.222
-1.99162e-01,0.21743
-1.99158e-01,0.217563
-1.99155e-01,0.224992
-1.99152e-01,0.220508
-1.99149e-01,0.214141
-1.99146e-01,0.218352
-1.99142e-01,0.215961
-1.99139e-01,0.223711
-1.99136e-01,0.223469
-1.99133e-01,0.227867
-1.99130e-01,0.218852
-1.99126e-01,0.222109
-1.99123e-01,0.220203
-1.99120e-01,0.21643
-1.99117e-01,0.219695
-1.99114e-01,0.216898
-1.99110e-01,0.217625
-1.99107e-01,0.217609
-1.99104e-01,0.217773
-1.99101e-01,0.217922
-1.99098e-01,0.218898
-1.99094e-01,0.220016
-1.99091e-01,0.222773
-1.99088e-01,0.218047
-1.99085e-01,0.22382
-1.99082e-01,0.218313
-1.99078e-01,0.21857
-1.99075e-01,0.217742
-1.99072e-01,0.223969
-1.99069e-01,0.222617
-1.99066e-01,0.21875
-1.99062e-01,0.217516
-1.99059e-01,0.220219
-1.99056e-01,0.222305
-1.99053e-01,0.221477
-1.99050e-01,0.21868
-1.99046e-01,0.215297
-1.99043e-01,0.217531
-1.99040e-01,0.224406
-1.99037e-01,0.215578
-1.99034e-01,0.216477
-1.99030e-01,0.219383
-1.99027e-01,0.213945
-1.99024e-01,0.222781
-1.99021e-01,0.214133
-1.99018e-01,0.21775
-1.99014e-01,0.219125
-1.99011e-01,0.217391
-1.99008e-01,0.221258
-1.99005e-01,0.215313
-1.99002e-01,0.217039
-1.98998e-01,0.220484
-1.98995e-01,0.2205
-1.98992e-01,0.214867
-1.98989e-01,0.217
-1.98986e-01,0.218813
-1.98982e-01,0.217117
-1.98979e-01,0.217328
-1.98976e-01,0.21582
-1.98973e-01,0.218203
-1.98970e-01,0.220953
-1.98966e-01,0.21825
-1.98963e-01,0.224453
-1.98960e-01,0.213328
-1.98957e-01,0.219781
-1.98954e-01,0.217766
-1.98950e-01,0.222398
-1.98947e-01,0.219289
-1.98944e-01,0.220523
-1.98941e-01,0.220359
-1.98938e-01,0.217789
-1.98934e-01,0.217586
-1.98931e-01,0.223539
-1.98928e-01,0.214688
-1.98925e-01,0.217984
-1.98922e-01,0.216711
-1.98918e-01,0.220859
-1.98915e-01,0.21657
-1.98912e-01,0.221047
-1.98909e-01,0.215773
-1.98906e-01,0.212664
-1.98902e-01,0.221664
-1.98899e-01,0.220766
-1.98896e-01,0.220797
-1.98893e-01,0.217938
-1.98890e-01,0.21693
-1.98886e-01,0.224219
-1.98883e-01,0.218781
-1.98880e-01,0.225563
-1.98877e-01,0.220609
-1.98874e-01,0.217281
-1.98870e-01,0.217922
-1.98867e-01,0.219367
-1.98864e-01,0.217961
-1.98861e-01,0.21582
-1.98858e-01,0.214781
-1.98854e-01,0.219523
-1.98851e-01,0.221609
-1.98848e-01,0.214969
-1.98845e-01,0.218617
-1.98842e-01,0.216945
-1.98838e-01,0.214797
-1.98835e-01,0.213688
-1.98832e-01,0.219094
-1.98829e-01,0.22075
-1.98826e-01,0.217359
-1.98822e-01,0.221453
-1.98819e-01,0.219875
-1.98816e-01,0.210602
-1.98813e-01,0.221172
-1.98810e-01,0.215422
-1.98806e-01,0.216609
-1.98803e-01,0.211719
-1.98800e-01,0.211977
-1.98797e-01,0.22
-1.98794e-01,0.218742
-1.98790e-01,0.217766
-1.98787e-01,0.217055
-1.98784e-01,0.221734
-1.98781e-01,0.213828
-1.98778e-01,0.217789
-1.98774e-01,0.217469
-1.98771e-01,0.220672
-1.98768e-01,0.218172
-1.98765e-01,0.221289
-1.98762e-01,0.216359
-1.98758e-01,0.22043
-1.98755e-01,0.223328
-1.98752e-01,0.215742
-1.98749e-01,0.222328
-1.98746e-01,0.21825
-1.98742e-01,0.217039
-1.98739e-01,0.221969
-1.98736e-01,0.216539
-1.98733e-01,0.22268
-1.98730e-01,0.216461
-1.98726e-01,0.217141
-1.98723e-01,0.222445
-1.98720e-01,0.220492
-1.98717e-01,0.219648
-1.98714e-01,0.218469
-1.98710e-01,0.22282
-1.98707e-01,0.216234
-1.98704e-01,0.221773
-1.98701e-01,0.218797
-1.98698e-01,0.222281
-1.98694e-01,0.220414
-1.98691e-01,0.219789
-1.98688e-01,0.214094
-1.98685e-01,0.218773
-1.98682e-01,0.223508
-1.98678e-01,0.207977
-1.98675e-01,0.21857
-1.98672e-01,0.217422
-1.98669e-01,0.217883
-1.98666e-01,0.21968
-1.98662e-01,0.221031
-1.98659e-01,0.22757
-1.98656e-01,0.216117
-1.98653e-01,0.221633
-1.98650e-01,0.218875
-1.98646e-01,0.21868
-1.98643e-01,0.21793
-1.98640e-01,0.218492
-1.98637e-01,0.215641
-1.98634e-01,0.211648
-1.98630e-01,0.222102
-1.98627e-01,0.216266
-1.98624e-01,0.22093
-1.98621e-01,0.218367
-1.98618e-01,0.221367
-1.98614e-01,0.220719
-1.98611e-01,0.21843
-1.98608e-01,0.220148
-1.98605e-01,0.216148
-1.98602e-01,0.220516
-1.98598e-01,0.21325
-1.98595e-01,0.222484
-1.98592e-01,0.216813
-1.98589e-01,0.215422
-1.98586e-01,0.214234
-1.98582e-01,0.214484
-1.98579e-01,0.223148
-1.98576e-01,0.219211
-1.98573e-01,0.220563
-1.98570e-01,0.212992
-1.98566e-01,0.216109
-1.98563e-01,0.217758
-1.98560e-01,0.218625
-1.98557e-01,0.222789
-1.98554e-01,0.215367
-1.98550e-01,0.222297
-1.98547e-01,0.213641
-1.98544e-01,0.219398
-1.98541e-01,0.221695
-1.98538e-01,0.216844
-1.98534e-01,0.21993
-1.98531e-01,0.222469
-1.98528e-01,0.214188
-1.98525e-01,0.221398
-1.98522e-01,0.217602
-1.98518e-01,0.21768
-1.98515e-01,0.217922
-1.98512e-01,0.220484
-1.98509e-01,0.221109
-1.98506e-01,0.212563
-1.98502e-01,0.225117
-1.98499e-01,0.220352
-1.98496e-01,0.215789
-1.98493e-01,0.22082
-1.98490e-01,0.216922
-1.98486e-01,0.218047
-1.98483e-01,0.216305
-1.98480e-01,0.212422
-1.98477e-01,0.218914
-1.98474e-01,0.221523
-1.98470e-01,0.214414
-1.98467e-01,0.219445
-1.98464e-01,0.216406
-1.98461e-01,0.219773
-1.98458e-01,0.215172
-1.98454e-01,0.224469
-1.98451e-01,0.219328
-1.98448e-01,0.222148
-1.98445e-01,0.222688
-1.98442e-01,0.218102
-1.98438e-01,0.223672
-1.98435e-01,0.213359
-1.98432e-01,0.216852
-1.98429e-01,0.215664
-1.98426e-01,0.214688
-1.98422e-01,0.217617
-1.98419e-01,0.219789
-1.98416e-01,0.218023
-1.98413e-01,0.220477
-1.98410e-01,0.216281
-1.98406e-01,0.217383
-1.98403e-01,0.217289
-1.98400e-01,0.222461
-1.98397e-01,0.214852
-1.98394e-01,0.221305
-1.98390e-01,0.218289
-1.98387e-01,0.219195
-1.98384e-01,0.216688
-1.98381e-01,0.221469
-1.98378e-01,0.222344
-1.98374e-01,0.212922
-1.98371e-01,0.220859
-1.98368e-01,0.215578
-1.98365e-01,0.217172
-1.98362e-01,0.219203
-1.98358e-01,0.216547
-1.98355e-01,0.217711
-1.98352e-01,0.221227
-1.98349e-01,0.219781
-1.98346e-01,0.214664
-1.98342e-01,0.216977
-1.98339e-01,0.220875
-1.98336e-01,0.216938
-1.98333e-01,0.214078
-1.98330e-01,0.215828
-1.98326e-01,0.217508
-1.98323e-01,0.220125
-1.98320e-01,0.224102
-1.98317e-01,0.219922
-1.98314e-01,0.217563
-1.98310e-01,0.218117
-1.98307e-01,0.212938
-1.98304e-01,0.216766
-1.98301e-01,0.21657
-1.98298e-01,0.224375
-1.98294e-01,0.217367
-1.98291e-01,0.220961
-1.98288e-01,0.213016
-1.98285e-01,0.221438
-1.98282e-01,0.222758
-1.98278e-01,0.217305
-1.98275e-01,0.217688
-1.98272e-01,0.217633
-1.98269e-01,0.221961
-1.98266e-01,0.214906
-1.98262e-01,0.22093
-1.98259e-01,0.219008
-1.98256e-01,0.217633
-1.98253e-01,0.21868
-1.98250e-01,0.219
-1.98246e-01,0.223531
-1.98243e-01,0.218992
-1.98240e-01,0.221867
-1.98237e-01,0.211914
-1.98234e-01,0.219141
-1.98230e-01,0.22275
-1.98227e-01,0.220258
-1.98224e-01,0.219766
-1.98221e-01,0.221375
-1.98218e-01,0.219695
-1.98214e-01,0.216078
-1.98211e-01,0.225398
-1.98208e-01,0.214102
-1.98205e-01,0.225484
-1.98202e-01,0.220664
-1.98198e-01,0.216953
-1.98195e-01,0.226578
-1.98192e-01,0.211102
-1.98189e-01,0.221539
-1.98186e-01,0.214969
-1.98182e-01,0.217375
-1.98179e-01,0.216891
-1.98176e-01,0.221141
-1.98173e-01,0.218969
-1.98170e-01,0.212422
-1.98166e-01,0.223648
-1.98163e-01,0.210945
-1.98160e-01,0.215328
-1.98157e-01,0.219492
-1.98154e-01,0.214398
-1.98150e-01,0.213219
-1.98147e-01,0.216688
-1.98144e-01,0.21657
-1.98141e-01,0.216352
-1.98138e-01,0.223969
-1.98134e-01,0.214469
-1.98131e-01,0.220188
-1.98128e-01,0.219469
-1.98125e-01,0.217875
-1.98122e-01,0.216344
-1.98118e-01,0.215102
-1.98115e-01,0.215133
-1.98112e-01,0.211469
-1.98109e-01,0.224219
-1.98106e-01,0.215461
-1.98102e-01,0.212945
-1.98099e-01,0.221094
-1.98096e-01,0.214
-1.98093e-01,0.219227
-1.98090e-01,0.218484
-1.98086e-01,0.227875
-1.98083e-01,0.215625
-1.98080e-01,0.216078
-1.98077e-01,0.213977
-1.98074e-01,0.218547
-1.98070e-01,0.221531
-1.98067e-01,0.218828
-1.98064e-01,0.221891
-1.98061e-01,0.213883
-1.98058e-01,0.220617
-1.98054e-01,0.215109
-1.98051e-01,0.217883
-1.98048e-01,0.220195
-1.98045e-01,0.219484
-1.98042e-01,0.220805
-1.98038e-01,0.21475
-1.98035e-01,0.219492
-1.98032e-01,0.217211
-1.98029e-01,0.218484
-1.98026e-01,0.222359
-1.98022e-01,0.219938
-1.98019e-01,0.224867
-1.98016e-01,0.216398
-1.98013e-01,0.217008
-1.98010e-01,0.213148
-1.98006e-01,0.222789
-1.98003e-01,0.218641
-1.98000e-01,0.211453
-1.97997e-01,0.213102
-1.97994e-01,0.218469
-1.97990e-01,0.221711
-1.97987e-01,0.214516
-1.97984e-01,0.223188
-1.97981e-01,0.215453
-1.97978e-01,0.217164
-1.97974e-01,0.214969
-1.97971e-01,0.217352
-1.97968e-01,0.22257
-1.97965e-01,0.220273
-1.97962e-01,0.219336
-1.97958e-01,0.212984
-1.97955e-01,0.220969
-1.97952e-01,0.222898
-1.97949e-01,0.218633
-1.97946e-01,0.218094
-1.97942e-01,0.215352
-1.97939e-01,0.214781
-1.97936e-01,0.215469
-1.97933e-01,0.224055
-1.97930e-01,0.217039
-1.97926e-01,0.218219
-1.97923e-01,0.225313
-1.97920e-01,0.218531
-1.97917e-01,0.216781
-1.97914e-01,0.216203
-1.97910e-01,0.22107
-1.97907e-01,0.215813
-1.97904e-01,0.216672
-1.97901e-01,0.215867
-1.97898e-01,0.219922
-1.97894e-01,0.222438
-1.97891e-01,0.221797
-1.97888e-01,0.215641
-1.97885e-01,0.221258
-1.97882e-01,0.220086
-1.97878e-01,0.216648
-1.97875e-01,0.221234
-1.97872e-01,0.215148
-1.97869e-01,0.218727
-1.97866e-01,0.215484
-1.97862e-01,0.221727
-1.97859e-01,0.222344
-1.97856e-01,0.218586
-1.97853e-01,0.215047
-1.97850e-01,0.218492
-1.97846e-01,0.219063
-1.97843e-01,0.214313
-1.97840e-01,0.22032
-1.97837e-01,0.212938
-1.97834e-01,0.218953
-1.97830e-01,0.215625
-1.97827e-01,0.219078
-1.97824e-01,0.21975
-1.97821e-01,0.218102
-1.97818e-01,0.213602
-1.97814e-01,0.218375
-1.97811e-01,0.221906
-1.97808e-01,0.218492
-1.97805e-01,0.218781
-1.97802e-01,0.217164
-1.97798e-01,0.22182
-1.97795e-01,0.215867
-1.97792e-01,0.220203
-1.97789e-01,0.213945
-1.97786e-01,0.218383
-1.97782e-01,0.2195
-1.97779e-01,0.222359
-1.97776e-01,0.225711
-1.97773e-01,0.214445
-1.97770e-01,0.222383
-1.97766e-01,0.221867
-1.97763e-01,0.221211
-1.97760e-01,0.221023
-1.97757e-01,0.21493
-1.97754e-01,0.218156
-1.97750e-01,0.222977
-1.97747e-01,0.21693
-1.97744e-01,0.212344
-1.97741e-01,0.216164
-1.97738e-01,0.215148
-1.97734e-01,0.217758
-1.97731e-01,0.222734
-1.97728e-01,0.215258
-1.97725e-01,0.223273
-1.97722e-01,0.22293
-1.97718e-01,0.216539
-1.97715e-01,0.218313
-1.97712e-01,0.224367
-1.97709e-01,0.213867
-1.97706e-01,0.219
-1.97702e-01,0.22243
-1.97699e-01,0.214266
-1.97696e-01,0.220023
-1.97693e-01,0.219492
-1.97690e-01,0.221008
-1.97686e-01,0.21743
-1.97683e-01,0.219492
-1.97680e-01,0.215836
-1.97677e-01,0.221148
-1.97674e-01,0.21625
-1.97670e-01,0.220305
-1.97667e-01,0.220602
-1.97664e-01,0.222195
-1.97661e-01,0.215875
-1.97658e-01,0.220703
-1.97654e-01,0.219078
-1.97651e-01,0.216773
-1.97648e-01,0.218492
-1.97645e-01,0.22025
-1.97642e-01,0.221977
-1.97638e-01,0.219453
-1.97635e-01,0.21157
-1.97632e-01,0.221094
-1.97629e-01,0.215922
-1.97626e-01,0.222945
-1.97622e-01,0.215734
-1.97619e-01,0.220078
-1.97616e-01,0.218203
-1.97613e-01,0.216594
-1.97610e-01,0.221297
-1.97606e-01,0.219758
-1.97603e-01,0.220328
-1.97600e-01,0.219813
-1.97597e-01,0.220047
-1.97594e-01,0.216586
-1.97590e-01,0.220422
-1.97587e-01,0.221297
-1.97584e-01,0.216102
-1.97581e-01,0.222023
-1.97578e-01,0.215625
-1.97574e-01,0.213805
-1.97571e-01,0.214906
-1.97568e-01,0.217977
-1.97565e-01,0.218773
-1.97562e-01,0.220531
-1.97558e-01,0.221109
-1.97555e-01,0.213406
-1.97552e-01,0.216695
-1.97549e-01,0.220539
-1.97546e-01,0.217156
-1.97542e-01,0.218563
-1.97539e-01,0.220297
-1.97536e-01,0.216281
-1.97533e-01,0.214922
-1.97530e-01,0.214922
-1.97526e-01,0.220586
-1.97523e-01,0.214133
-1.97520e-01,0.223016
-1.97517e-01,0.220281
-1.97514e-01,0.221422
-1.97510e-01,0.221859
-1.97507e-01,0.218969
-1.97504e-01,0.21807
-1.97501e-01,0.217703
-1.97498e-01,0.218422
-1.97494e-01,0.222398
-1.97491e-01,0.221453
-1.97488e-01,0.216898
-1.97485e-01,0.219672
-1.97482e-01,0.212648
-1.97478e-01,0.21918
-1.97475e-01,0.2205
-1.97472e-01,0.220773
-1.97469e-01,0.221688
-1.97466e-01,0.218594
-1.97462e-01,0.21943
-1.97459e-01,0.219156
-1.97456e-01,0.217734
-1.97453e-01,0.218445
-1.97450e-01,0.216961
-1.97446e-01,0.21768
-1.97443e-01,0.225461
-1.97440e-01,0.221211
-1.97437e-01,0.220859
-1.97434e-01,0.216008
-1.97430e-01,0.214016
-1.97427e-01,0.21718
-1.97424e-01,0.223016
-1.97421e-01,0.218805
-1.97418e-01,0.218641
-1.97414e-01,0.217039
-1.97411e-01,0.218516
-1.97408e-01,0.217406
-1.97405e-01,0.213578
-1.97402e-01,0.222203
-1.97398e-01,0.214281
-1.97395e-01,0.220977
-1.97392e-01,0.225844
-1.97389e-01,0.214992
-1.97386e-01,0.21768
-1.97382e-01,0.218906
-1.97379e-01,0.216633
-1.97376e-01,0.215344
-1.97373e-01,0.21557
-1.97370e-01,0.222539
-1.97366e-01,0.216773
-1.97363e-01,0.219078
-1.97360e-01,0.227297
-1.97357e-01,0.215609
-1.97354e-01,0.213703
-1.97350e-01,0.217313
-1.97347e-01,0.222125
-1.97344e-01,0.221016
-1.97341e-01,0.220977
-1.97338e-01,0.221938
-1.97334e-01,0.216875
-1.97331e-01,0.224094
-1.97328e-01,0.216578
-1.97325e-01,0.217617
-1.97322e-01,0.217047
-1.97318e-01,0.218305
-1.97315e-01,0.224477
-1.97312e-01,0.220188
-1.97309e-01,0.223563
-1.97306e-01,0.218375
-1.97302e-01,0.222055
-1.97299e-01,0.216875
-1.97296e-01,0.219969
-1.97293e-01,0.219117
-1.97290e-01,0.21843
-1.97286e-01,0.221289
-1.97283e-01,0.219852
-1.97280e-01,0.215891
-1.97277e-01,0.216453
-1.97274e-01,0.217992
-1.97270e-01,0.220891
-1.97267e-01,0.219563
-1.97264e-01,0.223289
-1.97261e-01,0.208672
-1.97258e-01,0.216945
-1.97254e-01,0.22125
-1.97251e-01,0.22207
-1.97248e-01,0.217219
-1.97245e-01,0.22132
-1.97242e-01,0.218602
-1.97238e-01,0.220891
-1.97235e-01,0.217992
-1.97232e-01,0.220289
-1.97229e-01,0.21643
-1.97226e-01,0.219523
-1.97222e-01,0.221813
-1.97219e-01,0.223445
-1.97216e-01,0.214867
-1.97213e-01,0.220273
-1.97210e-01,0.218867
-1.97206e-01,0.225883
-1.97203e-01,0.216703
-1.97200e-01,0.211328
-1.97197e-01,0.219039
-1.97194e-01,0.218867
-1.97190e-01,0.216602
-1.97187e-01,0.220484
-1.97184e-01,0.215891
-1.97181e-01,0.218172
-1.97178e-01,0.227242
-1.97174e-01,0.212352
-1.97171e-01,0.219258
-1.97168e-01,0.215656
-1.97165e-01,0.225961
-1.97162e-01,0.219813
-1.97158e-01,0.216883
-1.97155e-01,0.215727
-1.97152e-01,0.217133
-1.97149e-01,0.216766
-1.97146e-01,0.214781
-1.97142e-01,0.216773
-1.97139e-01,0.215375
-1.97136e-01,0.220109
-1.97133e-01,0.224953
-1.97130e-01,0.217359
-1.97126e-01,0.219719
-1.97123e-01,0.217945
-1.97120e-01,0.216664
-1.97117e-01,0.218492
