Messung_Leistungskennlinie_versch_Harvester/Harvester_neu/10kmh/Harvester2_1MOhm.CSV

Model,MSO2024
Firmware Version,1.52

Point Format,Y
Horizontal Units,S
Horizontal Scale,0.1
Sample Interval,8e-06
Filter Frequency,2e+08
Record Length,125000
Gating,0.0% to 100.0%
Probe Attenuation,10
Vertical Units,V
Vertical Offset,0
Vertical Scale,0.02
Label,
TIME,CH1
-5.00000e-01,0.0632594
-4.99992e-01,0.0639
-4.99984e-01,0.0639781
-4.99976e-01,0.0645062
-4.99968e-01,0.0634406
-4.99960e-01,0.0638656
-4.99952e-01,0.0641187
-4.99944e-01,0.0649437
-4.99936e-01,0.0635781
-4.99928e-01,0.0652812
-4.99920e-01,0.0643062
-4.99912e-01,0.0658125
-4.99904e-01,0.0632875
-4.99896e-01,0.0640062
-4.99888e-01,0.0654937
-4.99880e-01,0.0629906
-4.99872e-01,0.0640625
-4.99864e-01,0.0636312
-4.99856e-01,0.0635656
-4.99848e-01,0.0634375
-4.99840e-01,0.0634406
-4.99832e-01,0.0651531
-4.99824e-01,0.0638594
-4.99816e-01,0.0652781
-4.99808e-01,0.0644844
-4.99800e-01,0.0640062
-4.99792e-01,0.0643906
-4.99784e-01,0.063075
-4.99776e-01,0.0647625
-4.99768e-01,0.0625125
-4.99760e-01,0.0666687
-4.99752e-01,0.0643781
-4.99744e-01,0.0639031
-4.99736e-01,0.0650156
-4.99728e-01,0.0646031
-4.99720e-01,0.0649281
-4.99712e-01,0.0637812
-4.99704e-01,0.0641344
-4.99696e-01,0.0636812
-4.99688e-01,0.064525
-4.99680e-01,0.0631437
-4.99672e-01,0.0657125
-4.99664e-01,0.0631531
-4.99656e-01,0.0646937
-4.99648e-01,0.0646687
-4.99640e-01,0.0646937
-4.99632e-01,0.0649562
-4.99624e-01,0.0633969
-4.99616e-01,0.0639375
-4.99608e-01,0.0642781
-4.99600e-01,0.0657625
-4.99592e-01,0.0626531
-4.99584e-01,0.0653312
-4.99576e-01,0.0635156
-4.99568e-01,0.0635844
-4.99560e-01,0.06305
-4.99552e-01,0.0629
-4.99544e-01,0.0646125
-4.99536e-01,0.0641625
-4.99528e-01,0.0623094
-4.99520e-01,0.0642531
-4.99512e-01,0.0647594
-4.99504e-01,0.0644094
-4.99496e-01,0.0631875
-4.99488e-01,0.0631281
-4.99480e-01,0.0640031
-4.99472e-01,0.0639375
-4.99464e-01,0.0643594
-4.99456e-01,0.0624687
-4.99448e-01,0.0647062
-4.99440e-01,0.0635281
-4.99432e-01,0.0646156
-4.99424e-01,0.0656219
-4.99416e-01,0.0628062
-4.99408e-01,0.0640656
-4.99400e-01,0.0632469
-4.99392e-01,0.0656625
-4.99384e-01,0.0654375
-4.99376e-01,0.0639062
-4.99368e-01,0.0635875
-4.99360e-01,0.06475
-4.99352e-01,0.0641344
-4.99344e-01,0.0635312
-4.99336e-01,0.0632906
-4.99328e-01,0.0640687
-4.99320e-01,0.0646562
-4.99312e-01,0.0641344
-4.99304e-01,0.0645719
-4.99296e-01,0.063425
-4.99288e-01,0.0642156
-4.99280e-01,0.0645875
-4.99272e-01,0.0644375
-4.99264e-01,0.0630156
-4.99256e-01,0.0643875
-4.99248e-01,0.0642594
-4.99240e-01,0.0647719
-4.99232e-01,0.0631125
-4.99224e-01,0.063025
-4.99216e-01,0.0631312
-4.99208e-01,0.0635844
-4.99200e-01,0.0645625
-4.99192e-01,0.0644312
-4.99184e-01,0.0640562
-4.99176e-01,0.0627469
-4.99168e-01,0.0657937
-4.99160e-01,0.063525
-4.99152e-01,0.0643844
-4.99144e-01,0.0651969
-4.99136e-01,0.0650687
-4.99128e-01,0.0644
-4.99120e-01,0.0625969
-4.99112e-01,0.0632844
-4.99104e-01,0.0630781
-4.99096e-01,0.0638219
-4.99088e-01,0.0616656
-4.99080e-01,0.0646844
-4.99072e-01,0.0638375
-4.99064e-01,0.065425
-4.99056e-01,0.0643781
-4.99048e-01,0.0628219
-4.99040e-01,0.0661906
-4.99032e-01,0.0642312
-4.99024e-01,0.0632875
-4.99016e-01,0.0645906
-4.99008e-01,0.0647969
-4.99000e-01,0.0634312
-4.98992e-01,0.0627875
-4.98984e-01,0.0638406
-4.98976e-01,0.0625937
-4.98968e-01,0.0637937
-4.98960e-01,0.06455
-4.98952e-01,0.0635875
-4.98944e-01,0.0644844
-4.98936e-01,0.0644625
-4.98928e-01,0.0662406
-4.98920e-01,0.0642437
-4.98912e-01,0.0642031
-4.98904e-01,0.0632219
-4.98896e-01,0.0612719
-4.98888e-01,0.0654812
-4.98880e-01,0.0630094
-4.98872e-01,0.0637594
-4.98864e-01,0.0634062
-4.98856e-01,0.0645594
-4.98848e-01,0.0649875
-4.98840e-01,0.0640219
-4.98832e-01,0.0656687
-4.98824e-01,0.0636312
-4.98816e-01,0.0643281
-4.98808e-01,0.0645937
-4.98800e-01,0.063475
-4.98792e-01,0.0646469
-4.98784e-01,0.0642844
-4.98776e-01,0.0631094
-4.98768e-01,0.0641156
-4.98760e-01,0.0631125
-4.98752e-01,0.0650062
-4.98744e-01,0.0631406
-4.98736e-01,0.063
-4.98728e-01,0.0661312
-4.98720e-01,0.0640344
-4.98712e-01,0.0645625
-4.98704e-01,0.0632187
-4.98696e-01,0.0636781
-4.98688e-01,0.0650719
-4.98680e-01,0.0651844
-4.98672e-01,0.065275
-4.98664e-01,0.0624156
-4.98656e-01,0.0663062
-4.98648e-01,0.063025
-4.98640e-01,0.0635531
-4.98632e-01,0.0639344
-4.98624e-01,0.0654687
-4.98616e-01,0.0644781
-4.98608e-01,0.0638687
-4.98600e-01,0.0646031
-4.98592e-01,0.0636094
-4.98584e-01,0.0635312
-4.98576e-01,0.0643062
-4.98568e-01,0.0631437
-4.98560e-01,0.0636531
-4.98552e-01,0.0629094
-4.98544e-01,0.0627344
-4.98536e-01,0.065225
-4.98528e-01,0.0625375
-4.98520e-01,0.0639187
-4.98512e-01,0.0648625
-4.98504e-01,0.0635219
-4.98496e-01,0.0639094
-4.98488e-01,0.0616812
-4.98480e-01,0.0643687
-4.98472e-01,0.0628062
-4.98464e-01,0.0633281
-4.98456e-01,0.0640156
-4.98448e-01,0.0633375
-4.98440e-01,0.0628531
-4.98432e-01,0.063225
-4.98424e-01,0.0647375
-4.98416e-01,0.0644312
-4.98408e-01,0.0637156
-4.98400e-01,0.0617094
-4.98392e-01,0.0640375
-4.98384e-01,0.0665062
-4.98376e-01,0.0650375
-4.98368e-01,0.0649906
-4.98360e-01,0.0642531
-4.98352e-01,0.0653219
-4.98344e-01,0.0641969
-4.98336e-01,0.0648656
-4.98328e-01,0.0624812
-4.98320e-01,0.0633219
-4.98312e-01,0.063475
-4.98304e-01,0.0651781
-4.98296e-01,0.0627656
-4.98288e-01,0.0642719
-4.98280e-01,0.0640437
-4.98272e-01,0.0639281
-4.98264e-01,0.0644906
-4.98256e-01,0.0641375
-4.98248e-01,0.0646969
-4.98240e-01,0.063975
-4.98232e-01,0.0661344
-4.98224e-01,0.0667875
-4.98216e-01,0.0653594
-4.98208e-01,0.06515
-4.98200e-01,0.0649469
-4.98192e-01,0.0631125
-4.98184e-01,0.0631687
-4.98176e-01,0.0645719
-4.98168e-01,0.0633687
-4.98160e-01,0.0627937
-4.98152e-01,0.0624875
-4.98144e-01,0.0646219
-4.98136e-01,0.06255
-4.98128e-01,0.0646656
-4.98120e-01,0.0648469
-4.98112e-01,0.0637812
-4.98104e-01,0.066125
-4.98096e-01,0.0646125
-4.98088e-01,0.0641562
-4.98080e-01,0.0653344
-4.98072e-01,0.0638156
-4.98064e-01,0.0636469
-4.98056e-01,0.0625281
-4.98048e-01,0.065475
-4.98040e-01,0.0621437
-4.98032e-01,0.0648375
-4.98024e-01,0.0644125
-4.98016e-01,0.0645156
-4.98008e-01,0.0642625
-4.98000e-01,0.063275
-4.97992e-01,0.0653094
-4.97984e-01,0.0637219
-4.97976e-01,0.0646406
-4.97968e-01,0.064625
-4.97960e-01,0.0637062
-4.97952e-01,0.065875
-4.97944e-01,0.064175
-4.97936e-01,0.0610812
-4.97928e-01,0.0654844
-4.97920e-01,0.062525
-4.97912e-01,0.063425
-4.97904e-01,0.0646062
-4.97896e-01,0.0659656
-4.97888e-01,0.0657031
-4.97880e-01,0.0642969
-4.97872e-01,0.0635406
-4.97864e-01,0.0659875
-4.97856e-01,0.0645437
-4.97848e-01,0.0651594
-4.97840e-01,0.063925
-4.97832e-01,0.0653437
-4.97824e-01,0.0635656
-4.97816e-01,0.0628219
-4.97808e-01,0.0648
-4.97800e-01,0.064325
-4.97792e-01,0.0641875
-4.97784e-01,0.0642562
-4.97776e-01,0.0649625
-4.97768e-01,0.0656719
-4.97760e-01,0.0630625
-4.97752e-01,0.0634969
-4.97744e-01,0.0649031
-4.97736e-01,0.0641406
-4.97728e-01,0.0612969
-4.97720e-01,0.0644687
-4.97712e-01,0.0647437
-4.97704e-01,0.0630812
-4.97696e-01,0.0640906
-4.97688e-01,0.0639625
-4.97680e-01,0.0628969
-4.97672e-01,0.0652875
-4.97664e-01,0.0661437
-4.97656e-01,0.0628625
-4.97648e-01,0.0635031
-4.97640e-01,0.0637062
-4.97632e-01,0.0642937
-4.97624e-01,0.0636156
-4.97616e-01,0.0644781
-4.97608e-01,0.0631656
-4.97600e-01,0.0633156
-4.97592e-01,0.0636125
-4.97584e-01,0.0652094
-4.97576e-01,0.0646
-4.97568e-01,0.0653625
-4.97560e-01,0.0652937
-4.97552e-01,0.0631031
-4.97544e-01,0.0653406
-4.97536e-01,0.0658
-4.97528e-01,0.0631875
-4.97520e-01,0.0635719
-4.97512e-01,0.0644875
-4.97504e-01,0.0636625
-4.97496e-01,0.062525
-4.97488e-01,0.0638719
-4.97480e-01,0.0640719
-4.97472e-01,0.0653156
-4.97464e-01,0.0652594
-4.97456e-01,0.0631594
-4.97448e-01,0.0636312
-4.97440e-01,0.0635031
-4.97432e-01,0.061375
-4.97424e-01,0.0658781
-4.97416e-01,0.0628656
-4.97408e-01,0.0651531
-4.97400e-01,0.0646312
-4.97392e-01,0.0645187
-4.97384e-01,0.0657937
-4.97376e-01,0.0645781
-4.97368e-01,0.0658469
-4.97360e-01,0.0632469
-4.97352e-01,0.0646562
-4.97344e-01,0.0623937
-4.97336e-01,0.0629906
-4.97328e-01,0.0646906
-4.97320e-01,0.0645625
-4.97312e-01,0.0644656
-4.97304e-01,0.0637156
-4.97296e-01,0.0635062
-4.97288e-01,0.0638844
-4.97280e-01,0.0651312
-4.97272e-01,0.0655031
-4.97264e-01,0.0658937
-4.97256e-01,0.0649219
-4.97248e-01,0.0621656
-4.97240e-01,0.0629719
-4.97232e-01,0.0634062
-4.97224e-01,0.0647312
-4.97216e-01,0.0623812
-4.97208e-01,0.0634812
-4.97200e-01,0.0625719
-4.97192e-01,0.0643125
-4.97184e-01,0.0637344
-4.97176e-01,0.0619094
-4.97168e-01,0.0633781
-4.97160e-01,0.0655625
-4.97152e-01,0.063025
-4.97144e-01,0.06395
-4.97136e-01,0.0649937
-4.97128e-01,0.0638812
-4.97120e-01,0.06375
-4.97112e-01,0.062
-4.97104e-01,0.0626312
-4.97096e-01,0.0637562
-4.97088e-01,0.0642875
-4.97080e-01,0.0630625
-4.97072e-01,0.0647156
-4.97064e-01,0.0643875
-4.97056e-01,0.0636906
-4.97048e-01,0.063675
-4.97040e-01,0.0642062
-4.97032e-01,0.0632375
-4.97024e-01,0.0646312
-4.97016e-01,0.0631656
-4.97008e-01,0.0629156
-4.97000e-01,0.0636
-4.96992e-01,0.06515
-4.96984e-01,0.0641125
-4.96976e-01,0.0646531
-4.96968e-01,0.0643312
-4.96960e-01,0.0647
-4.96952e-01,0.063625
-4.96944e-01,0.063625
-4.96936e-01,0.0664281
-4.96928e-01,0.0641562
-4.96920e-01,0.0642844
-4.96912e-01,0.0639187
-4.96904e-01,0.0641687
-4.96896e-01,0.0629
-4.96888e-01,0.06295
-4.96880e-01,0.0658156
-4.96872e-01,0.0633687
-4.96864e-01,0.064625
-4.96856e-01,0.0636594
-4.96848e-01,0.0631437
-4.96840e-01,0.0627125
-4.96832e-01,0.06405
-4.96824e-01,0.0656406
-4.96816e-01,0.0633187
-4.96808e-01,0.0647062
-4.96800e-01,0.063525
-4.96792e-01,0.0647469
-4.96784e-01,0.0640125
-4.96776e-01,0.0658875
-4.96768e-01,0.0636312
-4.96760e-01,0.0653
-4.96752e-01,0.063075
-4.96744e-01,0.0636094
-4.96736e-01,0.0638031
-4.96728e-01,0.0632281
-4.96720e-01,0.0623031
-4.96712e-01,0.0641375
-4.96704e-01,0.0609062
-4.96696e-01,0.0635531
-4.96688e-01,0.0636844
-4.96680e-01,0.0630531
-4.96672e-01,0.0656906
-4.96664e-01,0.0645562
-4.96656e-01,0.061525
-4.96648e-01,0.0649469
-4.96640e-01,0.06435
-4.96632e-01,0.0626719
-4.96624e-01,0.0633844
-4.96616e-01,0.0636469
-4.96608e-01,0.0650219
-4.96600e-01,0.064925
-4.96592e-01,0.0624969
-4.96584e-01,0.0637219
-4.96576e-01,0.0643
-4.96568e-01,0.0644875
-4.96560e-01,0.0645344
-4.96552e-01,0.0676375
-4.96544e-01,0.0623094
-4.96536e-01,0.0652531
-4.96528e-01,0.0635469
-4.96520e-01,0.0639
-4.96512e-01,0.0646406
-4.96504e-01,0.0629719
-4.96496e-01,0.0627531
-4.96488e-01,0.0644406
-4.96480e-01,0.0635406
-4.96472e-01,0.0636031
-4.96464e-01,0.0640375
-4.96456e-01,0.0635906
-4.96448e-01,0.0655625
-4.96440e-01,0.0634594
-4.96432e-01,0.06385
-4.96424e-01,0.0646469
-4.96416e-01,0.0639125
-4.96408e-01,0.0636469
-4.96400e-01,0.0633437
-4.96392e-01,0.0625781
-4.96384e-01,0.0651437
-4.96376e-01,0.0633469
-4.96368e-01,0.0631844
-4.96360e-01,0.0659406
-4.96352e-01,0.0638094
-4.96344e-01,0.0619094
-4.96336e-01,0.0636781
-4.96328e-01,0.0637094
-4.96320e-01,0.0639375
-4.96312e-01,0.0621875
-4.96304e-01,0.0642062
-4.96296e-01,0.0639187
-4.96288e-01,0.0636781
-4.96280e-01,0.0636687
-4.96272e-01,0.0658031
-4.96264e-01,0.0618875
-4.96256e-01,0.0651812
-4.96248e-01,0.0647219
-4.96240e-01,0.0635906
-4.96232e-01,0.0620437
-4.96224e-01,0.0625125
-4.96216e-01,0.0614156
-4.96208e-01,0.0645656
-4.96200e-01,0.0658062
-4.96192e-01,0.063025
-4.96184e-01,0.06355
-4.96176e-01,0.0641969
-4.96168e-01,0.0651687
-4.96160e-01,0.0651656
-4.96152e-01,0.0633656
-4.96144e-01,0.0661125
-4.96136e-01,0.0627844
-4.96128e-01,0.0636344
-4.96120e-01,0.0638281
-4.96112e-01,0.0639375
-4.96104e-01,0.063625
-4.96096e-01,0.0659062
-4.96088e-01,0.0631781
-4.96080e-01,0.0642969
-4.96072e-01,0.06475
-4.96064e-01,0.0628031
-4.96056e-01,0.0647312
-4.96048e-01,0.0643625
-4.96040e-01,0.061975
-4.96032e-01,0.0630719
-4.96024e-01,0.0625656
-4.96016e-01,0.0650687
-4.96008e-01,0.0635469
-4.96000e-01,0.063275
-4.95992e-01,0.0645187
-4.95984e-01,0.0638719
-4.95976e-01,0.0622031
-4.95968e-01,0.0637
-4.95960e-01,0.0631906
-4.95952e-01,0.0647437
-4.95944e-01,0.0642469
-4.95936e-01,0.0633437
-4.95928e-01,0.0649719
-4.95920e-01,0.0630562
-4.95912e-01,0.0641469
-4.95904e-01,0.0636281
-4.95896e-01,0.0634469
-4.95888e-01,0.0646531
-4.95880e-01,0.064825
-4.95872e-01,0.0636344
-4.95864e-01,0.0619906
-4.95856e-01,0.064425
-4.95848e-01,0.063025
-4.95840e-01,0.0646812
-4.95832e-01,0.0621719
-4.95824e-01,0.0640844
-4.95816e-01,0.064
-4.95808e-01,0.0633844
-4.95800e-01,0.0636531
-4.95792e-01,0.0628625
-4.95784e-01,0.0638406
-4.95776e-01,0.0650437
-4.95768e-01,0.0665219
-4.95760e-01,0.0633844
-4.95752e-01,0.0628187
-4.95744e-01,0.0639219
-4.95736e-01,0.0632719
-4.95728e-01,0.0640156
-4.95720e-01,0.0626
-4.95712e-01,0.0620625
-4.95704e-01,0.0638031
-4.95696e-01,0.0654812
-4.95688e-01,0.0654094
-4.95680e-01,0.064825
-4.95672e-01,0.0635969
-4.95664e-01,0.0630406
-4.95656e-01,0.0637812
-4.95648e-01,0.0625187
-4.95640e-01,0.0638281
-4.95632e-01,0.0627187
-4.95624e-01,0.0632031
-4.95616e-01,0.0640719
-4.95608e-01,0.0626969
-4.95600e-01,0.0649625
-4.95592e-01,0.0641687
-4.95584e-01,0.0657656
-4.95576e-01,0.0650625
-4.95568e-01,0.0640594
-4.95560e-01,0.06395
-4.95552e-01,0.0670062
-4.95544e-01,0.0655437
-4.95536e-01,0.0646
-4.95528e-01,0.062925
-4.95520e-01,0.0612625
-4.95512e-01,0.0637781
-4.95504e-01,0.0628187
-4.95496e-01,0.0653281
-4.95488e-01,0.0642812
-4.95480e-01,0.0642844
-4.95472e-01,0.0660375
-4.95464e-01,0.0635375
-4.95456e-01,0.0645062
-4.95448e-01,0.0637437
-4.95440e-01,0.0654812
-4.95432e-01,0.0619062
-4.95424e-01,0.0668062
-4.95416e-01,0.0644094
-4.95408e-01,0.0633531
-4.95400e-01,0.0633437
-4.95392e-01,0.0645437
-4.95384e-01,0.0643437
-4.95376e-01,0.0625844
-4.95368e-01,0.0637969
-4.95360e-01,0.0635625
-4.95352e-01,0.0627031
-4.95344e-01,0.0635875
-4.95336e-01,0.0655219
-4.95328e-01,0.0634
-4.95320e-01,0.0645969
-4.95312e-01,0.0656219
-4.95304e-01,0.067925
-4.95296e-01,0.0636594
-4.95288e-01,0.0633344
-4.95280e-01,0.0635625
-4.95272e-01,0.0653531
-4.95264e-01,0.0640125
-4.95256e-01,0.0625687
-4.95248e-01,0.0636687
-4.95240e-01,0.0649781
-4.95232e-01,0.0638125
-4.95224e-01,0.0631344
-4.95216e-01,0.0633812
-4.95208e-01,0.0659594
-4.95200e-01,0.0638844
-4.95192e-01,0.0648812
-4.95184e-01,0.0630344
-4.95176e-01,0.0642312
-4.95168e-01,0.0644906
-4.95160e-01,0.0626656
-4.95152e-01,0.0642062
-4.95144e-01,0.0653437
-4.95136e-01,0.0623219
-4.95128e-01,0.0633344
-4.95120e-01,0.0643062
-4.95112e-01,0.0638812
-4.95104e-01,0.0651625
-4.95096e-01,0.0661906
-4.95088e-01,0.062375
-4.95080e-01,0.0634687
-4.95072e-01,0.0615
-4.95064e-01,0.0642469
-4.95056e-01,0.0625875
-4.95048e-01,0.0637062
-4.95040e-01,0.0656281
-4.95032e-01,0.0626219
-4.95024e-01,0.0650437
-4.95016e-01,0.0657812
-4.95008e-01,0.0639469
-4.95000e-01,0.0649594
-4.94992e-01,0.0620719
-4.94984e-01,0.06355
-4.94976e-01,0.0646781
-4.94968e-01,0.064275
-4.94960e-01,0.064
-4.94952e-01,0.0629
-4.94944e-01,0.0636844
-4.94936e-01,0.06395
-4.94928e-01,0.0642312
-4.94920e-01,0.0641312
-4.94912e-01,0.0630812
-4.94904e-01,0.0636937
-4.94896e-01,0.0642937
-4.94888e-01,0.0644875
-4.94880e-01,0.0649
-4.94872e-01,0.0655969
-4.94864e-01,0.0640469
-4.94856e-01,0.0646469
-4.94848e-01,0.0667062
-4.94840e-01,0.0633219
-4.94832e-01,0.0648
-4.94824e-01,0.0645156
-4.94816e-01,0.0636875
-4.94808e-01,0.0636125
-4.94800e-01,0.0632375
-4.94792e-01,0.0635125
-4.94784e-01,0.0635031
-4.94776e-01,0.0632719
-4.94768e-01,0.0627781
-4.94760e-01,0.0662969
-4.94752e-01,0.066025
-4.94744e-01,0.0641312
-4.94736e-01,0.0646281
-4.94728e-01,0.0631656
-4.94720e-01,0.0640031
-4.94712e-01,0.0631531
-4.94704e-01,0.0620156
-4.94696e-01,0.0625562
-4.94688e-01,0.0634812
-4.94680e-01,0.0618812
-4.94672e-01,0.0637094
-4.94664e-01,0.0626687
-4.94656e-01,0.0643
-4.94648e-01,0.0619531
-4.94640e-01,0.0650906
-4.94632e-01,0.062025
-4.94624e-01,0.0647281
-4.94616e-01,0.063225
-4.94608e-01,0.0639594
-4.94600e-01,0.0651906
-4.94592e-01,0.0651094
-4.94584e-01,0.0630656
-4.94576e-01,0.0652125
-4.94568e-01,0.0636125
-4.94560e-01,0.0645312
-4.94552e-01,0.0645094
-4.94544e-01,0.0655812
-4.94536e-01,0.0644687
-4.94528e-01,0.0639406
-4.94520e-01,0.0659875
-4.94512e-01,0.0637562
-4.94504e-01,0.0641312
-4.94496e-01,0.0640656
-4.94488e-01,0.0642781
-4.94480e-01,0.0630531
-4.94472e-01,0.0641344
-4.94464e-01,0.0646344
-4.94456e-01,0.0639437
-4.94448e-01,0.0647031
-4.94440e-01,0.06325
-4.94432e-01,0.0637344
-4.94424e-01,0.06505
-4.94416e-01,0.0638031
-4.94408e-01,0.06395
-4.94400e-01,0.0639125
-4.94392e-01,0.0648281
-4.94384e-01,0.0629531
-4.94376e-01,0.0640906
-4.94368e-01,0.0625219
-4.94360e-01,0.0633
-4.94352e-01,0.0632781
-4.94344e-01,0.0615312
-4.94336e-01,0.0634562
-4.94328e-01,0.0637125
-4.94320e-01,0.0623156
-4.94312e-01,0.0651969
-4.94304e-01,0.0636375
-4.94296e-01,0.0650125
-4.94288e-01,0.0634562
-4.94280e-01,0.0648531
-4.94272e-01,0.0628625
-4.94264e-01,0.0628344
-4.94256e-01,0.0634844
-4.94248e-01,0.0634281
-4.94240e-01,0.0645687
-4.94232e-01,0.0630531
-4.94224e-01,0.0650344
-4.94216e-01,0.0635625
-4.94208e-01,0.0632781
-4.94200e-01,0.0625375
-4.94192e-01,0.0641062
-4.94184e-01,0.0643625
-4.94176e-01,0.0634031
-4.94168e-01,0.0648312
-4.94160e-01,0.0644812
-4.94152e-01,0.0643187
-4.94144e-01,0.0624969
-4.94136e-01,0.0636375
-4.94128e-01,0.0651281
-4.94120e-01,0.0640156
-4.94112e-01,0.0639875
-4.94104e-01,0.0638937
-4.94096e-01,0.0654531
-4.94088e-01,0.0634531
-4.94080e-01,0.0625187
-4.94072e-01,0.0622281
-4.94064e-01,0.061775
-4.94056e-01,0.0630062
-4.94048e-01,0.0633844
-4.94040e-01,0.0643125
-4.94032e-01,0.0635219
-4.94024e-01,0.0644562
-4.94016e-01,0.0642406
-4.94008e-01,0.0652375
-4.94000e-01,0.0644969
-4.93992e-01,0.0635219
-4.93984e-01,0.063275
-4.93976e-01,0.0643656
-4.93968e-01,0.0636062
-4.93960e-01,0.0637562
-4.93952e-01,0.06385
-4.93944e-01,0.0644156
-4.93936e-01,0.0640281
-4.93928e-01,0.0653187
-4.93920e-01,0.0650375
-4.93912e-01,0.0653875
-4.93904e-01,0.0635562
-4.93896e-01,0.0635687
-4.93888e-01,0.0648656
-4.93880e-01,0.0647906
-4.93872e-01,0.0621781
-4.93864e-01,0.0669969
-4.93856e-01,0.0646906
-4.93848e-01,0.0636625
-4.93840e-01,0.063475
-4.93832e-01,0.0637687
-4.93824e-01,0.0647469
-4.93816e-01,0.0620781
-4.93808e-01,0.0640312
-4.93800e-01,0.0637156
-4.93792e-01,0.0658219
-4.93784e-01,0.0627312
-4.93776e-01,0.0619687
-4.93768e-01,0.0619969
-4.93760e-01,0.062675
-4.93752e-01,0.0623937
-4.93744e-01,0.0653281
-4.93736e-01,0.0635531
-4.93728e-01,0.0660375
-4.93720e-01,0.0631
-4.93712e-01,0.0635187
-4.93704e-01,0.0627812
-4.93696e-01,0.0636156
-4.93688e-01,0.0633094
-4.93680e-01,0.0632844
-4.93672e-01,0.0642
-4.93664e-01,0.0641719
-4.93656e-01,0.063325
-4.93648e-01,0.0644437
-4.93640e-01,0.062425
-4.93632e-01,0.0640437
-4.93624e-01,0.0632437
-4.93616e-01,0.0643187
-4.93608e-01,0.0659781
-4.93600e-01,0.0641844
-4.93592e-01,0.0654844
-4.93584e-01,0.0628812
-4.93576e-01,0.0642687
-4.93568e-01,0.0638594
-4.93560e-01,0.0623437
-4.93552e-01,0.0626187
-4.93544e-01,0.0644375
-4.93536e-01,0.0639125
-4.93528e-01,0.0614437
-4.93520e-01,0.0634031
-4.93512e-01,0.0631719
-4.93504e-01,0.0624562
-4.93496e-01,0.0629437
-4.93488e-01,0.0638531
-4.93480e-01,0.0632219
-4.93472e-01,0.0649969
-4.93464e-01,0.0630937
-4.93456e-01,0.0649125
-4.93448e-01,0.0640687
-4.93440e-01,0.0628469
-4.93432e-01,0.0653531
-4.93424e-01,0.0629844
-4.93416e-01,0.0657906
-4.93408e-01,0.0635844
-4.93400e-01,0.0629656
-4.93392e-01,0.0621656
-4.93384e-01,0.0639094
-4.93376e-01,0.0633437
-4.93368e-01,0.0631062
-4.93360e-01,0.0638719
-4.93352e-01,0.0638625
-4.93344e-01,0.0645812
-4.93336e-01,0.0636312
-4.93328e-01,0.0639094
-4.93320e-01,0.0642719
-4.93312e-01,0.0631687
-4.93304e-01,0.0653906
-4.93296e-01,0.0652
-4.93288e-01,0.0636969
-4.93280e-01,0.0627
-4.93272e-01,0.0637937
-4.93264e-01,0.0655375
-4.93256e-01,0.0614562
-4.93248e-01,0.0636
-4.93240e-01,0.0648875
-4.93232e-01,0.062875
-4.93224e-01,0.0630844
-4.93216e-01,0.0639875
-4.93208e-01,0.06425
-4.93200e-01,0.06295
-4.93192e-01,0.0626906
-4.93184e-01,0.0639
-4.93176e-01,0.0639187
-4.93168e-01,0.0622562
-4.93160e-01,0.0639625
-4.93152e-01,0.064275
-4.93144e-01,0.0649906
-4.93136e-01,0.0635125
-4.93128e-01,0.0642812
-4.93120e-01,0.0630031
-4.93112e-01,0.0641062
-4.93104e-01,0.06525
-4.93096e-01,0.0638906
-4.93088e-01,0.0674
-4.93080e-01,0.0640312
