Messung_Leistungskennlinie_versch_Harvester/Harvester_neu/10kmh/Harvester2_5kOhm.CSV

Model,MSO2024
Firmware Version,1.52

Point Format,Y
Horizontal Units,S
Horizontal Scale,0.1
Sample Interval,8e-06
Filter Frequency,2e+08
Record Length,125000
Gating,0.0% to 100.0%
Probe Attenuation,10
Vertical Units,V
Vertical Offset,0
Vertical Scale,0.02
Label,
TIME,CH1
-5.00000e-01,0.0118219
-4.99992e-01,0.00993438
-4.99984e-01,0.0117094
-4.99976e-01,0.0108063
-4.99968e-01,0.0121594
-4.99960e-01,0.0110219
-4.99952e-01,0.0110969
-4.99944e-01,0.0137125
-4.99936e-01,0.0112625
-4.99928e-01,0.0103969
-4.99920e-01,0.0115844
-4.99912e-01,0.0123219
-4.99904e-01,0.012175
-4.99896e-01,0.0119594
-4.99888e-01,0.0125594
-4.99880e-01,0.0115469
-4.99872e-01,0.0118
-4.99864e-01,0.0118625
-4.99856e-01,0.0103375
-4.99848e-01,0.0123344
-4.99840e-01,0.0123094
-4.99832e-01,0.0112344
-4.99824e-01,0.0113094
-4.99816e-01,0.0115219
-4.99808e-01,0.0129969
-4.99800e-01,0.01275
-4.99792e-01,0.0119219
-4.99784e-01,0.0122844
-4.99776e-01,0.0112719
-4.99768e-01,0.013
-4.99760e-01,0.0121625
-4.99752e-01,0.0111344
-4.99744e-01,0.0117969
-4.99736e-01,0.0115219
-4.99728e-01,0.0123719
-4.99720e-01,0.0113844
-4.99712e-01,0.0120594
-4.99704e-01,0.0114594
-4.99696e-01,0.0120969
-4.99688e-01,0.012175
-4.99680e-01,0.0122969
-4.99672e-01,0.0120844
-4.99664e-01,0.0120594
-4.99656e-01,0.01225
-4.99648e-01,0.0123625
-4.99640e-01,0.0126219
-4.99632e-01,0.0122125
-4.99624e-01,0.0126969
-4.99616e-01,0.0111344
-4.99608e-01,0.0130969
-4.99600e-01,0.0125938
-4.99592e-01,0.0114094
-4.99584e-01,0.0120344
-4.99576e-01,0.0131094
-4.99568e-01,0.00887188
-4.99560e-01,0.0117594
-4.99552e-01,0.0112594
-4.99544e-01,0.0114469
-4.99536e-01,0.0111844
-4.99528e-01,0.0123094
-4.99520e-01,0.0136219
-4.99512e-01,0.0121219
-4.99504e-01,0.0115719
-4.99496e-01,0.0123719
-4.99488e-01,0.0121344
-4.99480e-01,0.0116469
-4.99472e-01,0.0124375
-4.99464e-01,0.009
-4.99456e-01,0.012275
-4.99448e-01,0.0122344
-4.99440e-01,0.010875
-4.99432e-01,0.0113469
-4.99424e-01,0.0107719
-4.99416e-01,0.0132219
-4.99408e-01,0.0128969
-4.99400e-01,0.0114719
-4.99392e-01,0.0110469
-4.99384e-01,0.0121219
-4.99376e-01,0.0132594
-4.99368e-01,0.0103969
-4.99360e-01,0.0117
-4.99352e-01,0.0105844
-4.99344e-01,0.0122719
-4.99336e-01,0.0120969
-4.99328e-01,0.0125219
-4.99320e-01,0.0132
-4.99312e-01,0.0119875
-4.99304e-01,0.0101719
-4.99296e-01,0.0108969
-4.99288e-01,0.0111469
-4.99280e-01,0.0124969
-4.99272e-01,0.0127219
-4.99264e-01,0.0120469
-4.99256e-01,0.0128
-4.99248e-01,0.0114594
-4.99240e-01,0.0116625
-4.99232e-01,0.0112969
-4.99224e-01,0.0130594
-4.99216e-01,0.0115344
-4.99208e-01,0.0114844
-4.99200e-01,0.0118219
-4.99192e-01,0.0127375
-4.99184e-01,0.0105344
-4.99176e-01,0.0108375
-4.99168e-01,0.0117844
-4.99160e-01,0.0123813
-4.99152e-01,0.0108094
-4.99144e-01,0.0117219
-4.99136e-01,0.011775
-4.99128e-01,0.0125875
-4.99120e-01,0.0101469
-4.99112e-01,0.011875
-4.99104e-01,0.0113219
-4.99096e-01,0.0107844
-4.99088e-01,0.0132
-4.99080e-01,0.00958438
-4.99072e-01,0.0121719
-4.99064e-01,0.01365
-4.99056e-01,0.0124219
-4.99048e-01,0.0122875
-4.99040e-01,0.0117219
-4.99032e-01,0.0117219
-4.99024e-01,0.0117375
-4.99016e-01,0.0111844
-4.99008e-01,0.0107719
-4.99000e-01,0.0107844
-4.98992e-01,0.0124594
-4.98984e-01,0.0111969
-4.98976e-01,0.0117219
-4.98968e-01,0.01395
-4.98960e-01,0.0116344
-4.98952e-01,0.012025
-4.98944e-01,0.0115969
-4.98936e-01,0.01135
-4.98928e-01,0.0107969
-4.98920e-01,0.0112719
-4.98912e-01,0.0111
-4.98904e-01,0.0114344
-4.98896e-01,0.0137844
-4.98888e-01,0.0126719
-4.98880e-01,0.0108625
-4.98872e-01,0.01235
-4.98864e-01,0.0111219
-4.98856e-01,0.0110625
-4.98848e-01,0.013775
-4.98840e-01,0.0104969
-4.98832e-01,0.0114375
-4.98824e-01,0.0113094
-4.98816e-01,0.0119469
-4.98808e-01,0.0116719
-4.98800e-01,0.0104469
-4.98792e-01,0.0108594
-4.98784e-01,0.0123219
-4.98776e-01,0.0122625
-4.98768e-01,0.0112594
-4.98760e-01,0.0106844
-4.98752e-01,0.0119375
-4.98744e-01,0.0124719
-4.98736e-01,0.013825
-4.98728e-01,0.012025
-4.98720e-01,0.0111344
-4.98712e-01,0.0132344
-4.98704e-01,0.0125719
-4.98696e-01,0.0126844
-4.98688e-01,0.0116219
-4.98680e-01,0.0113469
-4.98672e-01,0.0124219
-4.98664e-01,0.011775
-4.98656e-01,0.0124594
-4.98648e-01,0.0117094
-4.98640e-01,0.0114875
-4.98632e-01,0.013675
-4.98624e-01,0.0122344
-4.98616e-01,0.0109969
-4.98608e-01,0.0111219
-4.98600e-01,0.0117469
-4.98592e-01,0.00994688
-4.98584e-01,0.0139594
-4.98576e-01,0.0107375
-4.98568e-01,0.0100594
-4.98560e-01,0.0117469
-4.98552e-01,0.0105469
-4.98544e-01,0.0120375
-4.98536e-01,0.0111844
-4.98528e-01,0.0112969
-4.98520e-01,0.0128969
-4.98512e-01,0.0128938
-4.98504e-01,0.0127375
-4.98496e-01,0.011875
-4.98488e-01,0.0107375
-4.98480e-01,0.0135719
-4.98472e-01,0.0116594
-4.98464e-01,0.0104469
-4.98456e-01,0.0111844
-4.98448e-01,0.0110094
-4.98440e-01,0.0128719
-4.98432e-01,0.0119469
-4.98424e-01,0.0122125
-4.98416e-01,0.0130094
-4.98408e-01,0.0111094
-4.98400e-01,0.0119844
-4.98392e-01,0.0123719
-4.98384e-01,0.0117844
-4.98376e-01,0.011225
-4.98368e-01,0.0116594
-4.98360e-01,0.0118469
-4.98352e-01,0.0113594
-4.98344e-01,0.0105969
-4.98336e-01,0.0125969
-4.98328e-01,0.0103844
-4.98320e-01,0.0104969
-4.98312e-01,0.0106219
-4.98304e-01,0.0118844
-4.98296e-01,0.013975
-4.98288e-01,0.0132125
-4.98280e-01,0.0109344
-4.98272e-01,0.0104719
-4.98264e-01,0.0118094
-4.98256e-01,0.01255
-4.98248e-01,0.0120469
-4.98240e-01,0.012775
-4.98232e-01,0.0114344
-4.98224e-01,0.0117219
-4.98216e-01,0.0119594
-4.98208e-01,0.0121375
-4.98200e-01,0.0115875
-4.98192e-01,0.0100469
-4.98184e-01,0.0118469
-4.98176e-01,0.0116594
-4.98168e-01,0.0116844
-4.98160e-01,0.0120094
-4.98152e-01,0.0125625
-4.98144e-01,0.0115594
-4.98136e-01,0.0141625
-4.98128e-01,0.0112969
-4.98120e-01,0.0118
-4.98112e-01,0.0114469
-4.98104e-01,0.0110719
-4.98096e-01,0.0113125
-4.98088e-01,0.0108469
-4.98080e-01,0.0119219
-4.98072e-01,0.0129469
-4.98064e-01,0.0115844
-4.98056e-01,0.0125375
-4.98048e-01,0.01385
-4.98040e-01,0.0118469
-4.98032e-01,0.0121719
-4.98024e-01,0.0120219
-4.98016e-01,0.0115094
-4.98008e-01,0.0127594
-4.98000e-01,0.0101469
-4.97992e-01,0.0124844
-4.97984e-01,0.0121969
-4.97976e-01,0.0104719
-4.97968e-01,0.0116719
-4.97960e-01,0.0094625
-4.97952e-01,0.0112219
-4.97944e-01,0.0123969
-4.97936e-01,0.0123469
-4.97928e-01,0.0122719
-4.97920e-01,0.0117469
-4.97912e-01,0.0118125
-4.97904e-01,0.0127094
-4.97896e-01,0.0120094
-4.97888e-01,0.01235
-4.97880e-01,0.010725
-4.97872e-01,0.0124094
-4.97864e-01,0.0113969
-4.97856e-01,0.0119469
-4.97848e-01,0.011275
-4.97840e-01,0.0108
-4.97832e-01,0.0124344
-4.97824e-01,0.0115594
-4.97816e-01,0.0124844
-4.97808e-01,0.011425
-4.97800e-01,0.0109844
-4.97792e-01,0.011325
-4.97784e-01,0.0116969
-4.97776e-01,0.0130969
-4.97768e-01,0.0114844
-4.97760e-01,0.0126
-4.97752e-01,0.0120969
-4.97744e-01,0.0127875
-4.97736e-01,0.0124719
-4.97728e-01,0.0120625
-4.97720e-01,0.0116219
-4.97712e-01,0.010375
-4.97704e-01,0.0119969
-4.97696e-01,0.0100594
-4.97688e-01,0.0115969
-4.97680e-01,0.0120969
-4.97672e-01,0.01195
-4.97664e-01,0.0111594
-4.97656e-01,0.0121125
-4.97648e-01,0.0112125
-4.97640e-01,0.0126719
-4.97632e-01,0.0118219
-4.97624e-01,0.0106594
-4.97616e-01,0.0113844
-4.97608e-01,0.0127719
-4.97600e-01,0.011725
-4.97592e-01,0.0107844
-4.97584e-01,0.0129969
-4.97576e-01,0.0136219
-4.97568e-01,0.0129
-4.97560e-01,0.012075
-4.97552e-01,0.0114969
-4.97544e-01,0.0124094
-4.97536e-01,0.0121469
-4.97528e-01,0.0114219
-4.97520e-01,0.0118344
-4.97512e-01,0.0117844
-4.97504e-01,0.0119625
-4.97496e-01,0.0115469
-4.97488e-01,0.0117469
-4.97480e-01,0.0120469
-4.97472e-01,0.0116719
-4.97464e-01,0.0106594
-4.97456e-01,0.0105344
-4.97448e-01,0.0114594
-4.97440e-01,0.0108219
-4.97432e-01,0.0124563
-4.97424e-01,0.0121625
-4.97416e-01,0.0108594
-4.97408e-01,0.0113875
-4.97400e-01,0.0115344
-4.97392e-01,0.0105969
-4.97384e-01,0.0125969
-4.97376e-01,0.0108594
-4.97368e-01,0.0111469
-4.97360e-01,0.0117094
-4.97352e-01,0.0136219
-4.97344e-01,0.0121219
-4.97336e-01,0.0120969
-4.97328e-01,0.0130563
-4.97320e-01,0.0108719
-4.97312e-01,0.0116844
-4.97304e-01,0.0110969
-4.97296e-01,0.012125
-4.97288e-01,0.0135469
-4.97280e-01,0.0111219
-4.97272e-01,0.0119094
-4.97264e-01,0.0118969
-4.97256e-01,0.0109219
-4.97248e-01,0.0114094
-4.97240e-01,0.0117094
-4.97232e-01,0.01115
-4.97224e-01,0.0115719
-4.97216e-01,0.0120344
-4.97208e-01,0.0112969
-4.97200e-01,0.0115094
-4.97192e-01,0.0121469
-4.97184e-01,0.0107469
-4.97176e-01,0.0119094
-4.97168e-01,0.0131719
-4.97160e-01,0.0120719
-4.97152e-01,0.0101
-4.97144e-01,0.0125469
-4.97136e-01,0.0104594
-4.97128e-01,0.0115094
-4.97120e-01,0.0108969
-4.97112e-01,0.0113094
-4.97104e-01,0.0122344
-4.97096e-01,0.0118469
-4.97088e-01,0.0113719
-4.97080e-01,0.0117344
-4.97072e-01,0.00972188
-4.97064e-01,0.0121594
-4.97056e-01,0.0105125
-4.97048e-01,0.0123219
-4.97040e-01,0.0139844
-4.97032e-01,0.0122719
-4.97024e-01,0.0104594
-4.97016e-01,0.0133469
-4.97008e-01,0.0125844
-4.97000e-01,0.0126469
-4.96992e-01,0.0106969
-4.96984e-01,0.0118219
-4.96976e-01,0.0117844
-4.96968e-01,0.0107469
-4.96960e-01,0.0112344
-4.96952e-01,0.0109594
-4.96944e-01,0.0109719
-4.96936e-01,0.0125594
-4.96928e-01,0.0115969
-4.96920e-01,0.0120594
-4.96912e-01,0.0107719
-4.96904e-01,0.0115375
-4.96896e-01,0.0120344
-4.96888e-01,0.0102219
-4.96880e-01,0.00860938
-4.96872e-01,0.0117094
-4.96864e-01,0.0110875
-4.96856e-01,0.0139875
-4.96848e-01,0.01215
-4.96840e-01,0.0124344
-4.96832e-01,0.0108625
-4.96824e-01,0.0112375
-4.96816e-01,0.01145
-4.96808e-01,0.0118344
-4.96800e-01,0.0114969
-4.96792e-01,0.0120844
-4.96784e-01,0.0121219
-4.96776e-01,0.01255
-4.96768e-01,0.0118469
-4.96760e-01,0.0119719
-4.96752e-01,0.0100844
-4.96744e-01,0.0115625
-4.96736e-01,0.0102844
-4.96728e-01,0.0116
-4.96720e-01,0.0111719
-4.96712e-01,0.0106219
-4.96704e-01,0.0134969
-4.96696e-01,0.011425
-4.96688e-01,0.01145
-4.96680e-01,0.0134094
-4.96672e-01,0.0116719
-4.96664e-01,0.012325
-4.96656e-01,0.0122969
-4.96648e-01,0.0117875
-4.96640e-01,0.0119719
-4.96632e-01,0.0128094
-4.96624e-01,0.01245
-4.96616e-01,0.0110094
-4.96608e-01,0.0111969
-4.96600e-01,0.0111219
-4.96592e-01,0.0120594
-4.96584e-01,0.0104969
-4.96576e-01,0.01215
-4.96568e-01,0.0111469
-4.96560e-01,0.0106969
-4.96552e-01,0.0120969
-4.96544e-01,0.0125969
-4.96536e-01,0.0116844
-4.96528e-01,0.010725
-4.96520e-01,0.0122344
-4.96512e-01,0.0127125
-4.96504e-01,0.0122594
-4.96496e-01,0.0118719
-4.96488e-01,0.0110344
-4.96480e-01,0.0118969
-4.96472e-01,0.0121594
-4.96464e-01,0.0138719
-4.96456e-01,0.0110719
-4.96448e-01,0.0118469
-4.96440e-01,0.0113344
-4.96432e-01,0.0110719
-4.96424e-01,0.0120594
-4.96416e-01,0.0117844
-4.96408e-01,0.0113344
-4.96400e-01,0.0124594
-4.96392e-01,0.0105344
-4.96384e-01,0.0120094
-4.96376e-01,0.0111094
-4.96368e-01,0.0105969
-4.96360e-01,0.0123
-4.96352e-01,0.00962188
-4.96344e-01,0.0106969
-4.96336e-01,0.0108719
-4.96328e-01,0.0113125
-4.96320e-01,0.0118844
-4.96312e-01,0.0107844
-4.96304e-01,0.0120625
-4.96296e-01,0.0115469
-4.96288e-01,0.0111625
-4.96280e-01,0.0111469
-4.96272e-01,0.0120844
-4.96264e-01,0.0119125
-4.96256e-01,0.011425
-4.96248e-01,0.01255
-4.96240e-01,0.010775
-4.96232e-01,0.0108
-4.96224e-01,0.0126344
-4.96216e-01,0.0114219
-4.96208e-01,0.0115094
-4.96200e-01,0.0119844
-4.96192e-01,0.0130469
-4.96184e-01,0.0104875
-4.96176e-01,0.0115594
-4.96168e-01,0.0114875
-4.96160e-01,0.01245
-4.96152e-01,0.0120094
-4.96144e-01,0.011275
-4.96136e-01,0.0117594
-4.96128e-01,0.0110844
-4.96120e-01,0.0106594
-4.96112e-01,0.0107344
-4.96104e-01,0.0123844
-4.96096e-01,0.011925
-4.96088e-01,0.0120969
-4.96080e-01,0.0112969
-4.96072e-01,0.0129469
-4.96064e-01,0.01205
-4.96056e-01,0.011075
-4.96048e-01,0.011125
-4.96040e-01,0.0117094
-4.96032e-01,0.0115875
-4.96024e-01,0.0106344
-4.96016e-01,0.0118469
-4.96008e-01,0.0122594
-4.96000e-01,0.0121219
-4.95992e-01,0.0116469
-4.95984e-01,0.0119094
-4.95976e-01,0.0103
-4.95968e-01,0.0120969
-4.95960e-01,0.0110719
-4.95952e-01,0.0111719
-4.95944e-01,0.0112875
-4.95936e-01,0.011325
-4.95928e-01,0.0120719
-4.95920e-01,0.0122844
-4.95912e-01,0.0129844
-4.95904e-01,0.0102094
-4.95896e-01,0.0128969
-4.95888e-01,0.012
-4.95880e-01,0.0124
-4.95872e-01,0.0121344
-4.95864e-01,0.0119469
-4.95856e-01,0.0129344
-4.95848e-01,0.0109094
-4.95840e-01,0.0112719
-4.95832e-01,0.0123625
-4.95824e-01,0.0131594
-4.95816e-01,0.011925
-4.95808e-01,0.0111344
-4.95800e-01,0.0136125
-4.95792e-01,0.0102469
-4.95784e-01,0.0134469
-4.95776e-01,0.012375
-4.95768e-01,0.0118594
-4.95760e-01,0.0116594
-4.95752e-01,0.00998438
-4.95744e-01,0.0124469
-4.95736e-01,0.0127469
-4.95728e-01,0.0108
-4.95720e-01,0.0115094
-4.95712e-01,0.0124625
-4.95704e-01,0.0130594
-4.95696e-01,0.0113125
-4.95688e-01,0.0100219
-4.95680e-01,0.0115469
-4.95672e-01,0.0130969
-4.95664e-01,0.0116469
-4.95656e-01,0.0133469
-4.95648e-01,0.0113219
-4.95640e-01,0.0112375
-4.95632e-01,0.0113625
-4.95624e-01,0.0106719
-4.95616e-01,0.0125094
-4.95608e-01,0.0103
-4.95600e-01,0.01205
-4.95592e-01,0.0114969
-4.95584e-01,0.0102625
-4.95576e-01,0.01155
-4.95568e-01,0.0124094
-4.95560e-01,0.009625
-4.95552e-01,0.0110844
-4.95544e-01,0.0122875
-4.95536e-01,0.0124844
-4.95528e-01,0.0119094
-4.95520e-01,0.013175
-4.95512e-01,0.0113844
-4.95504e-01,0.0115
-4.95496e-01,0.0123219
-4.95488e-01,0.0109219
-4.95480e-01,0.0110344
-4.95472e-01,0.0101219
-4.95464e-01,0.0129469
-4.95456e-01,0.0114719
-4.95448e-01,0.0106719
-4.95440e-01,0.0121969
-4.95432e-01,0.0109844
-4.95424e-01,0.011225
-4.95416e-01,0.00983438
-4.95408e-01,0.0114875
-4.95400e-01,0.010575
-4.95392e-01,0.0112813
-4.95384e-01,0.0133719
-4.95376e-01,0.0122875
-4.95368e-01,0.0129719
-4.95360e-01,0.0117094
-4.95352e-01,0.0113469
-4.95344e-01,0.0103469
-4.95336e-01,0.011075
-4.95328e-01,0.0112
-4.95320e-01,0.0105344
-4.95312e-01,0.0110594
-4.95304e-01,0.0118344
-4.95296e-01,0.0114219
-4.95288e-01,0.011475
-4.95280e-01,0.0119219
-4.95272e-01,0.0116219
-4.95264e-01,0.0124469
-4.95256e-01,0.0118594
-4.95248e-01,0.0115594
-4.95240e-01,0.0108469
-4.95232e-01,0.0133219
-4.95224e-01,0.0115094
-4.95216e-01,0.0107219
-4.95208e-01,0.0107594
-4.95200e-01,0.0110844
-4.95192e-01,0.0114344
-4.95184e-01,0.0114844
-4.95176e-01,0.012125
-4.95168e-01,0.0116719
-4.95160e-01,0.0114719
-4.95152e-01,0.0106094
-4.95144e-01,0.0127469
-4.95136e-01,0.0103594
-4.95128e-01,0.0117969
-4.95120e-01,0.010325
-4.95112e-01,0.0124844
-4.95104e-01,0.0119
-4.95096e-01,0.0110469
-4.95088e-01,0.0106219
-4.95080e-01,0.0100844
-4.95072e-01,0.0119594
-4.95064e-01,0.0120844
-4.95056e-01,0.0121219
-4.95048e-01,0.0114344
-4.95040e-01,0.0121125
-4.95032e-01,0.0106969
-4.95024e-01,0.0113344
-4.95016e-01,0.011625
-4.95008e-01,0.0121875
-4.95000e-01,0.00998438
-4.94992e-01,0.0116219
-4.94984e-01,0.0140875
-4.94976e-01,0.0109344
-4.94968e-01,0.0114625
-4.94960e-01,0.0111719
-4.94952e-01,0.0117719
-4.94944e-01,0.009925
-4.94936e-01,0.0114594
-4.94928e-01,0.0114375
-4.94920e-01,0.0115594
-4.94912e-01,0.0117219
-4.94904e-01,0.0115719
-4.94896e-01,0.0118125
-4.94888e-01,0.0123219
-4.94880e-01,0.0117469
-4.94872e-01,0.0128375
-4.94864e-01,0.012975
-4.94856e-01,0.0111219
-4.94848e-01,0.0138844
-4.94840e-01,0.0109844
-4.94832e-01,0.0107094
-4.94824e-01,0.0140844
-4.94816e-01,0.0118375
-4.94808e-01,0.0102844
-4.94800e-01,0.0123969
-4.94792e-01,0.0105125
-4.94784e-01,0.0107344
-4.94776e-01,0.0108969
-4.94768e-01,0.0125594
-4.94760e-01,0.0122094
-4.94752e-01,0.0116844
-4.94744e-01,0.010625
-4.94736e-01,0.0116469
-4.94728e-01,0.0136219
-4.94720e-01,0.0117594
-4.94712e-01,0.0122344
-4.94704e-01,0.0118719
-4.94696e-01,0.0127344
-4.94688e-01,0.013325
-4.94680e-01,0.0117625
-4.94672e-01,0.0135219
-4.94664e-01,0.0105594
-4.94656e-01,0.0112719
-4.94648e-01,0.0120969
-4.94640e-01,0.0109344
-4.94632e-01,0.01165
-4.94624e-01,0.0105969
-4.94616e-01,0.0113219
-4.94608e-01,0.0126094
-4.94600e-01,0.0114219
-4.94592e-01,0.0121969
-4.94584e-01,0.0111344
-4.94576e-01,0.0119844
-4.94568e-01,0.0114
-4.94560e-01,0.0105844
-4.94552e-01,0.0125094
-4.94544e-01,0.0116719
-4.94536e-01,0.0106844
-4.94528e-01,0.0115344
-4.94520e-01,0.0118125
-4.94512e-01,0.0118469
-4.94504e-01,0.0115469
-4.94496e-01,0.0107219
-4.94488e-01,0.0112594
-4.94480e-01,0.0114344
-4.94472e-01,0.0112969
-4.94464e-01,0.0119688
-4.94456e-01,0.0121
-4.94448e-01,0.0100594
-4.94440e-01,0.0115469
-4.94432e-01,0.0120719
-4.94424e-01,0.0120219
-4.94416e-01,0.011775
-4.94408e-01,0.01185
-4.94400e-01,0.0112125
-4.94392e-01,0.0107219
-4.94384e-01,0.0105969
-4.94376e-01,0.0122344
-4.94368e-01,0.0118594
-4.94360e-01,0.0117625
-4.94352e-01,0.0105
-4.94344e-01,0.0100719
-4.94336e-01,0.0129719
-4.94328e-01,0.0129844
-4.94320e-01,0.00947188
-4.94312e-01,0.01125
-4.94304e-01,0.0128844
-4.94296e-01,0.0121344
-4.94288e-01,0.0116469
-4.94280e-01,0.0111344
-4.94272e-01,0.0114344
-4.94264e-01,0.0122125
-4.94256e-01,0.0118969
-4.94248e-01,0.0126219
-4.94240e-01,0.0112844
-4.94232e-01,0.0110469
-4.94224e-01,0.0121375
-4.94216e-01,0.0122
-4.94208e-01,0.0118063
-4.94200e-01,0.01105
-4.94192e-01,0.0115594
-4.94184e-01,0.0103469
-4.94176e-01,0.011325
-4.94168e-01,0.0115344
-4.94160e-01,0.0111219
-4.94152e-01,0.012175
-4.94144e-01,0.0108969
-4.94136e-01,0.0126719
-4.94128e-01,0.0107719
-4.94120e-01,0.0111594
-4.94112e-01,0.011625
-4.94104e-01,0.0102969
-4.94096e-01,0.0116844
-4.94088e-01,0.0114094
-4.94080e-01,0.0106
-4.94072e-01,0.0105219
-4.94064e-01,0.0125469
-4.94056e-01,0.0106219
-4.94048e-01,0.0117969
-4.94040e-01,0.0116844
-4.94032e-01,0.0118844
-4.94024e-01,0.0113719
-4.94016e-01,0.00994688
-4.94008e-01,0.0123719
-4.94000e-01,0.0113844
-4.93992e-01,0.0113875
-4.93984e-01,0.0106875
-4.93976e-01,0.0126
-4.93968e-01,0.0125844
-4.93960e-01,0.0105844
-4.93952e-01,0.0107875
-4.93944e-01,0.0112375
-4.93936e-01,0.0138844
-4.93928e-01,0.0113469
-4.93920e-01,0.0107469
-4.93912e-01,0.0123969
-4.93904e-01,0.01355
-4.93896e-01,0.01195
-4.93888e-01,0.0115125
-4.93880e-01,0.011525
-4.93872e-01,0.0117875
-4.93864e-01,0.0119219
-4.93856e-01,0.0115094
-4.93848e-01,0.0118875
-4.93840e-01,0.0110594
-4.93832e-01,0.0119469
-4.93824e-01,0.0112094
-4.93816e-01,0.0119969
-4.93808e-01,0.0114125
-4.93800e-01,0.0105969
-4.93792e-01,0.0102594
-4.93784e-01,0.0105844
-4.93776e-01,0.0119094
-4.93768e-01,0.0121625
-4.93760e-01,0.0128313
-4.93752e-01,0.012275
-4.93744e-01,0.0124719
-4.93736e-01,0.0127375
-4.93728e-01,0.0117875
-4.93720e-01,0.0115844
-4.93712e-01,0.0121969
-4.93704e-01,0.011675
-4.93696e-01,0.0114344
-4.93688e-01,0.0117219
-4.93680e-01,0.0118969
-4.93672e-01,0.0106219
-4.93664e-01,0.0121344
-4.93656e-01,0.0100438
-4.93648e-01,0.0124844
-4.93640e-01,0.01195
-4.93632e-01,0.0106719
-4.93624e-01,0.0115594
-4.93616e-01,0.011475
-4.93608e-01,0.0129094
-4.93600e-01,0.0113844
-4.93592e-01,0.0110344
-4.93584e-01,0.0110594
-4.93576e-01,0.0120719
-4.93568e-01,0.0107844
-4.93560e-01,0.0127344
-4.93552e-01,0.0122938
-4.93544e-01,0.0119969
-4.93536e-01,0.0122969
-4.93528e-01,0.0126094
-4.93520e-01,0.0111594
-4.93512e-01,0.0113969
-4.93504e-01,0.0116594
-4.93496e-01,0.0122969
-4.93488e-01,0.0103219
-4.93480e-01,0.0123969
-4.93472e-01,0.0102219
-4.93464e-01,0.0115094
-4.93456e-01,0.0118594
-4.93448e-01,0.0124219
-4.93440e-01,0.01265
-4.93432e-01,0.0122469
-4.93424e-01,0.0131125
-4.93416e-01,0.0125469
-4.93408e-01,0.0114375
-4.93400e-01,0.0115094
-4.93392e-01,0.00980938
-4.93384e-01,0.0105094
-4.93376e-01,0.0125969
-4.93368e-01,0.0118875
-4.93360e-01,0.013075
-4.93352e-01,0.0116125
-4.93344e-01,0.0105719
-4.93336e-01,0.0106688
-4.93328e-01,0.0114719
-4.93320e-01,0.010675
-4.93312e-01,0.0114719
-4.93304e-01,0.00917188
-4.93296e-01,0.0117219
-4.93288e-01,0.0116094
-4.93280e-01,0.0114594
-4.93272e-01,0.010575
-4.93264e-01,0.0114594
-4.93256e-01,0.01215
-4.93248e-01,0.0104219
-4.93240e-01,0.0104625
-4.93232e-01,0.0106844
-4.93224e-01,0.01285
-4.93216e-01,0.0103719
-4.93208e-01,0.0124719
-4.93200e-01,0.0124125
-4.93192e-01,0.0106875
-4.93184e-01,0.0116844
-4.93176e-01,0.0113719
-4.93168e-01,0.0111625
-4.93160e-01,0.0116094
-4.93152e-01,0.0127375
-4.93144e-01,0.00999688
-4.93136e-01,0.0141844
-4.93128e-01,0.0114594
-4.93120e-01,0.0114844
-4.93112e-01,0.0118719
-4.93104e-01,0.0115094
-4.93096e-01,0.0115469
-4.93088e-01,0.0110344
-4.93080e-01,0.0106844
