CD-Dateien/Messprotokolle/Messung_Leistungskennlinie_Harvester_fliegender_Aufbau/Messungen/Harvester_10kmh_3kOhm.CSV

Model,MSO2024
Firmware Version,1.52

Point Format,Y
Horizontal Units,S
Horizontal Scale,0.1
Sample Interval,8e-06
Filter Frequency,2e+08
Record Length,125000
Gating,0.0% to 100.0%
Probe Attenuation,10
Vertical Units,V
Vertical Offset,0
Vertical Scale,0.1
Label,
TIME,CH3
-3.00000e-01,0.288016
-2.99992e-01,0.287297
-2.99984e-01,0.288016
-2.99976e-01,0.287516
-2.99968e-01,0.288016
-2.99960e-01,0.2875
-2.99952e-01,0.287797
-2.99944e-01,0.288938
-2.99936e-01,0.288438
-2.99928e-01,0.28725
-2.99920e-01,0.2885
-2.99912e-01,0.286859
-2.99904e-01,0.287688
-2.99896e-01,0.287891
-2.99888e-01,0.288891
-2.99880e-01,0.288
-2.99872e-01,0.286984
-2.99864e-01,0.28675
-2.99856e-01,0.287578
-2.99848e-01,0.287563
-2.99840e-01,0.288125
-2.99832e-01,0.288953
-2.99824e-01,0.287688
-2.99816e-01,0.287891
-2.99808e-01,0.287234
-2.99800e-01,0.288453
-2.99792e-01,0.287797
-2.99784e-01,0.288063
-2.99776e-01,0.287797
-2.99768e-01,0.286484
-2.99760e-01,0.286484
-2.99752e-01,0.287484
-2.99744e-01,0.285531
-2.99736e-01,0.288078
-2.99728e-01,0.286922
-2.99720e-01,0.286734
-2.99712e-01,0.28775
-2.99704e-01,0.288063
-2.99696e-01,0.287625
-2.99688e-01,0.284953
-2.99680e-01,0.286531
-2.99672e-01,0.288516
-2.99664e-01,0.288063
-2.99656e-01,0.286859
-2.99648e-01,0.288063
-2.99640e-01,0.287063
-2.99632e-01,0.286047
-2.99624e-01,0.287563
-2.99616e-01,0.28825
-2.99608e-01,0.286734
-2.99600e-01,0.288
-2.99592e-01,0.287297
-2.99584e-01,0.286797
-2.99576e-01,0.286922
-2.99568e-01,0.287125
-2.99560e-01,0.287406
-2.99552e-01,0.286359
-2.99544e-01,0.288063
-2.99536e-01,0.28725
-2.99528e-01,0.286359
-2.99520e-01,0.286359
-2.99512e-01,0.288078
-2.99504e-01,0.287297
-2.99496e-01,0.286859
-2.99488e-01,0.285984
-2.99480e-01,0.286469
-2.99472e-01,0.287234
-2.99464e-01,0.287688
-2.99456e-01,0.285984
-2.99448e-01,0.28725
-2.99440e-01,0.287406
-2.99432e-01,0.286859
-2.99424e-01,0.286469
-2.99416e-01,0.287359
-2.99408e-01,0.286688
-2.99400e-01,0.287625
-2.99392e-01,0.286859
-2.99384e-01,0.286922
-2.99376e-01,0.286859
-2.99368e-01,0.286984
-2.99360e-01,0.286422
-2.99352e-01,0.287359
-2.99344e-01,0.287234
-2.99336e-01,0.285656
-2.99328e-01,0.286594
-2.99320e-01,0.287625
-2.99312e-01,0.286156
-2.99304e-01,0.286859
-2.99296e-01,0.287688
-2.99288e-01,0.286859
-2.99280e-01,0.286422
-2.99272e-01,0.286906
-2.99264e-01,0.286156
-2.99256e-01,0.284766
-2.99248e-01,0.286859
-2.99240e-01,0.285703
-2.99232e-01,0.286484
-2.99224e-01,0.285984
-2.99216e-01,0.286969
-2.99208e-01,0.2875
-2.99200e-01,0.286359
-2.99192e-01,0.286094
-2.99184e-01,0.286922
-2.99176e-01,0.287734
-2.99168e-01,0.285594
-2.99160e-01,0.284891
-2.99152e-01,0.287234
-2.99144e-01,0.287188
-2.99136e-01,0.285969
-2.99128e-01,0.285719
-2.99120e-01,0.286031
-2.99112e-01,0.285703
-2.99104e-01,0.284953
-2.99096e-01,0.286859
-2.99088e-01,0.285219
-2.99080e-01,0.286859
-2.99072e-01,0.284563
-2.99064e-01,0.285594
-2.99056e-01,0.286984
-2.99048e-01,0.285984
-2.99040e-01,0.285922
-2.99032e-01,0.285219
-2.99024e-01,0.286484
-2.99016e-01,0.285656
-2.99008e-01,0.286531
-2.99000e-01,0.286734
-2.98992e-01,0.285219
-2.98984e-01,0.286047
-2.98976e-01,0.285766
-2.98968e-01,0.287125
-2.98960e-01,0.286094
-2.98952e-01,0.286156
-2.98944e-01,0.284
-2.98936e-01,0.286094
-2.98928e-01,0.287125
-2.98920e-01,0.286094
-2.98912e-01,0.28725
-2.98904e-01,0.286484
-2.98896e-01,0.286094
-2.98888e-01,0.287672
-2.98880e-01,0.284766
-2.98872e-01,0.285656
-2.98864e-01,0.287422
-2.98856e-01,0.284063
-2.98848e-01,0.285156
-2.98840e-01,0.285594
-2.98832e-01,0.285156
-2.98824e-01,0.286859
-2.98816e-01,0.286297
-2.98808e-01,0.285328
-2.98800e-01,0.286469
-2.98792e-01,0.286094
-2.98784e-01,0.285656
-2.98776e-01,0.28675
-2.98768e-01,0.285703
-2.98760e-01,0.285766
-2.98752e-01,0.286484
-2.98744e-01,0.286484
-2.98736e-01,0.285594
-2.98728e-01,0.286094
-2.98720e-01,0.285594
-2.98712e-01,0.286531
-2.98704e-01,0.284328
-2.98696e-01,0.283953
-2.98688e-01,0.284953
-2.98680e-01,0.285594
-2.98672e-01,0.285594
-2.98664e-01,0.286094
-2.98656e-01,0.286219
-2.98648e-01,0.285594
-2.98640e-01,0.285984
-2.98632e-01,0.284063
-2.98624e-01,0.286531
-2.98616e-01,0.285719
-2.98608e-01,0.284891
-2.98600e-01,0.285281
-2.98592e-01,0.286359
-2.98584e-01,0.284703
-2.98576e-01,0.284828
-2.98568e-01,0.285969
-2.98560e-01,0.285594
-2.98552e-01,0.285328
-2.98544e-01,0.285281
-2.98536e-01,0.284953
-2.98528e-01,0.283625
-2.98520e-01,0.284828
-2.98512e-01,0.284766
-2.98504e-01,0.285719
-2.98496e-01,0.284656
-2.98488e-01,0.286094
-2.98480e-01,0.284391
-2.98472e-01,0.285703
-2.98464e-01,0.285969
-2.98456e-01,0.284438
-2.98448e-01,0.286594
-2.98440e-01,0.284953
-2.98432e-01,0.284453
-2.98424e-01,0.285531
-2.98416e-01,0.283125
-2.98408e-01,0.285656
-2.98400e-01,0.286484
-2.98392e-01,0.284453
-2.98384e-01,0.283688
-2.98376e-01,0.285547
-2.98368e-01,0.283172
-2.98360e-01,0.284563
-2.98352e-01,0.285141
-2.98344e-01,0.285219
-2.98336e-01,0.285438
-2.98328e-01,0.284
-2.98320e-01,0.285375
-2.98312e-01,0.285656
-2.98304e-01,0.284938
-2.98296e-01,0.283625
-2.98288e-01,0.284188
-2.98280e-01,0.285281
-2.98272e-01,0.284453
-2.98264e-01,0.284828
-2.98256e-01,0.283125
-2.98248e-01,0.286859
-2.98240e-01,0.284438
-2.98232e-01,0.284938
-2.98224e-01,0.282984
-2.98216e-01,0.28375
-2.98208e-01,0.284953
-2.98200e-01,0.284063
-2.98192e-01,0.283953
-2.98184e-01,0.284125
-2.98176e-01,0.284
-2.98168e-01,0.284453
-2.98160e-01,0.286047
-2.98152e-01,0.283625
-2.98144e-01,0.285266
-2.98136e-01,0.285656
-2.98128e-01,0.285969
-2.98120e-01,0.283234
-2.98112e-01,0.284781
-2.98104e-01,0.284453
-2.98096e-01,0.284016
-2.98088e-01,0.284453
-2.98080e-01,0.283297
-2.98072e-01,0.284391
-2.98064e-01,0.284125
-2.98056e-01,0.284516
-2.98048e-01,0.284063
-2.98040e-01,0.2845
-2.98032e-01,0.282906
-2.98024e-01,0.283125
-2.98016e-01,0.284063
-2.98008e-01,0.283688
-2.98000e-01,0.283625
-2.97992e-01,0.28325
-2.97984e-01,0.282422
-2.97976e-01,0.283953
-2.97968e-01,0.283672
-2.97960e-01,0.284063
-2.97952e-01,0.283625
-2.97944e-01,0.283297
-2.97936e-01,0.284828
-2.97928e-01,0.284016
-2.97920e-01,0.283125
-2.97912e-01,0.282094
-2.97904e-01,0.283313
-2.97896e-01,0.282922
-2.97888e-01,0.284125
-2.97880e-01,0.284438
-2.97872e-01,0.283625
-2.97864e-01,0.283125
-2.97856e-01,0.282797
-2.97848e-01,0.2835
-2.97840e-01,0.283563
-2.97832e-01,0.282859
-2.97824e-01,0.284828
-2.97816e-01,0.282484
-2.97808e-01,0.282688
-2.97800e-01,0.281656
-2.97792e-01,0.282906
-2.97784e-01,0.284391
-2.97776e-01,0.2845
-2.97768e-01,0.283625
-2.97760e-01,0.284016
-2.97752e-01,0.283797
-2.97744e-01,0.283297
-2.97736e-01,0.28325
-2.97728e-01,0.284891
-2.97720e-01,0.285203
-2.97712e-01,0.283125
-2.97704e-01,0.284453
-2.97696e-01,0.281766
-2.97688e-01,0.284281
-2.97680e-01,0.283297
-2.97672e-01,0.283234
-2.97664e-01,0.283297
-2.97656e-01,0.283234
-2.97648e-01,0.282484
-2.97640e-01,0.282094
-2.97632e-01,0.282094
-2.97624e-01,0.283188
-2.97616e-01,0.284828
-2.97608e-01,0.284125
-2.97600e-01,0.282031
-2.97592e-01,0.285266
-2.97584e-01,0.28325
-2.97576e-01,0.285203
-2.97568e-01,0.282359
-2.97560e-01,0.284125
-2.97552e-01,0.282859
-2.97544e-01,0.28325
-2.97536e-01,0.283359
-2.97528e-01,0.283188
-2.97520e-01,0.282422
-2.97512e-01,0.283016
-2.97504e-01,0.283359
-2.97496e-01,0.285656
-2.97488e-01,0.282734
-2.97480e-01,0.284563
-2.97472e-01,0.284438
-2.97464e-01,0.28375
-2.97456e-01,0.283234
-2.97448e-01,0.282859
-2.97440e-01,0.282359
-2.97432e-01,0.282906
-2.97424e-01,0.284328
-2.97416e-01,0.282484
-2.97408e-01,0.283563
-2.97400e-01,0.281531
-2.97392e-01,0.282531
-2.97384e-01,0.281859
-2.97376e-01,0.282641
-2.97368e-01,0.283125
-2.97360e-01,0.281422
-2.97352e-01,0.282359
-2.97344e-01,0.282859
-2.97336e-01,0.282859
-2.97328e-01,0.284953
-2.97320e-01,0.283125
-2.97312e-01,0.28325
-2.97304e-01,0.283422
-2.97296e-01,0.282359
-2.97288e-01,0.283078
-2.97280e-01,0.283297
-2.97272e-01,0.284938
-2.97264e-01,0.28225
-2.97256e-01,0.283188
-2.97248e-01,0.28325
-2.97240e-01,0.282922
-2.97232e-01,0.283188
-2.97224e-01,0.282906
-2.97216e-01,0.282094
-2.97208e-01,0.282359
-2.97200e-01,0.282422
-2.97192e-01,0.282641
-2.97184e-01,0.282359
-2.97176e-01,0.284188
-2.97168e-01,0.282094
-2.97160e-01,0.282406
-2.97152e-01,0.283625
-2.97144e-01,0.283297
-2.97136e-01,0.282031
-2.97128e-01,0.282406
-2.97120e-01,0.284391
-2.97112e-01,0.283172
-2.97104e-01,0.281969
-2.97096e-01,0.281766
-2.97088e-01,0.282859
-2.97080e-01,0.281922
-2.97072e-01,0.280953
-2.97064e-01,0.282156
-2.97056e-01,0.282859
-2.97048e-01,0.282797
-2.97040e-01,0.282813
-2.97032e-01,0.282094
-2.97024e-01,0.282859
-2.97016e-01,0.282359
-2.97008e-01,0.282094
-2.97000e-01,0.282859
-2.96992e-01,0.282469
-2.96984e-01,0.282094
-2.96976e-01,0.282531
-2.96968e-01,0.282406
-2.96960e-01,0.281813
-2.96952e-01,0.282359
-2.96944e-01,0.282031
-2.96936e-01,0.282797
-2.96928e-01,0.283688
-2.96920e-01,0.282297
-2.96912e-01,0.282094
-2.96904e-01,0.281969
-2.96896e-01,0.282641
-2.96888e-01,0.282734
-2.96880e-01,0.28325
-2.96872e-01,0.281203
-2.96864e-01,0.282969
-2.96856e-01,0.282359
-2.96848e-01,0.281656
-2.96840e-01,0.282531
-2.96832e-01,0.281969
-2.96824e-01,0.281719
-2.96816e-01,0.282484
-2.96808e-01,0.2805
-2.96800e-01,0.282031
-2.96792e-01,0.281156
-2.96784e-01,0.282094
-2.96776e-01,0.281328
-2.96768e-01,0.283625
-2.96760e-01,0.281328
-2.96752e-01,0.281266
-2.96744e-01,0.282156
-2.96736e-01,0.281984
-2.96728e-01,0.281703
-2.96720e-01,0.279672
-2.96712e-01,0.281703
-2.96704e-01,0.281969
-2.96696e-01,0.282047
-2.96688e-01,0.281266
-2.96680e-01,0.280938
-2.96672e-01,0.281828
-2.96664e-01,0.281766
-2.96656e-01,0.281766
-2.96648e-01,0.282047
-2.96640e-01,0.281922
-2.96632e-01,0.282031
-2.96624e-01,0.280516
-2.96616e-01,0.283125
-2.96608e-01,0.284563
-2.96600e-01,0.282359
-2.96592e-01,0.281656
-2.96584e-01,0.280766
-2.96576e-01,0.281281
-2.96568e-01,0.282359
-2.96560e-01,0.281219
-2.96552e-01,0.282531
-2.96544e-01,0.282031
-2.96536e-01,0.281203
-2.96528e-01,0.280781
-2.96520e-01,0.280656
-2.96512e-01,0.280516
-2.96504e-01,0.281984
-2.96496e-01,0.282359
-2.96488e-01,0.281703
-2.96480e-01,0.28
-2.96472e-01,0.281984
-2.96464e-01,0.2795
-2.96456e-01,0.280719
-2.96448e-01,0.280938
-2.96440e-01,0.281266
-2.96432e-01,0.281453
-2.96424e-01,0.280828
-2.96416e-01,0.280891
-2.96408e-01,0.281969
-2.96400e-01,0.281156
-2.96392e-01,0.280828
-2.96384e-01,0.281047
-2.96376e-01,0.281656
-2.96368e-01,0.281266
-2.96360e-01,0.280391
-2.96352e-01,0.280875
-2.96344e-01,0.28
-2.96336e-01,0.281047
-2.96328e-01,0.280063
-2.96320e-01,0.282094
-2.96312e-01,0.280453
-2.96304e-01,0.281766
-2.96296e-01,0.281656
-2.96288e-01,0.281594
-2.96280e-01,0.280828
-2.96272e-01,0.279797
-2.96264e-01,0.280453
-2.96256e-01,0.28
-2.96248e-01,0.281719
-2.96240e-01,0.281047
-2.96232e-01,0.280781
-2.96224e-01,0.280953
-2.96216e-01,0.282219
-2.96208e-01,0.279453
-2.96200e-01,0.280063
-2.96192e-01,0.281594
-2.96184e-01,0.279063
-2.96176e-01,0.281203
-2.96168e-01,0.281266
-2.96160e-01,0.281328
-2.96152e-01,0.281391
-2.96144e-01,0.280766
-2.96136e-01,0.281328
-2.96128e-01,0.280891
-2.96120e-01,0.282031
-2.96112e-01,0.280516
-2.96104e-01,0.280938
-2.96096e-01,0.2805
-2.96088e-01,0.2805
-2.96080e-01,0.280125
-2.96072e-01,0.281766
-2.96064e-01,0.280766
-2.96056e-01,0.279938
-2.96048e-01,0.280391
-2.96040e-01,0.280266
-2.96032e-01,0.281984
-2.96024e-01,0.278531
-2.96016e-01,0.280766
-2.96008e-01,0.280125
-2.96000e-01,0.280891
-2.95992e-01,0.281391
-2.95984e-01,0.280125
-2.95976e-01,0.280953
-2.95968e-01,0.280016
-2.95960e-01,0.280391
-2.95952e-01,0.278859
-2.95944e-01,0.280891
-2.95936e-01,0.280063
-2.95928e-01,0.281203
-2.95920e-01,0.280125
-2.95912e-01,0.280328
-2.95904e-01,0.280828
-2.95896e-01,0.280438
-2.95888e-01,0.279297
-2.95880e-01,0.280828
-2.95872e-01,0.280016
-2.95864e-01,0.279234
-2.95856e-01,0.281063
-2.95848e-01,0.280781
-2.95840e-01,0.280828
-2.95832e-01,0.279563
-2.95824e-01,0.279625
-2.95816e-01,0.280828
-2.95808e-01,0.279063
-2.95800e-01,0.280063
-2.95792e-01,0.280016
-2.95784e-01,0.279516
-2.95776e-01,0.280328
-2.95768e-01,0.279625
-2.95760e-01,0.279891
-2.95752e-01,0.279563
-2.95744e-01,0.279297
-2.95736e-01,0.280438
-2.95728e-01,0.27925
-2.95720e-01,0.280953
-2.95712e-01,0.281156
-2.95704e-01,0.280016
-2.95696e-01,0.279297
-2.95688e-01,0.281266
-2.95680e-01,0.279125
-2.95672e-01,0.279734
-2.95664e-01,0.280828
-2.95656e-01,0.279625
-2.95648e-01,0.279625
-2.95640e-01,0.278484
-2.95632e-01,0.28
-2.95624e-01,0.27875
-2.95616e-01,0.277719
-2.95608e-01,0.279891
-2.95600e-01,0.27975
-2.95592e-01,0.280016
-2.95584e-01,0.280828
-2.95576e-01,0.280016
-2.95568e-01,0.279422
-2.95560e-01,0.279125
-2.95552e-01,0.278219
-2.95544e-01,0.279516
-2.95536e-01,0.278969
-2.95528e-01,0.277656
-2.95520e-01,0.279125
-2.95512e-01,0.280063
-2.95504e-01,0.278047
-2.95496e-01,0.278859
-2.95488e-01,0.279188
-2.95480e-01,0.279828
-2.95472e-01,0.279125
-2.95464e-01,0.279297
-2.95456e-01,0.279297
-2.95448e-01,0.280063
-2.95440e-01,0.280063
-2.95432e-01,0.279125
-2.95424e-01,0.278859
-2.95416e-01,0.278984
-2.95408e-01,0.279297
-2.95400e-01,0.279297
-2.95392e-01,0.279234
-2.95384e-01,0.277219
-2.95376e-01,0.278422
-2.95368e-01,0.278797
-2.95360e-01,0.279516
-2.95352e-01,0.278797
-2.95344e-01,0.278859
-2.95336e-01,0.278922
-2.95328e-01,0.27925
-2.95320e-01,0.279359
-2.95312e-01,0.278859
-2.95304e-01,0.278359
-2.95296e-01,0.278203
-2.95288e-01,0.278797
-2.95280e-01,0.279891
-2.95272e-01,0.279563
-2.95264e-01,0.280063
-2.95256e-01,0.278484
-2.95248e-01,0.279359
-2.95240e-01,0.27975
-2.95232e-01,0.278797
-2.95224e-01,0.278859
-2.95216e-01,0.278922
-2.95208e-01,0.279688
-2.95200e-01,0.278813
-2.95192e-01,0.279625
-2.95184e-01,0.279172
-2.95176e-01,0.280516
-2.95168e-01,0.279031
-2.95160e-01,0.278031
-2.95152e-01,0.278859
-2.95144e-01,0.27875
-2.95136e-01,0.279688
-2.95128e-01,0.278859
-2.95120e-01,0.27875
-2.95112e-01,0.278859
-2.95104e-01,0.279359
-2.95096e-01,0.27925
-2.95088e-01,0.278359
-2.95080e-01,0.278094
-2.95072e-01,0.278859
-2.95064e-01,0.278859
-2.95056e-01,0.277156
-2.95048e-01,0.278734
-2.95040e-01,0.278797
-2.95032e-01,0.279234
-2.95024e-01,0.278469
-2.95016e-01,0.279625
-2.95008e-01,0.278484
-2.95000e-01,0.278531
-2.94992e-01,0.279359
-2.94984e-01,0.277781
-2.94976e-01,0.277859
-2.94968e-01,0.278469
-2.94960e-01,0.277656
-2.94952e-01,0.278484
-2.94944e-01,0.278422
-2.94936e-01,0.278797
-2.94928e-01,0.278859
-2.94920e-01,0.278688
-2.94912e-01,0.278797
-2.94904e-01,0.278797
-2.94896e-01,0.277922
-2.94888e-01,0.277281
-2.94880e-01,0.279125
-2.94872e-01,0.279063
-2.94864e-01,0.279563
-2.94856e-01,0.278094
-2.94848e-01,0.278859
-2.94840e-01,0.278422
-2.94832e-01,0.278422
-2.94824e-01,0.279297
-2.94816e-01,0.278359
-2.94808e-01,0.277266
-2.94800e-01,0.278547
-2.94792e-01,0.277156
-2.94784e-01,0.277328
-2.94776e-01,0.277344
-2.94768e-01,0.279234
-2.94760e-01,0.278422
-2.94752e-01,0.277594
-2.94744e-01,0.277266
-2.94736e-01,0.2765
-2.94728e-01,0.278734
-2.94720e-01,0.277984
-2.94712e-01,0.278859
-2.94704e-01,0.277547
-2.94696e-01,0.27925
-2.94688e-01,0.278797
-2.94680e-01,0.278859
-2.94672e-01,0.280328
-2.94664e-01,0.277703
-2.94656e-01,0.277594
-2.94648e-01,0.278859
-2.94640e-01,0.278422
-2.94632e-01,0.278422
-2.94624e-01,0.27875
-2.94616e-01,0.278422
-2.94608e-01,0.277203
-2.94600e-01,0.27875
-2.94592e-01,0.277453
-2.94584e-01,0.277984
-2.94576e-01,0.279313
-2.94568e-01,0.278484
-2.94560e-01,0.277969
-2.94552e-01,0.276828
-2.94544e-01,0.278422
-2.94536e-01,0.278484
-2.94528e-01,0.277047
-2.94520e-01,0.277594
-2.94512e-01,0.277984
-2.94504e-01,0.276016
-2.94496e-01,0.278797
-2.94488e-01,0.277031
-2.94480e-01,0.277094
-2.94472e-01,0.277594
-2.94464e-01,0.278531
-2.94456e-01,0.278531
-2.94448e-01,0.278484
-2.94440e-01,0.277266
-2.94432e-01,0.277328
-2.94424e-01,0.277984
-2.94416e-01,0.278906
-2.94408e-01,0.278156
-2.94400e-01,0.277328
-2.94392e-01,0.277266
-2.94384e-01,0.276
-2.94376e-01,0.276063
-2.94368e-01,0.278594
-2.94360e-01,0.277266
-2.94352e-01,0.277156
-2.94344e-01,0.276781
-2.94336e-01,0.277219
-2.94328e-01,0.278031
-2.94320e-01,0.277922
-2.94312e-01,0.278422
-2.94304e-01,0.277281
-2.94296e-01,0.277984
-2.94288e-01,0.277703
-2.94280e-01,0.278594
-2.94272e-01,0.276781
-2.94264e-01,0.277703
-2.94256e-01,0.276516
-2.94248e-01,0.278797
-2.94240e-01,0.2765
-2.94232e-01,0.276063
-2.94224e-01,0.277594
-2.94216e-01,0.276828
-2.94208e-01,0.277922
-2.94200e-01,0.276563
-2.94192e-01,0.277203
-2.94184e-01,0.277922
-2.94176e-01,0.278141
-2.94168e-01,0.278469
-2.94160e-01,0.277594
-2.94152e-01,0.275953
-2.94144e-01,0.277984
-2.94136e-01,0.276891
-2.94128e-01,0.276828
-2.94120e-01,0.277984
-2.94112e-01,0.277266
-2.94104e-01,0.2765
-2.94096e-01,0.277219
-2.94088e-01,0.276563
-2.94080e-01,0.278859
-2.94072e-01,0.276891
-2.94064e-01,0.277719
-2.94056e-01,0.276656
-2.94048e-01,0.276828
-2.94040e-01,0.277641
-2.94032e-01,0.276938
-2.94024e-01,0.277281
-2.94016e-01,0.277547
-2.94008e-01,0.277656
-2.94000e-01,0.277219
-2.93992e-01,0.276
-2.93984e-01,0.276391
-2.93976e-01,0.276828
-2.93968e-01,0.277203
-2.93960e-01,0.276891
-2.93952e-01,0.277766
-2.93944e-01,0.277594
-2.93936e-01,0.277328
-2.93928e-01,0.275234
-2.93920e-01,0.276938
-2.93912e-01,0.276438
-2.93904e-01,0.278359
-2.93896e-01,0.277594
-2.93888e-01,0.277453
-2.93880e-01,0.276828
-2.93872e-01,0.277328
-2.93864e-01,0.278031
-2.93856e-01,0.276391
-2.93848e-01,0.276
-2.93840e-01,0.276828
-2.93832e-01,0.278156
-2.93824e-01,0.276891
-2.93816e-01,0.276391
-2.93808e-01,0.276828
-2.93800e-01,0.277203
-2.93792e-01,0.276391
-2.93784e-01,0.277203
-2.93776e-01,0.275625
-2.93768e-01,0.276063
-2.93760e-01,0.275625
-2.93752e-01,0.277531
-2.93744e-01,0.277594
-2.93736e-01,0.277281
-2.93728e-01,0.276766
-2.93720e-01,0.274469
-2.93712e-01,0.276188
-2.93704e-01,0.277984
-2.93696e-01,0.278094
-2.93688e-01,0.276781
-2.93680e-01,0.276391
-2.93672e-01,0.275625
-2.93664e-01,0.276
-2.93656e-01,0.27575
-2.93648e-01,0.275891
-2.93640e-01,0.276
-2.93632e-01,0.274859
-2.93624e-01,0.276328
-2.93616e-01,0.276563
-2.93608e-01,0.277219
-2.93600e-01,0.278047
-2.93592e-01,0.276
-2.93584e-01,0.276828
-2.93576e-01,0.276125
-2.93568e-01,0.277719
-2.93560e-01,0.2765
-2.93552e-01,0.276125
-2.93544e-01,0.27525
-2.93536e-01,0.276
-2.93528e-01,0.276563
-2.93520e-01,0.276344
-2.93512e-01,0.276891
-2.93504e-01,0.275234
-2.93496e-01,0.275625
-2.93488e-01,0.274859
-2.93480e-01,0.277156
-2.93472e-01,0.2765
-2.93464e-01,0.275688
-2.93456e-01,0.277266
-2.93448e-01,0.27525
-2.93440e-01,0.275234
-2.93432e-01,0.276438
-2.93424e-01,0.276125
-2.93416e-01,0.2755
-2.93408e-01,0.275578
-2.93400e-01,0.274922
-2.93392e-01,0.2765
-2.93384e-01,0.274859
-2.93376e-01,0.2765
-2.93368e-01,0.274484
-2.93360e-01,0.273984
-2.93352e-01,0.276391
-2.93344e-01,0.275625
-2.93336e-01,0.275234
-2.93328e-01,0.276438
-2.93320e-01,0.276016
-2.93312e-01,0.277203
-2.93304e-01,0.276375
-2.93296e-01,0.274734
-2.93288e-01,0.275688
-2.93280e-01,0.275578
-2.93272e-01,0.274531
-2.93264e-01,0.275578
-2.93256e-01,0.274484
-2.93248e-01,0.276516
-2.93240e-01,0.276
-2.93232e-01,0.274688
-2.93224e-01,0.275578
-2.93216e-01,0.27525
-2.93208e-01,0.276766
-2.93200e-01,0.27525
-2.93192e-01,0.276391
-2.93184e-01,0.277328
-2.93176e-01,0.276563
-2.93168e-01,0.2755
-2.93160e-01,0.275625
-2.93152e-01,0.276438
-2.93144e-01,0.275234
-2.93136e-01,0.276
-2.93128e-01,0.275625
-2.93120e-01,0.276125
-2.93112e-01,0.277266
-2.93104e-01,0.275625
-2.93096e-01,0.276188
-2.93088e-01,0.276
-2.93080e-01,0.276016
-2.93072e-01,0.275563
-2.93064e-01,0.275359
-2.93056e-01,0.274359
-2.93048e-01,0.2755
-2.93040e-01,0.274969
-2.93032e-01,0.276391
-2.93024e-01,0.274797
-2.93016e-01,0.274969
-2.93008e-01,0.275688
-2.93000e-01,0.276656
-2.92992e-01,0.274859
-2.92984e-01,0.274859
-2.92976e-01,0.275625
-2.92968e-01,0.275672
-2.92960e-01,0.276891
-2.92952e-01,0.274984
-2.92944e-01,0.276453
-2.92936e-01,0.274859
-2.92928e-01,0.274734
-2.92920e-01,0.273656
-2.92912e-01,0.276453
-2.92904e-01,0.27525
-2.92896e-01,0.273594
-2.92888e-01,0.273328
-2.92880e-01,0.276063
-2.92872e-01,0.276016
-2.92864e-01,0.276125
-2.92856e-01,0.276125
-2.92848e-01,0.276063
-2.92840e-01,0.275188
-2.92832e-01,0.275672
-2.92824e-01,0.27525
-2.92816e-01,0.275625
-2.92808e-01,0.27525
-2.92800e-01,0.274859
-2.92792e-01,0.27525
-2.92784e-01,0.274422
