Messung_Energiemessung_Harvester2/Harvester_neu/10kmh/Harvester2_10kOhm.CSV

Model,MSO2024
Firmware Version,1.52

Point Format,Y
Horizontal Units,S
Horizontal Scale,0.1
Sample Interval,8e-06
Filter Frequency,2e+08
Record Length,125000
Gating,0.0% to 100.0%
Probe Attenuation,10
Vertical Units,V
Vertical Offset,0
Vertical Scale,0.02
Label,
TIME,CH1
-5.00000e-01,0.0187344
-4.99992e-01,0.0196625
-4.99984e-01,0.0195219
-4.99976e-01,0.0176844
-4.99968e-01,0.0196219
-4.99960e-01,0.0189875
-4.99952e-01,0.0213125
-4.99944e-01,0.019475
-4.99936e-01,0.0181969
-4.99928e-01,0.0193344
-4.99920e-01,0.0191844
-4.99912e-01,0.0201
-4.99904e-01,0.0200719
-4.99896e-01,0.0197094
-4.99888e-01,0.018625
-4.99880e-01,0.0194844
-4.99872e-01,0.0207
-4.99864e-01,0.0197125
-4.99856e-01,0.0185719
-4.99848e-01,0.0203844
-4.99840e-01,0.018425
-4.99832e-01,0.0199219
-4.99824e-01,0.0184125
-4.99816e-01,0.0206875
-4.99808e-01,0.0193594
-4.99800e-01,0.0191375
-4.99792e-01,0.0196844
-4.99784e-01,0.0190594
-4.99776e-01,0.0194219
-4.99768e-01,0.0192375
-4.99760e-01,0.0200844
-4.99752e-01,0.0203344
-4.99744e-01,0.0203
-4.99736e-01,0.0181344
-4.99728e-01,0.0194969
-4.99720e-01,0.0191625
-4.99712e-01,0.0205844
-4.99704e-01,0.0191875
-4.99696e-01,0.0192094
-4.99688e-01,0.0204375
-4.99680e-01,0.0186375
-4.99672e-01,0.0196875
-4.99664e-01,0.01825
-4.99656e-01,0.0203594
-4.99648e-01,0.019475
-4.99640e-01,0.0203875
-4.99632e-01,0.0188844
-4.99624e-01,0.0198094
-4.99616e-01,0.0195469
-4.99608e-01,0.0187094
-4.99600e-01,0.0182844
-4.99592e-01,0.0198625
-4.99584e-01,0.0189125
-4.99576e-01,0.020175
-4.99568e-01,0.01925
-4.99560e-01,0.0205875
-4.99552e-01,0.0202844
-4.99544e-01,0.0192094
-4.99536e-01,0.0202625
-4.99528e-01,0.0201875
-4.99520e-01,0.0190625
-4.99512e-01,0.01905
-4.99504e-01,0.0186219
-4.99496e-01,0.0193344
-4.99488e-01,0.0189094
-4.99480e-01,0.01955
-4.99472e-01,0.0207094
-4.99464e-01,0.0186625
-4.99456e-01,0.0195125
-4.99448e-01,0.020025
-4.99440e-01,0.0200219
-4.99432e-01,0.0183469
-4.99424e-01,0.0190625
-4.99416e-01,0.0188844
-4.99408e-01,0.0192125
-4.99400e-01,0.019725
-4.99392e-01,0.018275
-4.99384e-01,0.019075
-4.99376e-01,0.01975
-4.99368e-01,0.0195719
-4.99360e-01,0.0192625
-4.99352e-01,0.0196344
-4.99344e-01,0.0192094
-4.99336e-01,0.019925
-4.99328e-01,0.0191969
-4.99320e-01,0.0193844
-4.99312e-01,0.0189844
-4.99304e-01,0.0183219
-4.99296e-01,0.0190344
-4.99288e-01,0.0196344
-4.99280e-01,0.0175094
-4.99272e-01,0.02025
-4.99264e-01,0.0195219
-4.99256e-01,0.018725
-4.99248e-01,0.018975
-4.99240e-01,0.019325
-4.99232e-01,0.0197469
-4.99224e-01,0.0194594
-4.99216e-01,0.0191844
-4.99208e-01,0.0193594
-4.99200e-01,0.01865
-4.99192e-01,0.020625
-4.99184e-01,0.019925
-4.99176e-01,0.0197594
-4.99168e-01,0.0202125
-4.99160e-01,0.0184469
-4.99152e-01,0.0195
-4.99144e-01,0.0195594
-4.99136e-01,0.0184219
-4.99128e-01,0.0181375
-4.99120e-01,0.0196594
-4.99112e-01,0.0197469
-4.99104e-01,0.020525
-4.99096e-01,0.0194719
-4.99088e-01,0.02015
-4.99080e-01,0.0188344
-4.99072e-01,0.0186844
-4.99064e-01,0.019175
-4.99056e-01,0.0194625
-4.99048e-01,0.0198469
-4.99040e-01,0.0214219
-4.99032e-01,0.0192625
-4.99024e-01,0.0205
-4.99016e-01,0.0193125
-4.99008e-01,0.0201094
-4.99000e-01,0.0193844
-4.98992e-01,0.0180719
-4.98984e-01,0.0202344
-4.98976e-01,0.0187469
-4.98968e-01,0.01845
-4.98960e-01,0.0197344
-4.98952e-01,0.0185594
-4.98944e-01,0.0193344
-4.98936e-01,0.0192
-4.98928e-01,0.0189219
-4.98920e-01,0.0189344
-4.98912e-01,0.02
-4.98904e-01,0.0186375
-4.98896e-01,0.0203094
-4.98888e-01,0.0195594
-4.98880e-01,0.017875
-4.98872e-01,0.0201344
-4.98864e-01,0.0201375
-4.98856e-01,0.0196094
-4.98848e-01,0.02
-4.98840e-01,0.0204344
-4.98832e-01,0.0199094
-4.98824e-01,0.0197125
-4.98816e-01,0.0189125
-4.98808e-01,0.0194625
-4.98800e-01,0.0181813
-4.98792e-01,0.018825
-4.98784e-01,0.019125
-4.98776e-01,0.0198125
-4.98768e-01,0.0194594
-4.98760e-01,0.0192125
-4.98752e-01,0.0193625
-4.98744e-01,0.019075
-4.98736e-01,0.0189094
-4.98728e-01,0.0196469
-4.98720e-01,0.0209844
-4.98712e-01,0.02
-4.98704e-01,0.0189625
-4.98696e-01,0.020725
-4.98688e-01,0.0192875
-4.98680e-01,0.0199594
-4.98672e-01,0.020425
-4.98664e-01,0.0192344
-4.98656e-01,0.0206344
-4.98648e-01,0.0191469
-4.98640e-01,0.0187344
-4.98632e-01,0.0189875
-4.98624e-01,0.0187844
-4.98616e-01,0.01845
-4.98608e-01,0.0196219
-4.98600e-01,0.0208
-4.98592e-01,0.0195594
-4.98584e-01,0.0182875
-4.98576e-01,0.0196875
-4.98568e-01,0.020175
-4.98560e-01,0.0195469
-4.98552e-01,0.0192625
-4.98544e-01,0.0191719
-4.98536e-01,0.0182719
-4.98528e-01,0.0208125
-4.98520e-01,0.01975
-4.98512e-01,0.019775
-4.98504e-01,0.0195375
-4.98496e-01,0.0196625
-4.98488e-01,0.0183344
-4.98480e-01,0.0190344
-4.98472e-01,0.01935
-4.98464e-01,0.0188219
-4.98456e-01,0.0193625
-4.98448e-01,0.0174969
-4.98440e-01,0.0196625
-4.98432e-01,0.0186125
-4.98424e-01,0.0187719
-4.98416e-01,0.0185344
-4.98408e-01,0.0194344
-4.98400e-01,0.0196469
-4.98392e-01,0.0193719
-4.98384e-01,0.0186969
-4.98376e-01,0.018725
-4.98368e-01,0.0189094
-4.98360e-01,0.018125
-4.98352e-01,0.0194844
-4.98344e-01,0.0202469
-4.98336e-01,0.019675
-4.98328e-01,0.0183344
-4.98320e-01,0.0189969
-4.98312e-01,0.0184844
-4.98304e-01,0.0181969
-4.98296e-01,0.0185344
-4.98288e-01,0.0199219
-4.98280e-01,0.0217219
-4.98272e-01,0.0196094
-4.98264e-01,0.0203594
-4.98256e-01,0.019675
-4.98248e-01,0.0198375
-4.98240e-01,0.0181469
-4.98232e-01,0.0182344
-4.98224e-01,0.0195469
-4.98216e-01,0.0192469
-4.98208e-01,0.0198625
-4.98200e-01,0.0184219
-4.98192e-01,0.0206375
-4.98184e-01,0.0205625
-4.98176e-01,0.0191719
-4.98168e-01,0.0178469
-4.98160e-01,0.0202094
-4.98152e-01,0.0193469
-4.98144e-01,0.01945
-4.98136e-01,0.0186844
-4.98128e-01,0.01885
-4.98120e-01,0.0196844
-4.98112e-01,0.0193344
-4.98104e-01,0.0188719
-4.98096e-01,0.0183719
-4.98088e-01,0.0188594
-4.98080e-01,0.0200344
-4.98072e-01,0.0184844
-4.98064e-01,0.0183594
-4.98056e-01,0.0187375
-4.98048e-01,0.0197844
-4.98040e-01,0.01785
-4.98032e-01,0.0188844
-4.98024e-01,0.01935
-4.98016e-01,0.0184719
-4.98008e-01,0.0190094
-4.98000e-01,0.0202875
-4.97992e-01,0.019775
-4.97984e-01,0.0193375
-4.97976e-01,0.0181844
-4.97968e-01,0.020125
-4.97960e-01,0.0186375
-4.97952e-01,0.0195469
-4.97944e-01,0.0204375
-4.97936e-01,0.0193594
-4.97928e-01,0.0209
-4.97920e-01,0.0205625
-4.97912e-01,0.0194469
-4.97904e-01,0.0201719
-4.97896e-01,0.019675
-4.97888e-01,0.0197
-4.97880e-01,0.0186375
-4.97872e-01,0.0192594
-4.97864e-01,0.0188344
-4.97856e-01,0.0195469
-4.97848e-01,0.0218094
-4.97840e-01,0.0182094
-4.97832e-01,0.0185375
-4.97824e-01,0.0198969
-4.97816e-01,0.02015
-4.97808e-01,0.0190719
-4.97800e-01,0.018975
-4.97792e-01,0.0192469
-4.97784e-01,0.0196125
-4.97776e-01,0.0204375
-4.97768e-01,0.0188
-4.97760e-01,0.0181469
-4.97752e-01,0.0199219
-4.97744e-01,0.0190969
-4.97736e-01,0.0180344
-4.97728e-01,0.0202625
-4.97720e-01,0.0181125
-4.97712e-01,0.0203094
-4.97704e-01,0.0187969
-4.97696e-01,0.0201219
-4.97688e-01,0.0195469
-4.97680e-01,0.01905
-4.97672e-01,0.0208844
-4.97664e-01,0.0180844
-4.97656e-01,0.0188594
-4.97648e-01,0.0201594
-4.97640e-01,0.0181469
-4.97632e-01,0.0187219
-4.97624e-01,0.0194188
-4.97616e-01,0.0205469
-4.97608e-01,0.01755
-4.97600e-01,0.0184469
-4.97592e-01,0.022975
-4.97584e-01,0.0196469
-4.97576e-01,0.0195875
-4.97568e-01,0.01955
-4.97560e-01,0.0193344
-4.97552e-01,0.0199094
-4.97544e-01,0.01755
-4.97536e-01,0.0199344
-4.97528e-01,0.0202469
-4.97520e-01,0.0186875
-4.97512e-01,0.0189094
-4.97504e-01,0.018925
-4.97496e-01,0.021175
-4.97488e-01,0.0188344
-4.97480e-01,0.0198344
-4.97472e-01,0.019275
-4.97464e-01,0.0188469
-4.97456e-01,0.0184969
-4.97448e-01,0.0195125
-4.97440e-01,0.0198719
-4.97432e-01,0.0183594
-4.97424e-01,0.0183844
-4.97416e-01,0.0182844
-4.97408e-01,0.0198
-4.97400e-01,0.0186344
-4.97392e-01,0.0186469
-4.97384e-01,0.0191125
-4.97376e-01,0.0221469
-4.97368e-01,0.0192969
-4.97360e-01,0.0198125
-4.97352e-01,0.0196344
-4.97344e-01,0.0199719
-4.97336e-01,0.0183375
-4.97328e-01,0.0180875
-4.97320e-01,0.0195094
-4.97312e-01,0.0192719
-4.97304e-01,0.0206344
-4.97296e-01,0.018
-4.97288e-01,0.0188219
-4.97280e-01,0.0194344
-4.97272e-01,0.0193875
-4.97264e-01,0.019075
-4.97256e-01,0.0203125
-4.97248e-01,0.019925
-4.97240e-01,0.0207125
-4.97232e-01,0.0205844
-4.97224e-01,0.0193094
-4.97216e-01,0.0199625
-4.97208e-01,0.0214844
-4.97200e-01,0.0190219
-4.97192e-01,0.0191844
-4.97184e-01,0.0197844
-4.97176e-01,0.0194469
-4.97168e-01,0.0195844
-4.97160e-01,0.01865
-4.97152e-01,0.0218344
-4.97144e-01,0.0200875
-4.97136e-01,0.0194219
-4.97128e-01,0.0203125
-4.97120e-01,0.0188219
-4.97112e-01,0.0193719
-4.97104e-01,0.0193844
-4.97096e-01,0.019025
-4.97088e-01,0.0184094
-4.97080e-01,0.0193844
-4.97072e-01,0.0201969
-4.97064e-01,0.01975
-4.97056e-01,0.018575
-4.97048e-01,0.020325
-4.97040e-01,0.0187125
-4.97032e-01,0.017425
-4.97024e-01,0.0197469
-4.97016e-01,0.0185594
-4.97008e-01,0.0194844
-4.97000e-01,0.0200375
-4.96992e-01,0.01995
-4.96984e-01,0.0186969
-4.96976e-01,0.0205969
-4.96968e-01,0.02075
-4.96960e-01,0.01805
-4.96952e-01,0.0194094
-4.96944e-01,0.0193875
-4.96936e-01,0.0195625
-4.96928e-01,0.0204344
-4.96920e-01,0.019175
-4.96912e-01,0.0209375
-4.96904e-01,0.02005
-4.96896e-01,0.0187875
-4.96888e-01,0.0193594
-4.96880e-01,0.0181344
-4.96872e-01,0.0197375
-4.96864e-01,0.019
-4.96856e-01,0.0189375
-4.96848e-01,0.0184594
-4.96840e-01,0.0197969
-4.96832e-01,0.0205719
-4.96824e-01,0.019175
-4.96816e-01,0.0193219
-4.96808e-01,0.0183469
-4.96800e-01,0.0179469
-4.96792e-01,0.0191094
-4.96784e-01,0.019675
-4.96776e-01,0.0198844
-4.96768e-01,0.0179469
-4.96760e-01,0.0184094
-4.96752e-01,0.0200125
-4.96744e-01,0.0191594
-4.96736e-01,0.0194125
-4.96728e-01,0.020175
-4.96720e-01,0.0187094
-4.96712e-01,0.0185625
-4.96704e-01,0.0175469
-4.96696e-01,0.0196344
-4.96688e-01,0.0182969
-4.96680e-01,0.0201344
-4.96672e-01,0.0198
-4.96664e-01,0.0192594
-4.96656e-01,0.0189344
-4.96648e-01,0.018775
-4.96640e-01,0.0194344
-4.96632e-01,0.0207375
-4.96624e-01,0.0206625
-4.96616e-01,0.0197969
-4.96608e-01,0.0193719
-4.96600e-01,0.01895
-4.96592e-01,0.019175
-4.96584e-01,0.0198625
-4.96576e-01,0.0180719
-4.96568e-01,0.0195844
-4.96560e-01,0.0175094
-4.96552e-01,0.0186375
-4.96544e-01,0.0175344
-4.96536e-01,0.0194625
-4.96528e-01,0.0192969
-4.96520e-01,0.019075
-4.96512e-01,0.0198719
-4.96504e-01,0.0194094
-4.96496e-01,0.0196719
-4.96488e-01,0.0186469
-4.96480e-01,0.0182969
-4.96472e-01,0.018125
-4.96464e-01,0.0199844
-4.96456e-01,0.0205
-4.96448e-01,0.0190875
-4.96440e-01,0.0192625
-4.96432e-01,0.0184719
-4.96424e-01,0.0215969
-4.96416e-01,0.0194125
-4.96408e-01,0.0175469
-4.96400e-01,0.0191344
-4.96392e-01,0.018975
-4.96384e-01,0.0195219
-4.96376e-01,0.0196469
-4.96368e-01,0.02035
-4.96360e-01,0.0197375
-4.96352e-01,0.0195125
-4.96344e-01,0.0206969
-4.96336e-01,0.0185125
-4.96328e-01,0.0180844
-4.96320e-01,0.0186
-4.96312e-01,0.0191219
-4.96304e-01,0.019025
-4.96296e-01,0.0181719
-4.96288e-01,0.019275
-4.96280e-01,0.0202625
-4.96272e-01,0.0197219
-4.96264e-01,0.0200625
-4.96256e-01,0.0195625
-4.96248e-01,0.0186469
-4.96240e-01,0.0203625
-4.96232e-01,0.01995
-4.96224e-01,0.018525
-4.96216e-01,0.0195219
-4.96208e-01,0.0197094
-4.96200e-01,0.0192594
-4.96192e-01,0.01945
-4.96184e-01,0.02095
-4.96176e-01,0.0184625
-4.96168e-01,0.01885
-4.96160e-01,0.0192375
-4.96152e-01,0.0195594
-4.96144e-01,0.0192219
-4.96136e-01,0.0212125
-4.96128e-01,0.0193844
-4.96120e-01,0.0186375
-4.96112e-01,0.0206219
-4.96104e-01,0.0202719
-4.96096e-01,0.0186469
-4.96088e-01,0.0182969
-4.96080e-01,0.019725
-4.96072e-01,0.0181719
-4.96064e-01,0.0200469
-4.96056e-01,0.0198625
-4.96048e-01,0.0189844
-4.96040e-01,0.0196375
-4.96032e-01,0.0196375
-4.96024e-01,0.0192375
-4.96016e-01,0.0187969
-4.96008e-01,0.020825
-4.96000e-01,0.0194719
-4.95992e-01,0.0204125
-4.95984e-01,0.0183469
-4.95976e-01,0.0190344
-4.95968e-01,0.02005
-4.95960e-01,0.0184625
-4.95952e-01,0.021775
-4.95944e-01,0.0185875
-4.95936e-01,0.0206875
-4.95928e-01,0.0192375
-4.95920e-01,0.0195844
-4.95912e-01,0.0203125
-4.95904e-01,0.0193219
-4.95896e-01,0.019125
-4.95888e-01,0.0210375
-4.95880e-01,0.0194375
-4.95872e-01,0.0189344
-4.95864e-01,0.019525
-4.95856e-01,0.019525
-4.95848e-01,0.0198875
-4.95840e-01,0.0188844
-4.95832e-01,0.0183
-4.95824e-01,0.0194844
-4.95816e-01,0.0179219
-4.95808e-01,0.0198844
-4.95800e-01,0.0198125
-4.95792e-01,0.0193969
-4.95784e-01,0.0191594
-4.95776e-01,0.0185344
-4.95768e-01,0.0193125
-4.95760e-01,0.0192844
-4.95752e-01,0.01975
-4.95744e-01,0.0194594
-4.95736e-01,0.02
-4.95728e-01,0.0195375
-4.95720e-01,0.0191375
-4.95712e-01,0.0199
-4.95704e-01,0.0207625
-4.95696e-01,0.0187094
-4.95688e-01,0.0185094
-4.95680e-01,0.0193719
-4.95672e-01,0.0192594
-4.95664e-01,0.0194719
-4.95656e-01,0.01895
-4.95648e-01,0.0191625
-4.95640e-01,0.0197094
-4.95632e-01,0.0186125
-4.95624e-01,0.0187969
-4.95616e-01,0.0195969
-4.95608e-01,0.019275
-4.95600e-01,0.0195375
-4.95592e-01,0.0193094
-4.95584e-01,0.0182469
-4.95576e-01,0.01825
-4.95568e-01,0.0193844
-4.95560e-01,0.02045
-4.95552e-01,0.0185344
-4.95544e-01,0.0200844
-4.95536e-01,0.0187594
-4.95528e-01,0.0192969
-4.95520e-01,0.0206844
-4.95512e-01,0.0192094
-4.95504e-01,0.0199
-4.95496e-01,0.0183469
-4.95488e-01,0.0171625
-4.95480e-01,0.0198875
-4.95472e-01,0.021425
-4.95464e-01,0.0179594
-4.95456e-01,0.0191125
-4.95448e-01,0.0188375
-4.95440e-01,0.0199469
-4.95432e-01,0.0179594
-4.95424e-01,0.0197594
-4.95416e-01,0.0206
-4.95408e-01,0.019525
-4.95400e-01,0.0195594
-4.95392e-01,0.0196625
-4.95384e-01,0.0187344
-4.95376e-01,0.0196625
-4.95368e-01,0.0191844
-4.95360e-01,0.0187344
-4.95352e-01,0.0176969
-4.95344e-01,0.0208
-4.95336e-01,0.0191125
-4.95328e-01,0.0191344
-4.95320e-01,0.0178188
-4.95312e-01,0.018575
-4.95304e-01,0.0186719
-4.95296e-01,0.0198594
-4.95288e-01,0.0200469
-4.95280e-01,0.0204125
-4.95272e-01,0.0184469
-4.95264e-01,0.0190594
-4.95256e-01,0.0201
-4.95248e-01,0.0195375
-4.95240e-01,0.019975
-4.95232e-01,0.0203594
-4.95224e-01,0.0201375
-4.95216e-01,0.0188594
-4.95208e-01,0.0180969
-4.95200e-01,0.0204
-4.95192e-01,0.0201844
-4.95184e-01,0.0180969
-4.95176e-01,0.0192719
-4.95168e-01,0.0182719
-4.95160e-01,0.0182375
-4.95152e-01,0.0218656
-4.95144e-01,0.0197219
-4.95136e-01,0.018675
-4.95128e-01,0.01915
-4.95120e-01,0.0193094
-4.95112e-01,0.0197125
-4.95104e-01,0.0204344
-4.95096e-01,0.0186875
-4.95088e-01,0.0186
-4.95080e-01,0.0201594
-4.95072e-01,0.0194719
-4.95064e-01,0.01855
-4.95056e-01,0.0196344
-4.95048e-01,0.0180375
-4.95040e-01,0.0197
-4.95032e-01,0.0190219
-4.95024e-01,0.0191344
-4.95016e-01,0.01995
-4.95008e-01,0.0191625
-4.95000e-01,0.0196
-4.94992e-01,0.0178594
-4.94984e-01,0.0205094
-4.94976e-01,0.0190344
-4.94968e-01,0.0195719
-4.94960e-01,0.0197
-4.94952e-01,0.019475
-4.94944e-01,0.0195844
-4.94936e-01,0.0190719
-4.94928e-01,0.01855
-4.94920e-01,0.019975
-4.94912e-01,0.01945
-4.94904e-01,0.0187
-4.94896e-01,0.0192719
-4.94888e-01,0.019375
-4.94880e-01,0.0183219
-4.94872e-01,0.0186
-4.94864e-01,0.0183594
-4.94856e-01,0.0205094
-4.94848e-01,0.0184
-4.94840e-01,0.0191344
-4.94832e-01,0.0174594
-4.94824e-01,0.0206
-4.94816e-01,0.0197094
-4.94808e-01,0.0194969
-4.94800e-01,0.0196844
-4.94792e-01,0.0197625
-4.94784e-01,0.0185594
-4.94776e-01,0.0190125
-4.94768e-01,0.0188719
-4.94760e-01,0.0186
-4.94752e-01,0.0197
-4.94744e-01,0.0199094
-4.94736e-01,0.0192594
-4.94728e-01,0.0177375
-4.94720e-01,0.0184125
-4.94712e-01,0.0195875
-4.94704e-01,0.0199094
-4.94696e-01,0.0195094
-4.94688e-01,0.0190469
-4.94680e-01,0.0200969
-4.94672e-01,0.0190094
-4.94664e-01,0.0191344
-4.94656e-01,0.0184844
-4.94648e-01,0.019825
-4.94640e-01,0.0188594
-4.94632e-01,0.0202844
-4.94624e-01,0.0183
-4.94616e-01,0.0178375
-4.94608e-01,0.0195313
-4.94600e-01,0.020475
-4.94592e-01,0.0198
-4.94584e-01,0.0200375
-4.94576e-01,0.0195375
-4.94568e-01,0.018475
-4.94560e-01,0.0193344
-4.94552e-01,0.019775
-4.94544e-01,0.0193
-4.94536e-01,0.0178344
-4.94528e-01,0.0182
-4.94520e-01,0.0198719
-4.94512e-01,0.0201625
-4.94504e-01,0.019825
-4.94496e-01,0.019875
-4.94488e-01,0.0183844
-4.94480e-01,0.0169375
-4.94472e-01,0.01875
-4.94464e-01,0.0197594
-4.94456e-01,0.0184344
-4.94448e-01,0.0183
-4.94440e-01,0.0189219
-4.94432e-01,0.0199125
-4.94424e-01,0.0185125
-4.94416e-01,0.01815
-4.94408e-01,0.0207344
-4.94400e-01,0.0203344
-4.94392e-01,0.0183125
-4.94384e-01,0.018425
-4.94376e-01,0.0190094
-4.94368e-01,0.0192094
-4.94360e-01,0.0206125
-4.94352e-01,0.0193469
-4.94344e-01,0.0184969
-4.94336e-01,0.0201344
-4.94328e-01,0.019925
-4.94320e-01,0.0186125
-4.94312e-01,0.0172469
-4.94304e-01,0.0197344
-4.94296e-01,0.0194875
-4.94288e-01,0.0206719
-4.94280e-01,0.0195969
-4.94272e-01,0.0207094
-4.94264e-01,0.0192844
-4.94256e-01,0.0188125
-4.94248e-01,0.0199125
-4.94240e-01,0.0201125
-4.94232e-01,0.0192375
-4.94224e-01,0.01955
-4.94216e-01,0.0191219
-4.94208e-01,0.0166625
-4.94200e-01,0.0190094
-4.94192e-01,0.0186375
-4.94184e-01,0.0189969
-4.94176e-01,0.0193375
-4.94168e-01,0.020625
-4.94160e-01,0.0209375
-4.94152e-01,0.0190969
-4.94144e-01,0.021725
-4.94136e-01,0.0202219
-4.94128e-01,0.0190594
-4.94120e-01,0.0197719
-4.94112e-01,0.0195094
-4.94104e-01,0.0185219
-4.94096e-01,0.019525
-4.94088e-01,0.01955
-4.94080e-01,0.0176125
-4.94072e-01,0.0191469
-4.94064e-01,0.020575
-4.94056e-01,0.019825
-4.94048e-01,0.0187594
-4.94040e-01,0.0205469
-4.94032e-01,0.0183094
-4.94024e-01,0.02055
-4.94016e-01,0.0195219
-4.94008e-01,0.0196719
-4.94000e-01,0.0180875
-4.93992e-01,0.0182625
-4.93984e-01,0.019375
-4.93976e-01,0.0210625
-4.93968e-01,0.0198
-4.93960e-01,0.0187594
-4.93952e-01,0.0194344
-4.93944e-01,0.0197719
-4.93936e-01,0.0193219
-4.93928e-01,0.018025
-4.93920e-01,0.0187844
-4.93912e-01,0.0182219
-4.93904e-01,0.0180594
-4.93896e-01,0.0195469
-4.93888e-01,0.0186844
-4.93880e-01,0.0177094
-4.93872e-01,0.0188375
-4.93864e-01,0.0181969
-4.93856e-01,0.021725
-4.93848e-01,0.0202719
-4.93840e-01,0.0204625
-4.93832e-01,0.0193469
-4.93824e-01,0.0178594
-4.93816e-01,0.0192125
-4.93808e-01,0.0191438
-4.93800e-01,0.0186469
-4.93792e-01,0.0190219
-4.93784e-01,0.0213
-4.93776e-01,0.018525
-4.93768e-01,0.0178625
-4.93760e-01,0.0188844
-4.93752e-01,0.019125
-4.93744e-01,0.0195875
-4.93736e-01,0.0182969
-4.93728e-01,0.0203
-4.93720e-01,0.01835
-4.93712e-01,0.0194
-4.93704e-01,0.0189
-4.93696e-01,0.0199625
-4.93688e-01,0.0173469
-4.93680e-01,0.0177344
-4.93672e-01,0.0187375
-4.93664e-01,0.018525
-4.93656e-01,0.01785
-4.93648e-01,0.01905
-4.93640e-01,0.019225
-4.93632e-01,0.0191219
-4.93624e-01,0.0195375
-4.93616e-01,0.017525
-4.93608e-01,0.01795
-4.93600e-01,0.0202094
-4.93592e-01,0.0197469
-4.93584e-01,0.0197844
-4.93576e-01,0.0186469
-4.93568e-01,0.0197625
-4.93560e-01,0.0187344
-4.93552e-01,0.0177094
-4.93544e-01,0.0196219
-4.93536e-01,0.020225
-4.93528e-01,0.0196
-4.93520e-01,0.0176
-4.93512e-01,0.0199969
-4.93504e-01,0.0195
-4.93496e-01,0.0178469
-4.93488e-01,0.0197969
-4.93480e-01,0.0191969
-4.93472e-01,0.0198
-4.93464e-01,0.0191719
-4.93456e-01,0.0194844
-4.93448e-01,0.017725
-4.93440e-01,0.0199125
-4.93432e-01,0.019575
-4.93424e-01,0.0186719
-4.93416e-01,0.0199625
-4.93408e-01,0.0184969
-4.93400e-01,0.0184469
-4.93392e-01,0.0178969
-4.93384e-01,0.0196
-4.93376e-01,0.0190719
-4.93368e-01,0.0190375
-4.93360e-01,0.0186
-4.93352e-01,0.0188094
-4.93344e-01,0.0198844
-4.93336e-01,0.0198969
-4.93328e-01,0.0205625
-4.93320e-01,0.0191594
-4.93312e-01,0.0189063
-4.93304e-01,0.0189719
-4.93296e-01,0.0195219
-4.93288e-01,0.0202625
-4.93280e-01,0.0196625
-4.93272e-01,0.01955
-4.93264e-01,0.0189594
-4.93256e-01,0.0182594
-4.93248e-01,0.0187
-4.93240e-01,0.0186219
-4.93232e-01,0.0192344
-4.93224e-01,0.0186375
-4.93216e-01,0.0197219
-4.93208e-01,0.0182344
-4.93200e-01,0.02055
-4.93192e-01,0.0187469
-4.93184e-01,0.0193125
-4.93176e-01,0.0191875
-4.93168e-01,0.019425
-4.93160e-01,0.0186125
-4.93152e-01,0.0200344
-4.93144e-01,0.0190875
-4.93136e-01,0.02
-4.93128e-01,0.0207
-4.93120e-01,0.019725
-4.93112e-01,0.0197344
-4.93104e-01,0.0201594
-4.93096e-01,0.0197625
-4.93088e-01,0.0203094
-4.93080e-01,0.0197594
-4.93072e-01,0.01995
-4.93064e-01,0.018575
-4.93056e-01,0.01725
-4.93048e-01,0.0180094
-4.93040e-01,0.0192875
-4.93032e-01,0.0214094
-4.93024e-01,0.0184969
-4.93016e-01,0.0186594
