Messung_Leistungskennlinie_versch_Harvester/Harvester_neu/20kmh/Harvester_100Ohm.CSV

Model,MSO2024
Firmware Version,1.52

Point Format,Y
Horizontal Units,S
Horizontal Scale,0.04
Sample Interval,3.2e-06
Filter Frequency,2e+08
Record Length,125000
Gating,0.0% to 100.0%
Probe Attenuation,10
Vertical Units,V
Vertical Offset,0
Vertical Scale,0.02
Label,
TIME,CH1
-2.00000e-01,0.0005
-1.99997e-01,0.00310625
-1.99994e-01,0.00224062
-1.99990e-01,0.00207187
-1.99987e-01,0.0030875
-1.99984e-01,0.00091875
-1.99981e-01,0.00258437
-1.99978e-01,0.00125937
-1.99974e-01,0.00311562
-1.99971e-01,0.00151875
-1.99968e-01,0.001925
-1.99965e-01,0.00291875
-1.99962e-01,0.00205
-1.99958e-01,0.00315312
-1.99955e-01,0.001725
-1.99952e-01,0.00180625
-1.99949e-01,0.0020875
-1.99946e-01,0.00210312
-1.99942e-01,0.00158437
-1.99939e-01,0.00184062
-1.99936e-01,0.00145625
-1.99933e-01,0.00242187
-1.99930e-01,0.00290312
-1.99926e-01,0.00285625
-1.99923e-01,0.00243437
-1.99920e-01,0.00170312
-1.99917e-01,0.0022375
-1.99914e-01,0.00149375
-1.99910e-01,0.00259062
-1.99907e-01,0.00205937
-1.99904e-01,0.00205625
-1.99901e-01,0.0013375
-1.99898e-01,0.0026
-1.99894e-01,0.00332187
-1.99891e-01,0.00248125
-1.99888e-01,0.00329375
-1.99885e-01,0.00219375
-1.99882e-01,0.0019125
-1.99878e-01,0.00099375
-1.99875e-01,0.0015625
-1.99872e-01,0.00131562
-1.99869e-01,0.00271875
-1.99866e-01,0.00364375
-1.99862e-01,0.0024375
-1.99859e-01,0.00182187
-1.99856e-01,0.002575
-1.99853e-01,0.000846875
-1.99850e-01,0.00175625
-1.99846e-01,0.00265937
-1.99843e-01,0.00162187
-1.99840e-01,0.000990625
-1.99837e-01,0.00252187
-1.99834e-01,0.00190625
-1.99830e-01,0.00100937
-1.99827e-01,0.00186562
-1.99824e-01,0.00102187
-1.99821e-01,0.0024875
-1.99818e-01,0.00269687
-1.99814e-01,0.00172187
-1.99811e-01,0.00167187
-1.99808e-01,0.00117812
-1.99805e-01,0.00266562
-1.99802e-01,0.00118437
-1.99798e-01,0.00239375
-1.99795e-01,0.00279062
-1.99792e-01,0.00238437
-1.99789e-01,0.00165312
-1.99786e-01,0.0011875
-1.99782e-01,0.00291562
-1.99779e-01,0.00274687
-1.99776e-01,0.00232187
-1.99773e-01,0.00214062
-1.99770e-01,0.00166875
-1.99766e-01,0.00119687
-1.99763e-01,0.0021
-1.99760e-01,0.00255312
-1.99757e-01,0.00182187
-1.99754e-01,0.0023
-1.99750e-01,0.00170625
-1.99747e-01,0.00125625
-1.99744e-01,0.00179062
-1.99741e-01,0.001775
-1.99738e-01,0.00260937
-1.99734e-01,0.00269375
-1.99731e-01,0.00165312
-1.99728e-01,0.00182812
-1.99725e-01,0.00275625
-1.99722e-01,0.00134062
-1.99718e-01,0.002675
-1.99715e-01,0.00208437
-1.99712e-01,0.0023875
-1.99709e-01,0.0025375
-1.99706e-01,0.00153437
-1.99702e-01,0.00100312
-1.99699e-01,0.002075
-1.99696e-01,0.00291562
-1.99693e-01,0.00184687
-1.99690e-01,0.00331562
-1.99686e-01,0.00220312
-1.99683e-01,0.00290312
-1.99680e-01,0.00210312
-1.99677e-01,0.00255625
-1.99674e-01,0.00255937
-1.99670e-01,0.00298437
-1.99667e-01,0.00159062
-1.99664e-01,0.00240625
-1.99661e-01,0.00257812
-1.99658e-01,0.0020875
-1.99654e-01,0.00179375
-1.99651e-01,0.00269062
-1.99648e-01,0.00268125
-1.99645e-01,0.00209062
-1.99642e-01,0.000778125
-1.99638e-01,0.00102187
-1.99635e-01,0.0019375
-1.99632e-01,0.00165312
-1.99629e-01,0.00140937
-1.99626e-01,0.00170937
-1.99622e-01,0.00215312
-1.99619e-01,0.0032125
-1.99616e-01,0.00328125
-1.99613e-01,0.00154687
-1.99610e-01,0.00213437
-1.99606e-01,0.00262812
-1.99603e-01,0.00235
-1.99600e-01,0.0018625
-1.99597e-01,0.00075
-1.99594e-01,0.00102812
-1.99590e-01,0.00178125
-1.99587e-01,0.00363125
-1.99584e-01,0.00294687
-1.99581e-01,0.00161875
-1.99578e-01,0.00228437
-1.99574e-01,0.00161875
-1.99571e-01,0.0011125
-1.99568e-01,0.00248437
-1.99565e-01,0.00220937
-1.99562e-01,0.002275
-1.99558e-01,0.00157812
-1.99555e-01,0.00174375
-1.99552e-01,0.00288437
-1.99549e-01,0.0018375
-1.99546e-01,0.00328437
-1.99542e-01,0.00294062
-1.99539e-01,0.0022
-1.99536e-01,0.00268125
-1.99533e-01,0.00244062
-1.99530e-01,0.00152812
-1.99526e-01,0.00183437
-1.99523e-01,0.00215312
-1.99520e-01,0.00287812
-1.99517e-01,0.0012625
-1.99514e-01,0.0007625
-1.99510e-01,0.00245312
-1.99507e-01,0.00119375
-1.99504e-01,0.00218125
-1.99501e-01,0.00197187
-1.99498e-01,0.0012
-1.99494e-01,0.0023625
-1.99491e-01,0.00229062
-1.99488e-01,0.00311875
-1.99485e-01,0.00106875
-1.99482e-01,0.0015125
-1.99478e-01,0.00274375
-1.99475e-01,0.00224687
-1.99472e-01,0.00234375
-1.99469e-01,0.00240937
-1.99466e-01,0.0014625
-1.99462e-01,0.00132812
-1.99459e-01,0.00268437
-1.99456e-01,0.000953125
-1.99453e-01,0.001325
-1.99450e-01,0.00269375
-1.99446e-01,0.00208437
-1.99443e-01,0.00164687
-1.99440e-01,0.00182812
-1.99437e-01,0.00203437
-1.99434e-01,0.0004875
-1.99430e-01,0.00135937
-1.99427e-01,0.0018875
-1.99424e-01,0.00170937
-1.99421e-01,0.001925
-1.99418e-01,0.00245625
-1.99414e-01,0.00199375
-1.99411e-01,0.00218437
-1.99408e-01,0.00239687
-1.99405e-01,0.00194375
-1.99402e-01,0.00229375
-1.99398e-01,0.00255625
-1.99395e-01,0.0014375
-1.99392e-01,0.00217187
-1.99389e-01,0.00221562
-1.99386e-01,0.0009625
-1.99382e-01,0.000265625
-1.99379e-01,0.00126562
-1.99376e-01,0.00058125
-1.99373e-01,0.00158125
-1.99370e-01,0.0018625
-1.99366e-01,0.00297187
-1.99363e-01,0.00320625
-1.99360e-01,0.00259375
-1.99357e-01,0.0021625
-1.99354e-01,0.00288437
-1.99350e-01,0.00275312
-1.99347e-01,0.003525
-1.99344e-01,0.00215
-1.99341e-01,0.00176562
-1.99338e-01,0.00199687
-1.99334e-01,0.00271875
-1.99331e-01,0.002
-1.99328e-01,0.00215937
-1.99325e-01,0.00256875
-1.99322e-01,0.00189062
-1.99318e-01,0.00285625
-1.99315e-01,0.00256875
-1.99312e-01,0.00274062
-1.99309e-01,0.00298437
-1.99306e-01,0.00188125
-1.99302e-01,0.00175312
-1.99299e-01,0.00203125
-1.99296e-01,0.00314062
-1.99293e-01,0.00334062
-1.99290e-01,0.00265312
-1.99286e-01,0.00188437
-1.99283e-01,0.002375
-1.99280e-01,0.00354687
-1.99277e-01,0.00212812
-1.99274e-01,0.00189062
-1.99270e-01,0.00245625
-1.99267e-01,0.00134375
-1.99264e-01,0.0017625
-1.99261e-01,0.00278125
-1.99258e-01,0.00199062
-1.99254e-01,0.0015625
-1.99251e-01,0.00240937
-1.99248e-01,0.00277187
-1.99245e-01,0.0022375
-1.99242e-01,0.0017
-1.99238e-01,0.00114375
-1.99235e-01,0.00079375
-1.99232e-01,0.00240625
-1.99229e-01,0.00234062
-1.99226e-01,0.00290625
-1.99222e-01,0.00145937
-1.99219e-01,0.00207812
-1.99216e-01,0.0019875
-1.99213e-01,0.00209375
-1.99210e-01,0.00185312
-1.99206e-01,0.00417187
-1.99203e-01,0.00244062
-1.99200e-01,0.00121562
-1.99197e-01,0.0012125
-1.99194e-01,0.001125
-1.99190e-01,0.00381875
-1.99187e-01,0.00185312
-1.99184e-01,0.00259375
-1.99181e-01,0.00155937
-1.99178e-01,0.00232812
-1.99174e-01,0.00272812
-1.99171e-01,0.00089375
-1.99168e-01,0.00253125
-1.99165e-01,0.00192812
-1.99162e-01,0.00229062
-1.99158e-01,0.00115625
-1.99155e-01,0.00184375
-1.99152e-01,0.001625
-1.99149e-01,0.00185312
-1.99146e-01,0.0027
-1.99142e-01,0.0026875
-1.99139e-01,0.000453125
-1.99136e-01,0.0021125
-1.99133e-01,0.00262812
-1.99130e-01,0.00352187
-1.99126e-01,0.00134062
-1.99123e-01,0.00187812
-1.99120e-01,0.00128437
-1.99117e-01,0.00187812
-1.99114e-01,0.00418125
-1.99110e-01,0.0026125
-1.99107e-01,0.00184687
-1.99104e-01,0.0026625
-1.99101e-01,0.00138125
-1.99098e-01,0.00245625
-1.99094e-01,0.0016875
-1.99091e-01,0.00287812
-1.99088e-01,0.00278437
-1.99085e-01,0.0033125
-1.99082e-01,0.00295
-1.99078e-01,0.0018375
-1.99075e-01,0.00153437
-1.99072e-01,0.00314062
-1.99069e-01,0.000553125
-1.99066e-01,0.00033125
-1.99062e-01,0.00162812
-1.99059e-01,0.00210625
-1.99056e-01,0.0021
-1.99053e-01,0.00225625
-1.99050e-01,0.00265625
-1.99046e-01,0.00205312
-1.99043e-01,0.00254375
-1.99040e-01,0.00105312
-1.99037e-01,0.00209062
-1.99034e-01,0.00194062
-1.99030e-01,0.002125
-1.99027e-01,0.00206562
-1.99024e-01,0.00305937
-1.99021e-01,0.0024625
-1.99018e-01,0.00312812
-1.99014e-01,0.00213437
-1.99011e-01,0.00237812
-1.99008e-01,0.00242812
-1.99005e-01,0.00133125
-1.99002e-01,0.00126562
-1.98998e-01,0.00205937
-1.98995e-01,0.00155625
-1.98992e-01,0.00201562
-1.98989e-01,0.00259375
-1.98986e-01,0.00285312
-1.98982e-01,0.0025
-1.98979e-01,0.00150312
-1.98976e-01,0.00210625
-1.98973e-01,0.00115937
-1.98970e-01,0.00262187
-1.98966e-01,0.00238125
-1.98963e-01,0.00106562
-1.98960e-01,0.00249375
-1.98957e-01,0.00193437
-1.98954e-01,0.00182812
-1.98950e-01,0.00199062
-1.98947e-01,0.00159062
-1.98944e-01,0.0028375
-1.98941e-01,0.00151875
-1.98938e-01,0.00201562
-1.98934e-01,0.00282187
-1.98931e-01,0.00294687
-1.98928e-01,0.0016875
-1.98925e-01,0.0021125
-1.98922e-01,0.00121875
-1.98918e-01,0.0029625
-1.98915e-01,0.00249375
-1.98912e-01,0.00154687
-1.98909e-01,0.000290625
-1.98906e-01,0.00219375
-1.98902e-01,0.00312812
-1.98899e-01,0.00194375
-1.98896e-01,0.00320312
-1.98893e-01,0.00313437
-1.98890e-01,0.00221562
-1.98886e-01,0.00230937
-1.98883e-01,0.00209062
-1.98880e-01,0.00117812
-1.98877e-01,0.0018375
-1.98874e-01,0.0026625
-1.98870e-01,0.0027
-1.98867e-01,0.00114375
-1.98864e-01,0.00226875
-1.98861e-01,0.000909375
-1.98858e-01,0.00241875
-1.98854e-01,0.00235312
-1.98851e-01,0.00128437
-1.98848e-01,0.00219375
-1.98845e-01,0.00123125
-1.98842e-01,0.00220312
-1.98838e-01,0.00214375
-1.98835e-01,0.0027625
-1.98832e-01,0.0018625
-1.98829e-01,0.00256562
-1.98826e-01,0.00257187
-1.98822e-01,0.00128125
-1.98819e-01,0.00178125
-1.98816e-01,0.00139062
-1.98813e-01,0.00138437
-1.98810e-01,0.00070625
-1.98806e-01,0.00175625
-1.98803e-01,0.0025875
-1.98800e-01,0.00196562
-1.98797e-01,0.000703125
-1.98794e-01,0.00210625
-1.98790e-01,0.00295
-1.98787e-01,0.0020375
-1.98784e-01,0.00128125
-1.98781e-01,0.00190625
-1.98778e-01,0.002875
-1.98774e-01,0.00277187
-1.98771e-01,0.00255
-1.98768e-01,0.00330625
-1.98765e-01,0.00220937
-1.98762e-01,0.00274062
-1.98758e-01,0.00228125
-1.98755e-01,0.00392187
-1.98752e-01,0.00292812
-1.98749e-01,0.003
-1.98746e-01,0.00261875
-1.98742e-01,0.00240937
-1.98739e-01,0.0030625
-1.98736e-01,0.0022125
-1.98733e-01,0.00090625
-1.98730e-01,0.00287812
-1.98726e-01,0.00195625
-1.98723e-01,0.00130937
-1.98720e-01,0.0027875
-1.98717e-01,0.002675
-1.98714e-01,0.00246875
-1.98710e-01,0.00185937
-1.98707e-01,0.000796875
-1.98704e-01,0.0022
-1.98701e-01,0.00119375
-1.98698e-01,0.00119375
-1.98694e-01,0.00263125
-1.98691e-01,0.0019375
-1.98688e-01,0.00124062
-1.98685e-01,0.00157187
-1.98682e-01,0.00188125
-1.98678e-01,0.0017375
-1.98675e-01,0.00201562
-1.98672e-01,0.00241875
-1.98669e-01,0.0013625
-1.98666e-01,0.00117812
-1.98662e-01,0.00286875
-1.98659e-01,0.00197812
-1.98656e-01,0.00278125
-1.98653e-01,0.00241875
-1.98650e-01,0.00251875
-1.98646e-01,0.0018625
-1.98643e-01,0.00201562
-1.98640e-01,0.00251562
-1.98637e-01,0.0019125
-1.98634e-01,0.00101562
-1.98630e-01,0.00162187
-1.98627e-01,0.00184062
-1.98624e-01,0.00338437
-1.98621e-01,0.00265312
-1.98618e-01,0.00237812
-1.98614e-01,0.002825
-1.98611e-01,0.00207187
-1.98608e-01,0.00251875
-1.98605e-01,0.00228125
-1.98602e-01,0.0017
-1.98598e-01,0.00262187
-1.98595e-01,0.00171562
-1.98592e-01,0.00212812
-1.98589e-01,0.00212812
-1.98586e-01,0.002
-1.98582e-01,0.00125625
-1.98579e-01,0.00180625
-1.98576e-01,0.00105625
-1.98573e-01,0.00266875
-1.98570e-01,0.00129687
-1.98566e-01,0.000771875
-1.98563e-01,0.00294062
-1.98560e-01,0.00262812
-1.98557e-01,0.00281875
-1.98554e-01,0.00223437
-1.98550e-01,0.00224687
-1.98547e-01,0.00219375
-1.98544e-01,0.00212187
-1.98541e-01,0.000759375
-1.98538e-01,0.001675
-1.98534e-01,0.00250937
-1.98531e-01,0.00324687
-1.98528e-01,0.00316875
-1.98525e-01,0.00237187
-1.98522e-01,0.00281875
-1.98518e-01,0.0011125
-1.98515e-01,0.0027125
-1.98512e-01,0.0025625
-1.98509e-01,0.002525
-1.98506e-01,0.002325
-1.98502e-01,0.00154062
-1.98499e-01,0.00109062
-1.98496e-01,0.00154687
-1.98493e-01,0.00219687
-1.98490e-01,0.00145625
-1.98486e-01,0.00201562
-1.98483e-01,0.00245937
-1.98480e-01,0.00319375
-1.98477e-01,0.00181562
-1.98474e-01,0.00192187
-1.98470e-01,0.002375
-1.98467e-01,0.001275
-1.98464e-01,0.002375
-1.98461e-01,0.00317812
-1.98458e-01,0.0019125
-1.98454e-01,0.0027625
-1.98451e-01,0.00257187
-1.98448e-01,0.00177812
-1.98445e-01,0.00230625
-1.98442e-01,0.002
-1.98438e-01,0.00324375
-1.98435e-01,0.00299375
-1.98432e-01,0.00289375
-1.98429e-01,0.00233125
-1.98426e-01,0.00264375
-1.98422e-01,0.00192812
-1.98419e-01,0.000775
-1.98416e-01,0.00194687
-1.98413e-01,0.00199687
-1.98410e-01,0.00270625
-1.98406e-01,0.00201875
-1.98403e-01,0.00192187
-1.98400e-01,0.00234062
-1.98397e-01,0.00229375
-1.98394e-01,0.0009875
-1.98390e-01,0.00107812
-1.98387e-01,0.00318125
-1.98384e-01,0.00268125
-1.98381e-01,0.001875
-1.98378e-01,0.00129687
-1.98374e-01,0.00196875
-1.98371e-01,0.00070625
-1.98368e-01,0.00258437
-1.98365e-01,0.00185625
-1.98362e-01,0.00149687
-1.98358e-01,0.0020125
-1.98355e-01,0.00139687
-1.98352e-01,0.00280937
-1.98349e-01,0.00146562
-1.98346e-01,0.001925
-1.98342e-01,0.00282812
-1.98339e-01,0.0023625
-1.98336e-01,0.00188125
-1.98333e-01,0.00115625
-1.98330e-01,0.0021625
-1.98326e-01,0.0019625
-1.98323e-01,0.00249375
-1.98320e-01,0.00319375
-1.98317e-01,0.00177812
-1.98314e-01,0.0027625
-1.98310e-01,0.000659375
-1.98307e-01,0.00183437
-1.98304e-01,0.00255312
-1.98301e-01,0.00250625
-1.98298e-01,0.00147187
-1.98294e-01,0.00236875
-1.98291e-01,0.00233125
-1.98288e-01,0.00236562
-1.98285e-01,0.00207812
-1.98282e-01,0.00172812
-1.98278e-01,0.00270937
-1.98275e-01,0.00149687
-1.98272e-01,0.00327812
-1.98269e-01,0.00251875
-1.98266e-01,0.00109687
-1.98262e-01,0.00225937
-1.98259e-01,0.001425
-1.98256e-01,0.00276875
-1.98253e-01,0.00152187
-1.98250e-01,0.0021
-1.98246e-01,0.00207187
-1.98243e-01,0.002025
-1.98240e-01,0.0020625
-1.98237e-01,0.00273125
-1.98234e-01,0.00228437
-1.98230e-01,0.00290312
-1.98227e-01,0.00177187
-1.98224e-01,0.00334062
-1.98221e-01,0.00119687
-1.98218e-01,0.00151875
-1.98214e-01,0.00125625
-1.98211e-01,0.00398437
-1.98208e-01,0.00229062
-1.98205e-01,0.00189062
-1.98202e-01,0.00192187
-1.98198e-01,0.00186875
-1.98195e-01,0.000478125
-1.98192e-01,0.00267187
-1.98189e-01,0.00216875
-1.98186e-01,0.00122812
-1.98182e-01,0.00234375
-1.98179e-01,0.00209375
-1.98176e-01,0.00250937
-1.98173e-01,0.00285937
-1.98170e-01,0.00169375
-1.98166e-01,0.00215937
-1.98163e-01,0.003875
-1.98160e-01,0.00261875
-1.98157e-01,0.00186875
-1.98154e-01,0.00254375
-1.98150e-01,0.00134062
-1.98147e-01,0.0017125
-1.98144e-01,0.00210312
-1.98141e-01,0.00130625
-1.98138e-01,0.00275625
-1.98134e-01,0.00107187
-1.98131e-01,0.00176875
-1.98128e-01,0.0023
-1.98125e-01,0.00199375
-1.98122e-01,0.0018625
-1.98118e-01,0.0023375
-1.98115e-01,0.0013875
-1.98112e-01,0.001725
-1.98109e-01,0.00258437
-1.98106e-01,0.0008125
-1.98102e-01,0.001925
-1.98099e-01,0.001325
-1.98096e-01,0.00200937
-1.98093e-01,0.00263437
-1.98090e-01,0.0020125
-1.98086e-01,0.00230312
-1.98083e-01,0.001825
-1.98080e-01,0.00281875
-1.98077e-01,0.00163437
-1.98074e-01,0.00237187
-1.98070e-01,0.00138437
-1.98067e-01,0.0020125
-1.98064e-01,0.00265937
-1.98061e-01,0.00183125
-1.98058e-01,0.00239687
-1.98054e-01,0.0024125
-1.98051e-01,0.001725
-1.98048e-01,0.00217812
-1.98045e-01,0.00221562
-1.98042e-01,0.00182812
-1.98038e-01,0.00349375
-1.98035e-01,0.00253437
-1.98032e-01,0.00059375
-1.98029e-01,0.00190937
-1.98026e-01,0.00267812
-1.98022e-01,0.00201562
-1.98019e-01,0.00221875
-1.98016e-01,0.00169687
-1.98013e-01,0.00250937
-1.98010e-01,0.00235937
-1.98006e-01,0.00197812
-1.98003e-01,0.00270625
-1.98000e-01,0.00235312
-1.97997e-01,0.00259375
-1.97994e-01,0.002225
-1.97990e-01,0.0013375
-1.97987e-01,0.00141875
-1.97984e-01,0.00125937
-1.97981e-01,0.00205937
-1.97978e-01,0.00234375
-1.97974e-01,0.00212812
-1.97971e-01,0.00220625
-1.97968e-01,0.00217812
-1.97965e-01,0.00349062
-1.97962e-01,0.000784375
-1.97958e-01,0.00232812
-1.97955e-01,0.001725
-1.97952e-01,0.00288125
-1.97949e-01,0.002475
-1.97946e-01,0.002425
-1.97942e-01,0.000565625
-1.97939e-01,0.002775
-1.97936e-01,0.00179062
-1.97933e-01,0.00265
-1.97930e-01,0.00279687
-1.97926e-01,0.00203437
-1.97923e-01,0.0018
-1.97920e-01,0.002125
-1.97917e-01,0.00085625
-1.97914e-01,0.000665625
-1.97910e-01,0.00190625
-1.97907e-01,0.0019375
-1.97904e-01,0.00275312
-1.97901e-01,0.00110312
-1.97898e-01,0.00337812
-1.97894e-01,0.00184375
-1.97891e-01,0.0009375
-1.97888e-01,0.00165937
-1.97885e-01,0.00162187
-1.97882e-01,0.00180937
-1.97878e-01,0.00248437
-1.97875e-01,0.00244062
-1.97872e-01,0.00177812
-1.97869e-01,0.00275
-1.97866e-01,0.0018125
-1.97862e-01,0.00300312
-1.97859e-01,0.00169375
-1.97856e-01,0.00213437
-1.97853e-01,0.00223437
-1.97850e-01,0.00240937
-1.97846e-01,0.0017
-1.97843e-01,0.00204687
-1.97840e-01,0.00164062
-1.97837e-01,0.00219062
-1.97834e-01,0.00252812
-1.97830e-01,0.00338125
-1.97827e-01,0.00219062
-1.97824e-01,0.00180625
-1.97821e-01,0.00168125
-1.97818e-01,0.00136562
-1.97814e-01,0.00214687
-1.97811e-01,0.00170312
-1.97808e-01,0.00224687
-1.97805e-01,0.002125
-1.97802e-01,0.0023
-1.97798e-01,0.00300625
-1.97795e-01,0.00204062
-1.97792e-01,0.0021
-1.97789e-01,0.0010625
-1.97786e-01,0.00203125
-1.97782e-01,0.00336562
-1.97779e-01,0.0038
-1.97776e-01,0.00268125
-1.97773e-01,0.00193437
-1.97770e-01,0.00134062
-1.97766e-01,0.00215625
-1.97763e-01,0.00306875
-1.97760e-01,0.00145312
-1.97757e-01,0.0019
-1.97754e-01,0.00187812
-1.97750e-01,0.0033375
-1.97747e-01,0.00225312
-1.97744e-01,0.00117187
-1.97741e-01,0.00204375
-1.97738e-01,0.00172187
-1.97734e-01,0.00245937
-1.97731e-01,0.0020625
-1.97728e-01,0.00139375
-1.97725e-01,0.00263437
-1.97722e-01,0.0025
-1.97718e-01,0.00185937
-1.97715e-01,0.00196562
-1.97712e-01,0.00119375
-1.97709e-01,0.00245937
-1.97706e-01,0.00280937
-1.97702e-01,0.00267187
-1.97699e-01,0.001925
-1.97696e-01,0.00276875
-1.97693e-01,0.001825
-1.97690e-01,0.00266875
-1.97686e-01,0.0024
-1.97683e-01,0.00232812
-1.97680e-01,0.00209687
-1.97677e-01,0.0011375
-1.97674e-01,0.00261562
-1.97670e-01,0.00130937
-1.97667e-01,0.000978125
-1.97664e-01,0.00313437
-1.97661e-01,0.0027625
-1.97658e-01,0.0021
-1.97654e-01,0.00228437
-1.97651e-01,0.001325
-1.97648e-01,0.00215625
-1.97645e-01,0.00239687
-1.97642e-01,0.0015
-1.97638e-01,0.0014875
-1.97635e-01,0.00208437
-1.97632e-01,0.00242812
-1.97629e-01,0.002625
-1.97626e-01,0.0021
-1.97622e-01,0.00175312
-1.97619e-01,0.00248437
-1.97616e-01,0.00162812
-1.97613e-01,0.00195937
-1.97610e-01,0.00295937
-1.97606e-01,0.0010875
-1.97603e-01,0.0014875
-1.97600e-01,0.00240937
-1.97597e-01,0.00220625
-1.97594e-01,0.00268125
-1.97590e-01,0.00130625
-1.97587e-01,0.001325
-1.97584e-01,0.00141562
-1.97581e-01,0.00319375
-1.97578e-01,0.00182187
-1.97574e-01,0.00171875
-1.97571e-01,0.00191875
-1.97568e-01,0.00155312
-1.97565e-01,0.00318437
-1.97562e-01,0.00220937
-1.97558e-01,0.00142187
-1.97555e-01,0.00217812
-1.97552e-01,0.00207187
-1.97549e-01,0.0026125
-1.97546e-01,0.00277187
-1.97542e-01,0.00140312
-1.97539e-01,0.00195
-1.97536e-01,0.00311875
-1.97533e-01,0.00181562
-1.97530e-01,0.00153437
-1.97526e-01,0.0025125
-1.97523e-01,0.002075
-1.97520e-01,0.00209375
-1.97517e-01,0.00291562
-1.97514e-01,0.00160937
-1.97510e-01,0.0029875
-1.97507e-01,0.00212187
-1.97504e-01,0.00264375
-1.97501e-01,0.00213125
-1.97498e-01,0.00170312
-1.97494e-01,0.00165312
-1.97491e-01,0.0018625
-1.97488e-01,0.00219375
-1.97485e-01,0.0014625
-1.97482e-01,0.00050625
-1.97478e-01,0.00214375
-1.97475e-01,0.00285937
-1.97472e-01,0.00159062
-1.97469e-01,0.00207812
-1.97466e-01,0.00290625
-1.97462e-01,0.00264062
-1.97459e-01,0.0016375
-1.97456e-01,0.00259687
-1.97453e-01,0.00130625
-1.97450e-01,0.0019
-1.97446e-01,0.00238125
-1.97443e-01,0.0024125
-1.97440e-01,0.00179062
-1.97437e-01,0.00139062
-1.97434e-01,0.00128125
-1.97430e-01,0.002425
-1.97427e-01,0.00175625
-1.97424e-01,0.00191562
-1.97421e-01,0.0010375
-1.97418e-01,0.00173125
-1.97414e-01,0.00118125
-1.97411e-01,0.00239687
-1.97408e-01,0.00189062
-1.97405e-01,0.00264062
-1.97402e-01,0.0024375
-1.97398e-01,0.00259062
-1.97395e-01,0.001225
-1.97392e-01,0.00104687
-1.97389e-01,0.00141875
-1.97386e-01,0.0020625
-1.97382e-01,0.00255
-1.97379e-01,0.0028125
-1.97376e-01,0.00140312
-1.97373e-01,0.00170937
-1.97370e-01,0.00206562
-1.97366e-01,0.0026875
-1.97363e-01,0.00115625
-1.97360e-01,0.0030375
-1.97357e-01,0.00230625
-1.97354e-01,0.001625
-1.97350e-01,0.00256562
-1.97347e-01,0.00172812
-1.97344e-01,0.00068125
-1.97341e-01,0.00175625
-1.97338e-01,0.0017125
-1.97334e-01,0.00319687
-1.97331e-01,0.0038375
-1.97328e-01,0.00250625
